{"events":[{"id":6340772,"title":"Показ фильма «Яга на нашу голову»","description":"Когда у десятилетнего Пети появляется новая воспитательница – странная и ворчливая, но невероятно обаятельная, – он быстро понимает, что она не такая, как все. Она – «няня под прикрытием», а на самом деле – Яга, легендарная волшебница, потерявшая свою ступу и спрятавшаяся среди людей. Теперь только Петя сможет помочь ей вернуть магические силы, а Яга – научить мальчика летать. И не только на ступе, но и по жизни. Режиссером картины является Александр Войтинский («По щучьему велению»). Главные роли исполнили Светлана Ходченкова и Юрий Колокольников.","age":6,"ageCategory":"6+","startDate":"12.11.2025","endDate":"03.12.2025","city":"Тамбовский район","category":"Кино","isFree":false,"price":200,"image":"https:\/\/all.culture.ru\/uploads\/99848765da4fa48e734751e09e7377df.jpg","place":"Центр культуры и досуга «Молодежный» п. Строитель","address":"обл Тамбовская,р-н Тамбовский,п Строитель,мкр Центральный,д 21","organizer":"МАУК ЦКД «Молодежный»"},{"id":6340775,"title":"Показ фильма «Яга на нашу голову»","description":"Когда у десятилетнего Пети появляется новая воспитательница – странная и ворчливая, но невероятно обаятельная, – он быстро понимает, что она не такая, как все. Она – «няня под прикрытием», а на самом деле – Яга, легендарная волшебница, потерявшая свою ступу и спрятавшаяся среди людей. Теперь только Петя сможет помочь ей вернуть магические силы, а Яга – научить мальчика летать. И не только на ступе, но и по жизни. Режиссером картины является Александр Войтинский («По щучьему велению»). Главные роли исполнили Светлана Ходченкова и Юрий Колокольников.","age":6,"ageCategory":"6+","startDate":"12.11.2025","endDate":"03.12.2025","city":"Ульяновский район","category":"Кино","isFree":false,"price":150,"image":"https:\/\/all.culture.ru\/uploads\/99848765da4fa48e734751e09e7377df.jpg","place":"Николаевский межпоселенческий культурно-досуговый центр","address":"обл Ульяновская,р-н Ульяновский,рп Николаевка,площадь Ленина,7","organizer":"МУК «Николаевский межпоселенческий культурно-досуговый центр»"},{"id":6340777,"title":"Кино «Освобождение. Прорыв»","description":"  Масштабная историческая киноэпопея Юрия Озерова «Освобождение» состоит из пяти фильмов. Фильм второй - «Прорыв» посвящен битве за Днепр и наступательной операции советских войск в 1944 г. В центре этого фильма судьба батальона, сражавшегося на этом плацдарме.    Идёт освобождение Орла и Белгорода, а также оставление немцами Харькова. Впереди форсирование Днепра. Реальный факт создания ложного плацдарма на правом берегу Днепра с тем, чтобы оттянуть на него крупные силы немцев. Плацдарм был полностью окружён, и большая часть его защитников погибла. Лишь немногим удалось прорвать окружение и выйти к основной переправе советских войск. В этот список авторы включили и своих героев — капитана-артиллериста Цветаева и майора Орлова. В это же самое время Бенито Муссолини был арестован в ходе заговора маршала Пьетро Бадольо. По приказу Адольфа Гитлера дуче освободила специальная группа Отто Скорцени. Немецко-фашистские войска вторглись в Италию. Фильм заканчивается Тегеранской конференцией.  ","age":12,"ageCategory":"12+","startDate":"22.11.2025","endDate":"22.11.2025","city":"Буинский район","category":"Кино","isFree":true,"price":"","image":"https:\/\/all.culture.ru\/uploads\/a6fcaa4da50fd65c73e4309b6469f973.jpg","place":"Сельский дом культуры с. Вольный Стан","address":"Респ Татарстан,р-н Буинский,с Вольный Стан,ул М.Горького,д 56","organizer":"МБУ «Досуговый центр» Буинского муниципального района РТ"},{"id":6340783,"title":"Показ фильма «Иллюзия обмана 3»","description":" Джей Дэниел Атлас, временно отделившись от остальных «Всадников», набирает команду из молодых иллюзионистов. Они хотят – похитить «Бриллиантовое сердце» – самое дорогое ювелирное изделие в мире, которое хранится у криминального семейства Вандербергов. Однако вскоре выясняется, что на тот же алмаз положили глаз и бывшие напарники Атласа. Столкнувшись с общим врагом, старому и новому поколению «Всадников» предстоит забыть о разногласиях и объединить силы, чтобы провернуть самый масштабный и опасный фокус в их жизни. ","age":12,"ageCategory":"12+","startDate":"15.11.2025","endDate":"15.11.2025","city":"Брейтовский район","category":"Кино","isFree":false,"price":180,"image":"https:\/\/all.culture.ru\/uploads\/c7a16d6e91222d81b27b03be0db372e4.jpg","place":"Брейтовский районный культурно-досуговый центр","address":"обл Ярославская,р-н Брейтовский,с Брейтово,ул Республиканская,д 23","organizer":"МУК Брейтовский районный КДЦ"},{"id":6340784,"title":"Кино «Освобождение. Прорыв»","description":"Фильм «Освобождение: Прорыв» (1969) повествует о битве за Днепр и наступательной операции советских войск во второй половине 1943 года. В центре сюжета — судьба батальона, сражавшегося на плацдарме.  Фильм «Прорыв» посвящён битве за Днепр и наступательной операции советских войск в 1944 году. В центре фильма — судьба батальона, сражавшегося на плацдарме.  «Освобождение: Прорыв» (1968–1971) — это историческая хроника о самых главных событиях и сражениях Великой Отечественной войны. В картине, наряду с подлинными историческими деятелями, действуют и вымышленные герои.  Фильм «Освобождение: Прорыв» (1970) — вторая часть главной советской эпопеи о Второй мировой войне. В центре сюжета — очередной этап разгрома немецко-фашистских войск советской армией, битва за Днепр.  «Освобождение: Прорыв» (1969) — вторая часть киноэпопеи о битве за Днепр. Ради успеха наступления командование решается на отвлекающий манёвр.     ","age":12,"ageCategory":"12+","startDate":"15.11.2025","endDate":"15.11.2025","city":"Буинск","category":"Кино","isFree":true,"price":"","image":"https:\/\/all.culture.ru\/uploads\/a6fcaa4da50fd65c73e4309b6469f973.jpg","place":"Досуговый центр Буинского района","address":"Респ Татарстан,р-н Буинский,г Буинск,ул Р.Люксембург,д 65","organizer":"МБУ «Досуговый центр» Буинского муниципального района РТ"}],"total":97,"page":17,"limit":12,"pages":9}