{"events":[{"id":6340596,"title":"Показ фильма «Яга на нашу голову»","description":"Когда у десятилетнего Пети появляется новая воспитательница – странная и ворчливая, но невероятно обаятельная, – он быстро понимает, что она не такая, как все. Она – «няня под прикрытием», а на самом деле – Яга, легендарная волшебница, потерявшая свою ступу и спрятавшаяся среди людей. Теперь только Петя сможет помочь ей вернуть магические силы, а Яга – научить мальчика летать. И не только на ступе, но и по жизни. Режиссером картины является Александр Войтинский («По щучьему велению»). Главные роли исполнили Светлана Ходченкова и Юрий Колокольников.","age":6,"ageCategory":"6+","startDate":"12.11.2025","endDate":"19.11.2025","city":"Армавир","category":"Кино","isFree":false,"price":250,"image":"https:\/\/all.culture.ru\/uploads\/99848765da4fa48e734751e09e7377df.jpg","place":"Кинотеатр «Монитор на Красной площади» г. Армавира","address":"край Краснодарский,г Армавир,ул Воровского,д 69","organizer":"ООО «Монитор А»"},{"id":6340597,"title":"Беседа «Жди меня и я вернусь»","description":"Беседа к 110-летию со дня рождения К. М. Симонова пройдет в Ново-Деревенской сельской библиотеке совместно с СДК. Участники  узнают, что основная тема в творчестве писателя – мужество и героизм. Симонов         сам прошел дорогами войны в качестве военного корреспондента и мастерски         отражал ее события в своих произведениях. Из-под его пера вышли такие         выдающиеся романы, как «Живые и мертвые», «Последнее лето»,  а также стихотворения, поднимающие дух бойцов. На мероприятии прозвучат стихи и песни, написанные на слова К.М. Симонова.Мероприятие состоится по адресу:Рязанская обл.  Путятинский р-н  п. Новая Деревня, ул. Черемушки, д.1      ","age":12,"ageCategory":"12+","startDate":"28.11.2025","endDate":"28.11.2025","city":"Путятинский район","category":"Прочие","isFree":true,"price":"","image":"https:\/\/all.culture.ru\/uploads\/f04ba996db02a7461c7665216003ec38.jpg","place":"Путятинская центральная библиотека","address":"обл Рязанская,р-н Путятинский,с Путятино,ул Ворошилова,д 4А","organizer":"МУК «Путятинская центральная библиотека» муниципального образования - Путятинский МР Рязанской области"},{"id":6340598,"title":"Вечер памяти «85– летию со дня рождения Рашидова Шаида Рашидовича».","description":"В городской библиотеке пройдет вечер памяти, посвященный . Приглашаем всех ценителей искусства на памятный вечер, посвященный творчеству выдающегося чеченского поэта Шаида Рашидова. Мероприятие станет данью уважения памяти истинного мастера слова, чье творчество оставило неизгладимый след в истории национальной культуры. Уникальность творчества Шаида Рашидова заключается в его удивительной способности соединять глубину мысли с мелодичностью стиха. Более 300 его стихотворений стали основой для любимых народом песен, которые до сих пор исполняются на концертных площадках. В программе вечера будут: презентация жизни и творческого пути поэта, выступления чтецов с произведениями автора, концерт песен на стихи Шаида Рашидова, выставка фотографий и творческих работ, встреча с современниками и последователями поэта.","age":6,"ageCategory":"6+","startDate":"15.11.2025","endDate":"15.11.2025","city":"Гудермесский район","category":"Встречи","isFree":true,"price":"","image":"https:\/\/all.culture.ru\/uploads\/ba7683d84bd70ae3b1c06638b3c26670.jpg","place":"Верхне-Нойберская сельская библиотека – филиал № 9","address":"Респ Чеченская,р-н Гудермесский,с Верхний-Нойбер,ул А-Х.Кадырова","organizer":"МБУК «Централизованная библиотечная система» Гудермесского муниципального района"},{"id":6340601,"title":"Вечер-встреча «Мамы о сыновьях»","description":"  За круглым столом родители обсудят методы воспитания мальчиков в семье. Участники вспомнят народную мудрость в пословицах и поговорках о воспитании, услышат песни, соответствующие тематике встречи. Также они поделятся интересными случаями и событиями из детства сыновей.Полистаем страницы семейных альбомов,погрузимся в семейные истории.На встречу буду приглашены мамы чьи сыновья находятся в зоне специальной военной операции,услышим их рассказы.Мамы и сыновья примут участие в совместных конкурсах и играх.А подведем итог встречи совместным чаепитием.","age":6,"ageCategory":"6+","startDate":"22.11.2025","endDate":"22.11.2025","city":"Задонский район","category":"Праздники","isFree":true,"price":"","image":"https:\/\/all.culture.ru\/uploads\/50709810f612e0eff78e0c951adf4008.JPG","place":"Дом культуры с. Хмелинец","address":"обл Липецкая,р-н Задонский,с Хмелинец,ул Степанищева,д 70","organizer":"МБУК «Хмелинецкий центр культуры и досуга»"},{"id":6340602,"title":"Гала-концерт фестиваля «Калининский фронт»","description":" По доброй традиции, вот уже пятый год подряд, 16 ноября в 14:00 на сцену Большого концертного зала Территории Творчества выходят лучшие исполнители еще совсем молодого Областного Фестиваля патриотической песни «Калининский фронт». В 2025 году это знаковое мероприятие проходит в знаменательный для всей страны Год Защитника Отечества и 80-летия Великой Победы, а также в преддверии важной даты истории тверской земли – 84-й годовщины освобождения Калинина от немецко-фашистских захватчиков в годы Великой Отечественной войны! ","age":6,"ageCategory":"6+","startDate":"16.11.2025","endDate":"16.11.2025","city":"Тверь","category":"Концерты","isFree":true,"price":"","image":"https:\/\/all.culture.ru\/uploads\/c26bc3dcc8501987cd6460c87b414b7c.jpg","place":"Областной дворец культуры «Пролетарка»","address":"обл Тверская,г Тверь,пр-кт Калинина,д 20","organizer":"ГБУК ТОДК «Пролетарка»"},{"id":6340605,"title":"Тематическая полка «Выхожу я в путь, открытый взорам...»","description":"   28 ноября 2025 года исполняется 145 лет со дня рождения Александра Александровича Блока (1880–1921) – выдающегося поэта Серебряного века, одного из главных представителей русского символизма. В честь этой даты в библиотеке будет организована тематическая полка, где каждый сможет познакомиться с биографическими материалами, исследованиями и художественными произведениями, посвященными жизни и творчеству Блока. Выставка откроет читателям не только его знаменитые стихи, но и малоизвестные страницы его жизненного пути, позволяя глубже понять многогранность его таланта.   ","age":16,"ageCategory":"16+","startDate":"28.11.2025","endDate":"28.11.2025","city":"Пошехонский район","category":"Выставки","isFree":true,"price":"","image":"https:\/\/all.culture.ru\/uploads\/649a03adece3d8798190aeba58627d85.JPG","place":"Ермаковская библиотека","address":"обл Ярославская,р-н Пошехонский,с Ермаково,ул Ильинская,д 1","organizer":"МБУК «Пошехонская централизованная библиотечная система»"},{"id":6340606,"title":"Час ЗОЖ «Чтобы не было беды», посвященное Дню отказа от курения","description":"  Пройдёт час ЗОЖ «Чтобы не было беды», посвященный Дню отказа от курения. Школьники нарисуют рисунки для выставки «Молодежь против курения». Для присутствующих будет  организован просмотр слайдовой презентации «Чем заменить курение!», авторы которой призовут ребят заниматься спортом, творчеством, хобби, развивать полезные привычки, быть чаще на природе, заниматься ароматерапией, слушать музыку, помогать другим людям. Будет организован просмотр видеороликов о вреде курения и пропаганде здорового образа жизни. Также подготовим агитационные листовки и буклеты против курения и раздадим их на улицах нашего села.  ","age":6,"ageCategory":"6+","startDate":"19.11.2025","endDate":"19.11.2025","city":"Новошешминский район","category":"Встречи","isFree":true,"price":"","image":"https:\/\/all.culture.ru\/uploads\/ed6744e75397f5cc28c8fdb172e95eb5.jpg","place":"Районный дом культуры с. Новошешминска","address":"Респ Татарстан,р-н Новошешминский,с Новошешминск,ул Заливная,зд 4","organizer":"МБУК «Централизованная клубная система Новошешминского муниципального района Республики Татарстан»"},{"id":6340607,"title":"«А ну -ка, мальчишки!»","description":"В районном конкурсе могут принять участие мальчишки в возрасте 8 -12 лет. конкурсные задания для них следующие: Визитная карточка (рассказ о себе, своих увлечениях, семье, друзьях), Интеллектуальный конкурс (без подготовки ответить на несколько вопросов), Самый умелый (участники предоставляют видеоролик, в котором рассказывают и изготавливают модель любой техники), Спортивный конкурс(участники без подготовки соревнуются в спортивных играх и заданиях). Победителем конкурса становится участник, набравший наибольшее количество баллов.","age":6,"ageCategory":"6+","startDate":"23.11.2025","endDate":"23.11.2025","city":"Подосиновский район","category":"Прочие","isFree":true,"price":"","image":"https:\/\/all.culture.ru\/uploads\/22315a01bfb98b5e0ee7d418bd9c2903.jpg","place":"Подосиновский районный дом культуры","address":"обл Кировская,р-н Подосиновский,пгт Подосиновец,ул Советская,д 38","organizer":"Муниципальное казенное учреждение культуры «Подосиновский РДК»"},{"id":6340608,"title":"Родительское собрание с концертом класса «Роль семьи в процессе обучения детей в классе скрипки детской школы искусств»","description":"Мероприятие предназначено для родителей класса преподавателя оркестрового отделения Волковой Натальи Алексеевны.   На собрании будет представлена информация о том, как игра на скрипке влияет на общее развитие ребёнка. Также на собрании состоится концерт, на котором учащиеся класса продемонстрируют свои навыки игры на инструменте.  Во вступительном слове   будет рассказано о важности музыкального образования и о том, какие навыки развивает игра на скрипке: музыкальные способности, координацию, дисциплину, память, концентрацию внимания и т. д.Далее состоится концерт, в котором  родители увидят, как дети применяют полученные знания и навыки.","age":0,"ageCategory":"0+","startDate":"24.11.2025","endDate":"24.11.2025","city":"Донской ","category":"Встречи","isFree":true,"price":"","image":"https:\/\/all.culture.ru\/uploads\/691edbc6744de182c15a3a75c09bd1ef.jpg","place":"Детская школа искусств № 1 г. Донского","address":"обл Тульская,г Донской,мкр Центральный,ул Октябрьская,д 55А","organizer":"МБУДО «ДШИ № 1»"},{"id":6340609,"title":"Интерактивная игра «Изюминка»","description":"15 ноября – восхитительный День шоколадного кекса! В честь этого сладкого праздника Васильевский клуб с радостью проводит яркую программу «Изюминка».Наших гостей ждет увлекательное путешествие в историю знаменитого кондитерского изделия, от его истоков до наших дней. Мы раскроем секреты и поделимся лучшими рецептами его приготовления, чтобы вы могли легко повторить этот кулинарный шедевр дома.Участники смогут проявить свои творческие способности и широкую фантазию, приняв участие в веселых играх, викторинах и конкурсах с призами. Присоединяйтесь к нам и откройте для себя весь многогранный мир шоколадного кекса, который подарит море положительных эмоций и оставит самое незабываемое послевкусие в сердце каждого!","age":0,"ageCategory":"0+","startDate":"17.11.2025","endDate":"17.11.2025","city":"Великоустюгский район","category":"Встречи","isFree":true,"price":"","image":"https:\/\/all.culture.ru\/uploads\/14c37afaddbec896f8b1812df88e8a89.jpg","place":"Васильевский клуб","address":"обл Вологодская,р-н Великоустюгский,с Васильевское,ул Парковая,д 33","organizer":"МБУК «Центр культурного развития г. Красавино»"},{"id":6340610,"title":"Интеллектуальная игра «Битва эрудитов»","description":"Библиотека приглашает эрудитов на новую интеллектуально-развлекательную викторину по мотивам популярных в конце 90-х и начале 00-х передач. Ведущие предлагают поностальгировать, а заодно проверить, насколько хорошо вы помните эти популярные теле-шоу: Что? Где? Когда?, Брейн ринг, Кто хочет стать миллионером?, Угадай мелодию и т.д. Читателей ждет эффектная подача заданий и захватывающая игра с первой минуты. Ведь интеллектуальный квиз – это не душный экзамен на знания и кругозор, а настоящий эмоциональный аттракцион, который вовлекает всех гостей.","age":12,"ageCategory":"12+","startDate":"15.11.2025","endDate":"15.11.2025","city":"Казань","category":"Встречи","isFree":true,"price":"","image":"https:\/\/all.culture.ru\/uploads\/a9529d4abb5aabbe3b339624388603c8.JPG","place":"Республиканская специальная библиотека для слепых и слабовидящих им. Ш. К. Еникеева","address":"Респ Татарстан,г Казань,ул Серова,д 3","organizer":"ГБУК «Республиканская специальная библиотека для слепых и слабовидящих»"},{"id":6340613,"title":"«Белая смерть»Беседа и тематическая дисеотека","description":"Ежегодно войны, эпидемии, стихийные бедствия уносят жизни сотен тысяч людей. Но намного страшнее, когда так называемые пороки общества: курение и пьянство, наркомания губят гораздо больше людей.  «Белая смерть» — наркомания — уносит жизни миллионов людей.  Наркомания — это болезненное влечение к употреблению вредных и опасных веществ, парализующих нервную систему, вызывающих временное притупление чувств, сознания. Наркомания — беда нашего времени. Наркоманы не доживают даже до среднего возраста. Употребление наркотиков сокращает жизнь в 2-2,5 раза, то есть на 30-40 лет!","age":12,"ageCategory":"12+","startDate":"16.11.2025","endDate":"16.11.2025","city":"Кукморский район","category":"Прочие","isFree":true,"price":"","image":"https:\/\/all.culture.ru\/uploads\/0107a9338b1b87209bddaec08efc3f22.jpg","place":"Адаевский сельский клуб","address":"Респ Татарстан,р-н Кукморский,с Адаево,ул Центральная,влд 4","organizer":"МБУ «Районный дом культуры» Кукморского муниципального района"}],"total":974,"page":86,"limit":12,"pages":82}