{"events":[{"id":6339227,"title":"Акция в поддержку СВО «Вместе мы сила»","description":"В Доме\n    культуры пройдет акция «Вместе мы сила», которая станет частью мероприятий в\n    поддержку наших воинов, участвующих в специальной военной операции.  Участники акции имеют возможность записать\n    видео обращения с добрыми пожеланиями для бойцов на передовой. Каждое такое\n    видео содержит искренние слова о надежде на скорейшую победу и возвращение\n    домой живыми и здоровыми наших защитников. Важно помнить, что поддержка не\n    только физическая, но и моральная имеет огромную ценность для наших защитников.\n    Они нуждаются в каждом добром слове, которое укрепляет их дух, приближает\n    победу и возвращение домой. Акция «Вместе мы сила» станет символом единства и\n    поддержки, а все собранные обращения будут доставлены нашим героям, чтобы они\n    знали, что мы с ними, что мы помним и гордимся ими. \n    \n","age":12,"ageCategory":"12+","startDate":"25.11.2025","endDate":"25.11.2025","city":"Спасский район","category":"Прочие","isFree":true,"price":"","image":"https:\/\/all.culture.ru\/uploads\/afe117c260c41d183023bffc46ae6bf2.png","place":"Кимовский сельский дом культуры","address":"Респ Татарстан,р-н Спасский,п совхоза \"КИМ\",ул Клубная,д 4","organizer":"МБУ «РДК» Спасского района"},{"id":6339228,"title":"«Толерантность - мир добра!» - познавательный час, посвященный международному Дню толерантности","description":"На мероприятии ведущая расскажет присутствующим о понятии «толерантность» –\n    это милосердие, сострадание, уважение к людям разной национальности, цвета\n    кожи, вероисповедания, самовыражения и образа жизни. Также будет рассказано\n    том, что толерантность – это доброта души, терпение, дружба, гармония в\n    многообразии. Отдельно затронется вопрос о подмене понятия «толерантность» на\n    «вседозволенность» и «распущенность». Участники смогут высказать свое мнение и\n    отношение к толерантности. Также будет показан документальный социальный фильм\n    «Толерантность».","age":0,"ageCategory":"0+","startDate":"20.11.2025","endDate":"20.11.2025","city":"Спасский район","category":"Прочие","isFree":true,"price":"","image":"https:\/\/all.culture.ru\/uploads\/3fdeb2de1c518d34f7d88d4b0905a9ee.png","place":"Кимовский сельский дом культуры","address":"Респ Татарстан,р-н Спасский,п совхоза \"КИМ\",ул Клубная,д 4","organizer":"МБУ «РДК» Спасского района"},{"id":6339229,"title":"Вечер настольных игр «Веселые вечерочки»","description":"Вечер настольных\n        игр - это не скучные посиделки за столом, это игры для всех и\n        каждого.  В сельском доме культуры для всех\n        желающих пройдет развлекательное мероприятие «Весёлые вечерочки»,\n    вечер игры в шахматы, шашки, домино\n        . Эти настольные игры — это бесконечные упражнения для ума, которые развивают\n        умственные способности, используемые на протяжении всей жизни. Шахматы,\n        например,  учат планировать свои действия на несколько шагов вперед,\n        предугадывать ходы противника и принимать решения на основе имеющейся\n        информации. Присоединяйтесь к нам и проведите вечер весело и интересно в\n    кругу друзей и единомышленников!\n","age":0,"ageCategory":"0+","startDate":"30.11.2025","endDate":"30.11.2025","city":"Спасский район","category":"Встречи","isFree":true,"price":"","image":"https:\/\/all.culture.ru\/uploads\/9a547937fe30c8a35812d213db1b917f.png","place":"Кимовский сельский дом культуры","address":"Респ Татарстан,р-н Спасский,п совхоза \"КИМ\",ул Клубная,д 4","organizer":"МБУ «РДК» Спасского района"},{"id":6339230,"title":"Конкурс рисунков «Любимой маме посвящается».","description":"Мама — это воплощение тепла, заботы и безусловной любви, самые светлые воспоминания детства и источник вдохновения на протяжении всей жизни. Именно поэтому каждый год, в конце  ноября, в России отмечается прекрасный и трогательный праздник — День матери. В этот день принято дарить матерям цветы, теплые поздравления и подарки, выражая благодарность за их бесконечную любовь, терпение и мудрость, а также посвящать рисунки. Все желающие смогут принять участие в мероприятии. Рисовать можно карандашами, фломастерами, гуашью, красками на листе любого формата. Также будет оформлена выставка рисунков и все  мамы их увидят.","age":6,"ageCategory":"6+","startDate":"27.11.2025","endDate":"27.11.2025","city":"Острогожский район","category":"Прочие","isFree":true,"price":"","image":"https:\/\/all.culture.ru\/uploads\/17a11d0823bb9850159b0fa10b5d39ef.JPG","place":"Криниченский сельский дом культуры","address":"обл Воронежская,р-н Острогожский,с Криница,пер Рабочий,д 1А","organizer":"МКУК «Криниченский сельский культурно-досуговый центр» Острогожского МР"},{"id":6339231,"title":"Концерт ко Дню матери «Загляните в мамины глаза»","description":"Среди многочисленных праздников, День матери занимает\n    особое место. Это праздник, к которому никто не может остаться равнодушным. В\n    этот день принято отдавать должное материнскому труду и бескорыстной жертве\n    матерей ради блага своих детей. В Доме культуры пройдет праздничный концерт ко\n    дню матери. От главы администрации сельского поселения прозвучат слова\n    поздравления, проникнутые огромным уважением к родным и близким людям – дорогим\n    и любимым мамам. Самым милым мамам и любимым бабушкам творческие коллективы\n    Дома культуры подарят лучшие номера. На протяжении всего праздника будут\n    звучать слова благодарности всем Матерям, которые дарят детям любовь, добро,\n    нежность и ласку.","age":0,"ageCategory":"0+","startDate":"28.11.2025","endDate":"28.11.2025","city":"Спасский район","category":"Концерты","isFree":true,"price":"","image":"https:\/\/all.culture.ru\/uploads\/4b328bb6129cd04e74a278a88eb7d739.png","place":"Кимовский сельский дом культуры","address":"Респ Татарстан,р-н Спасский,п совхоза \"КИМ\",ул Клубная,д 4","organizer":"МБУ «РДК» Спасского района"},{"id":6339232,"title":"Шашечный турнир «Раз, два, и дамка»","description":"Турнир по шашкам, это уникальная возможность для всех любителей этой интеллектуальной игры, чтобы продемонстрировать свои навыки и стратегическое мышление. Турнир открыт для участников любого уровня подготовки. Независимо от вашего опыта, будет обеспечен подбор достойных соперников, что позволит каждому почувствовать себя частью захватывающего интеллектуального процесса.Мероприятие обещает быть насыщенным и увлекательным, сочетая в себе элементы азарта, дружеской атмосферы и эмоции. Участники смогут не только проверить свои способности, но и насладиться процессом игры, обогащая свой опыт и развивая аналитические навыки.","age":0,"ageCategory":"0+","startDate":"13.12.2025","endDate":"13.12.2025","city":"Буинский район","category":"Прочие","isFree":true,"price":"","image":"https:\/\/all.culture.ru\/uploads\/6889f22ca8ac365a19e2c90641596a70.jpg","place":"Клуб с. Таковары","address":"Респ Татарстан,р-н Буинский,с Таковары,ул Школьная,12","organizer":"МБУ «Районный Дом культуры» Буинского МР"},{"id":6339233,"title":"День матери","description":"День матери традиционно отмечают в последнее воскресенье ноября. В 2024 году праздник пройдет 24 числа. В этот день принято поздравлять и выражать почтение мамам, бабушкам, женщинам, которые ждут ребенка и воспитывают приемных детей.\nИстория этого праздника в нашей стране началась в 1998 году. Инициатива учредить его принадлежит депутату Государственной Думы Алевтине Апариной. Официальное признание он получил благодаря указу тогдашнего президента Бориса Ельцина.\nИстория праздника в России\nДо это","age":12,"ageCategory":"12+","startDate":"25.11.2025","endDate":"25.11.2025","city":"Кукморский район","category":"Прочие","isFree":true,"price":"","image":"https:\/\/all.culture.ru\/uploads\/65621ba46b47b4ec1cecbbb8290a4895.jpg","place":"Ташлы-Елгинский сельский клуб","address":"Респ Татарстан,р-н Кукморский,с Ташлы-Елга,ул Татарстан,влд 59","organizer":"МБУ «Районный дом культуры» Кукморского муниципального района"},{"id":6339234,"title":"Концертная программа «За всё тебя благодарю».","description":"\n\nДень матери – особенный праздник, который напоминает всем о важности ценить и беречь своих мам. Это день, когда  можем выразить благодарность за бессонные ночи, за заботу и переживания, за бесконечную любовь, которую матери дарят своим детям.К этому празднику работники культуры подготовят праздничный концерт. На сцене будут взрослые и дети. В программе поздравления, стихи, песни, танцы, сценки. Также красиво украсим фойе и сцену, оформим выставку рисунков. Мамы примут участие в викторине и все вместе исполнять знакомые песни.","age":6,"ageCategory":"6+","startDate":"29.11.2025","endDate":"29.11.2025","city":"Острогожский район","category":"Концерты","isFree":true,"price":"","image":"https:\/\/all.culture.ru\/uploads\/8f7c0609cc2747c57c3162ffb781c51a.JPG","place":"Криниченский сельский дом культуры","address":"обл Воронежская,р-н Острогожский,с Криница,пер Рабочий,д 1А","organizer":"МКУК «Криниченский сельский культурно-досуговый центр» Острогожского МР"},{"id":6339235,"title":"Вечер памяти: «Он видел мир своей душою...»","description":"В Городской библиотеке будет проведен вечер памяти: к 85–летию со дня рождения Ш.  Рашидова. Заведующая библиотекой Исраилова Б. расскажет присутствующим о жизни и творчестве выдающегося поэта и писателя, чье наследие оставило глубокий след в литературе. Участникам вечера предложить прочитать отрывки из любимых стихов или прозы Ш. Рашидова, что создаст атмосферу близости к его творчеству. В завершение вечера также предложить участникам поделиться своими впечатлениями о творчестве Шаида Рашидова и обсудить, как его произведения повлияли на их жизнь. ","age":6,"ageCategory":"6+","startDate":"13.11.2025","endDate":"13.11.2025","city":"Гудермесский район","category":"Встречи","isFree":true,"price":"","image":"https:\/\/all.culture.ru\/uploads\/cd51763aabdf782ba13dbc6892b54145.jpg","place":"Гудермесская городская библиотека – филиал № 2","address":"респ Чеченская,р-н Гудермесский,г Гудермес,ул Промышленная ,1","organizer":"МБУК «Централизованная библиотечная система» Гудермесского муниципального района"},{"id":6339236,"title":"Подвижные игры","description":"\n\nУчить детей использовать разнообразные подвижные игры (в том числе игры с элементами соревнования), способствующие развитию психофизических качеств (ловкость, сила, быстрота, выносливость, гибкость), координации движений, умения ориентироваться в пространстве; самостоятельно организовывать знакомые подвижные игры со сверстниками, справедливо оценивать свои результаты и результаты товарищей. Учить придумывать варианты игр, комбинировать движения, проявляя творческие способности. Развивать интерес к спортивным играм и упражнениям (городки, бадминтон, настольный теннис, хоккей, футбол).\n\n","age":6,"ageCategory":"6+","startDate":"16.11.2025","endDate":"16.11.2025","city":"Балтасинский район","category":"Прочие","isFree":true,"price":"","image":"https:\/\/all.culture.ru\/uploads\/c10acce24376a5fe0f6c4594b0b32ef4.jpg","place":"Уринский сельский клуб","address":"Респ Татарстан,р-н Балтасинский,с Ура,ул М.Джалиля,двлд 135","organizer":"МБУ «Балтасинская централизованная сельская клубная система»"},{"id":6339237,"title":"Час патриотизма «Имя твоё неизвестно, подвиг твой бессмертен»","description":"День Неизвестного солдата – день, когда мы можем вспомнить и почтить память всех солдат, защищавших нашу Родину. 3 декабря в СК Таковары  пройдёт  час патриотизма «Имя твоё неизвестно, подвиг твой бессмертен». Ребята познакомятся с историей дня памяти, воинской доблестью и подвигами, погибших солдат. В знак памяти в клубе прочтем  стихи М. Исаковского, В. Высотского, Б. Сермана, Е. Осминкиной. Также в ходе мероприятия ребята узнают о памятниках, посвящённых подвигу солдат. В клубе ко Дню Неизвестного солдата будет оформлена книжная выставка «Я, конечно, вернусь…». В завершение мероприятия  ребятами зажгем свечи памяти.","age":0,"ageCategory":"0+","startDate":"03.12.2025","endDate":"03.12.2025","city":"Буинский район","category":"Прочие","isFree":true,"price":"","image":"https:\/\/all.culture.ru\/uploads\/d5f719fa905a58278db79731c1591212.jpg","place":"Клуб с. Таковары","address":"Респ Татарстан,р-н Буинский,с Таковары,ул Школьная,12","organizer":"МБУ «Районный Дом культуры» Буинского МР"},{"id":6339238,"title":"Программа «Круг дружбы»","description":"Выбор темы мероприятия созвучен Международному Дню толерантности, который в России будет отмечаться двадцатый раз.  Посетители, используя изображения (фигурки) людей разного происхождения, культур и возрастов, соберут коллаж «Идея толерантности». Кругу друзей предстоит пройти по «тропинкам Уважения», «ухабам Стереотипов», «холмам Непонимания», чтобы построить «дорогу Толерантности», на которой станет возможным услышать друг друга и понять, что «дорога Терпимости» – именно самая правильная дорога в страну, имя которой – Культура!  В ходе программы – музыка, виртуальная реальность (VR), диалоговое общение, сюжетно-ролевые игры, проблемные вопросы и пр.","age":12,"ageCategory":"12+","startDate":"16.11.2025","endDate":"16.11.2025","city":"Муромский район","category":"Встречи","isFree":false,"price":100,"image":"https:\/\/all.culture.ru\/uploads\/9471df994fa190606b038787cae8c432.jpg","place":"Пестенькинский дом культуры","address":"обл Владимирская,р-н Муромский,д Пестенькино,ул Центральная,д 50","organizer":"МБУК «Объединение сельских домов культуры»"}],"total":974,"page":1,"limit":12,"pages":82}