{"events":[{"id":6339294,"title":"Показ фильма «Яга на нашу голову»","description":"Когда у десятилетнего Пети появляется новая воспитательница – странная и ворчливая, но невероятно обаятельная, – он быстро понимает, что она не такая, как все. Она – «няня под прикрытием», а на самом деле – Яга, легендарная волшебница, потерявшая свою ступу и спрятавшаяся среди людей. Теперь только Петя сможет помочь ей вернуть магические силы, а Яга – научить мальчика летать. И не только на ступе, но и по жизни. Режиссером картины является Александр Войтинский («По щучьему велению»). Главные роли исполнили Светлана Ходченкова и Юрий Колокольников.","age":6,"ageCategory":"6+","startDate":"12.11.2025","endDate":"23.11.2025","city":"Невельск","category":"Кино","isFree":false,"price":250,"image":"https:\/\/all.culture.ru\/uploads\/99848765da4fa48e734751e09e7377df.jpg","place":"Районный дом культуры им. Г. И. Невельского","address":"обл Сахалинская,р-н Невельский,г Невельск,ул Ленина,д 54А","organizer":"МБУК «РДК им. Г. И. Невельского»"},{"id":6339295,"title":"Развлекательная программа «В гости к деду Морозу»","description":"18 ноября в России отмечают День рождения Деда Мороза — волшебника, дарящего радость и детям, и взрослым. Его ждут с нетерпением все, кто верит в чудеса.Дом культуры приглашает на праздник «День рождения Деда Мороза». В начале мероприятия ребята узнают историю этого сказочного персонажа: услышат увлекательную сказку о том, как появился Дед Мороз, почему его так зовут, сколько нарядов у волшебника и для каких случаев они предназначены, а также узнают, как отмечают его день рождения на родине в Великом Устюге. Программа продолжится веселыми играми и эстафетами, посвященными главному герою праздника.Верьте в чудеса — это настоящее счастье!","age":6,"ageCategory":"6+","startDate":"18.11.2025","endDate":"18.11.2025","city":"Селемджинский район","category":"Прочие","isFree":true,"price":"","image":"https:\/\/all.culture.ru\/uploads\/73f510c59879cabdd6d231daad982a84.jpeg","place":"Дом культуры с. Стойба","address":"обл Амурская,р-н Селемджинский,с Стойба,ул Майская,влд 19","organizer":"МКУК «Дом Культуры с. Стойба»"},{"id":6339296,"title":"Информационный час «Подвиг твой бессмертен»","description":"  Указом Президента с 2014 года в России установлена памятная дата – День Неизвестного солдата. 3 декабря 1966 года, в ознаменование 25-й годовщины разгрома немецких войск под Москвой, прах неизвестного солдата был перенесен из братской могилы советских воинов и торжественно захоронен в Александровском саду у стен Кремля. 8 мая 1967 года на месте захоронения у кремлевской стены был открыт мемориальный ансамбль «Могила Неизвестного Солдата», а также зажжен Вечный огонь. Работники Дома культуры расскажут об истории памятной даты, познакомят с историческими и военными фактами нашей Родины. Также расскажут о памятниках и мемориалах, посвященные неизвестным солдатам, отдавших свои жизни во имя Победы, тем, кто сражался за Родину. В ходе информационного часа будет рассказано о количестве солдат, пропавших на фронтах войн XX-XXI веков, прочитаны стихи, продемонстрирован  видеоролик «Героям с. Хатырка посвящается...» в рамках героизации участников специальной военной операции.  Завершится мероприятие  хоровым исполнением песни «Журавли» и минутой молчания.  ","age":6,"ageCategory":"6+","startDate":"03.12.2025","endDate":"03.12.2025","city":"Анадырский район","category":"Встречи","isFree":true,"price":"","image":"https:\/\/all.culture.ru\/uploads\/e98b06122c0557fcc4fc111d92a66897.jpg","place":"Дом культуры с. Хатырка","address":"АО Чукотский,р-н Анадырский,с Хатырка,ул Центральная,д 2","organizer":"Муниципальное бюджетное учреждение «Центр культуры и досуга» Анадырского МР"},{"id":6339297,"title":"Показ фильма «Яга на нашу голову»","description":"Когда у десятилетнего Пети появляется новая воспитательница – странная и ворчливая, но невероятно обаятельная, – он быстро понимает, что она не такая, как все. Она – «няня под прикрытием», а на самом деле – Яга, легендарная волшебница, потерявшая свою ступу и спрятавшаяся среди людей. Теперь только Петя сможет помочь ей вернуть магические силы, а Яга – научить мальчика летать. И не только на ступе, но и по жизни. Режиссером картины является Александр Войтинский («По щучьему велению»). Главные роли исполнили Светлана Ходченкова и Юрий Колокольников.","age":6,"ageCategory":"6+","startDate":"12.11.2025","endDate":"26.11.2025","city":"Анадырь","category":"Кино","isFree":false,"price":350,"image":"https:\/\/all.culture.ru\/uploads\/99848765da4fa48e734751e09e7377df.jpg","place":"Кинотеатр «Полярный»","address":"АО Чукотский,г Анадырь,ул Отке,зд 15","organizer":"АУ Чукотского автономного округа по киновидеопрокату и кинообслуживанию населения «Окркиновидеопрокат»"},{"id":6339298,"title":"Выставка «Я и мамочка моя»","description":"Экспозиция сформирована из живописных, графических и декоративных композиций, выполненных в период с 2002 по 2024 год обучающимися детских школ искусств Сахалинской и Московской областей, а также Хабаровского и Приморского краев. В детских работах зрители увидят разные образы: у малышей – мама-принцесса, в работах подростков подмечены характер, эмоции, настроение персонажей, их профессии.Каждый образ матери, представленный на выставке, наполнен искренней любовью юных авторов. Приглашаются все желающие.","age":0,"ageCategory":"0+","startDate":"17.11.2025","endDate":"19.12.2025","city":"Южно-Сахалинск","category":"Выставки","isFree":true,"price":"","image":"https:\/\/all.culture.ru\/uploads\/2d91611758d12b4db4c3fb7f19384d91.jpg","place":"Сахалинская областная детская библиотека","address":"обл Сахалинская,г Южно-Сахалинск,пр-кт Мира,д 244","organizer":"ГБУК «Сахалинский областной ресурсный центр по образованию в сфере культуры и искусства»"},{"id":6339301,"title":"Концерт «Сэлгеэ Буряадтаа суутайхан»","description":" Представляем большой  юбилейный концерт, который объединяет несколько юбилейных дат родного села: 85-летие со дня рождения поэта Мэлса Самбуева, 50-летие народного ансамбля песни и танца \"Санага\",  60-летие открытия музыкальной школы  и 30-летие создания песни \"Сагаан дали\".  В концерте  заняты участники разной возрастной категории. В программу войдут восстановленные номера прежних лет, новые  постановки.  Зрителей ждут незабываемые выступления, яркие костюмы, зажигательные танцы и любимые мелодии, которые подарят море положительных эмоций и оставят неизгладимое впечатление. ","age":0,"ageCategory":"0+","startDate":"15.11.2025","endDate":"15.11.2025","city":"Закаменский район","category":"Концерты","isFree":true,"price":"","image":"https:\/\/all.culture.ru\/uploads\/49d72bf69e44f18ad5456c6897b559e6.jpg","place":"Cанагинский дворец культуры","address":"Респ Бурятия,р-н Закаменский,у Санага,ул Советская,зд 13","organizer":"АУ «Санагинский Дворец культуры»"},{"id":6339302,"title":"«Герои сказок Киплинга»","description":"В 2025 году исполнится 200 лет со дня рождения Джозефа Редьярда Киплинга. Библиотека организует мероприятие, чтобы познакомить юных читателей с интересными фактами из его биографии и творчества. Особое внимание будет уделено его «Маленьким сказкам», где героями стали различные животные. Эти произведения учат добру, мудрости и открывают перед детьми мир познания.Кроме того, для ребят пройдет мастер-класс, на котором они смогут создать животных из цветной бумаги по мотивам сказок. Мероприятие обещает быть увлекательным и познавательным для всех участников. ","age":6,"ageCategory":"6+","startDate":"15.11.2025","endDate":"15.11.2025","city":"РФ","category":"Встречи","isFree":true,"price":"","image":"https:\/\/all.culture.ru\/uploads\/a1b7c30b5918690dba88e111f825c94c.jpeg","place":"Детская библиотека п. Усть-Камчатска","address":"Камчатский,Усть-Камчатский,Усть-Камчатск,Советская ,1","organizer":"МКУ «Библиотечная система Усть-Камчатского сельского поселения»"},{"id":6339304,"title":"Лекция «За все тебя, Господь, благодарю!»","description":"Преподаватели теоретического отделения подготовили лекцию, посвященную 150-летию со дня рождения великого русского писателя, поэта Ивана Алексеевича Бунина. Слушатели познакомятся с наследием русских композиторов, обращавшихся к поэзии автора и создавших известные песни и романсы. Услышат два романса Сергея Рахманинова, ставших русской вокальной классикой «Я опять одинок» и «Ночь печальна» в исполнении С. Лемешева и Д. Хворостовского, музыкальную картину «На распутье» для баса с симфоническим оркестром Александра Гречанинова, хоровое произведение «Кондор» Виктора Калинникова в исполнении хора Ленинградского радио, романсы Рейнгольда Глиэра: «Как светла, как нарядна весна», «Снова сон пленительный и сладкий», «Звезды ночью весенней нежнее», «Смерть». Изучение творчества И. Бунина, использование в учебном процессе произведений великих писателей и композиторов позволяет формировать чувство прекрасного, любовь ко всему живому, чувство патриотизма, доверия и уважения, любовь к родному языку и отечественной истории.","age":12,"ageCategory":"12+","startDate":"17.11.2025","endDate":"17.11.2025","city":"Находка","category":"Обучение","isFree":true,"price":"","image":"https:\/\/all.culture.ru\/uploads\/41e37f2829b55c42dbc6a7c0a7ad1fb5.JPG","place":"Детская школа искусств № 1 г. Находки","address":"край Приморский,г Находка,ул Владивостокская,д 12","organizer":"МБУ ДО «ДШИ № 1» НГО"},{"id":6339305,"title":"Пешеходная экскурсия на Высоту 611","description":"Завершение походного сезона. Последняя в этом году экскурсия на легендарную Высоту 611!Сопка Известковая (Высота 611) – место крушения неопознанного объекта. Событие произошло 29 января 1986 года. Странный светящийся шар врезался в сопку, вызвав пожар, а затем на этом месте обнаружили различные металлические обломки с космическим напылением.Маршрут средней сложности, необходима удобная обувь. Продолжительность – 1,5-2 часа в одну сторону. Сбор в 10 часов на автовокзале возле арт-объекта «Ушан». Ведется предварительная запись! Телефон: +7 (42373) 3-29-92.","age":12,"ageCategory":"12+","startDate":"16.11.2025","endDate":"16.11.2025","city":"Дальнегорск","category":"Экскурсии","isFree":false,"price":250,"image":"https:\/\/all.culture.ru\/uploads\/1411851d7a63a63cf9d40a5700724848.jpeg","place":"Музейно-выставочный центр г. Дальнегорска","address":"край Приморский,г Дальнегорск,пр-кт 50 лет Октября,д 70","organizer":"«Музейно-выставочный Центр г. Дальнегорска Приморского края»"},{"id":6339306,"title":"Литературно-музыкальная композиция «Вам слава и честь»","description":"  В этом году страна торжественно отметила Год Защитника Отечества, выражая глубокую благодарность всем, кто посвятил жизнь служению Родине. Станьте частью финального аккорда этого важного события.   Мероприятие привлечет зрителей разных возрастов — от школьников, которым важно сохранить память о своих предках, до старшего поколения, пережившего тяготы Великой Отечественной войны.  Вас ждёт:Музыка и поэзия: На сцене прозвучат трогательные стихи и патриотические песни, посвящённые подвигам героев.Историческая память: Вспомним великие страницы военной истории России и почтим память наших отцов, дедов и прадедов, которые сражались за мирное небо над головой.Честь и доблесть: Мероприятие станет символом признательности всем, кто стоит на страже Родины сегодня, проявляя мужество, отвагу и честь.Вместе почтим тех, кто стоит на страже нашей страны!  ","age":6,"ageCategory":"6+","startDate":"12.12.2025","endDate":"12.12.2025","city":"Анадырский район","category":"Встречи","isFree":true,"price":"","image":"https:\/\/all.culture.ru\/uploads\/0d3dfca4d80a6de3b8986262b9650982.jpg","place":"Дом культуры с. Марково","address":"АО Чукотский,р-н Анадырский,с Марково,ул Больничная,д 8","organizer":"Муниципальное бюджетное учреждение «Центр культуры и досуга» Анадырского МР"},{"id":6339307,"title":"Программа «От лесной красавицы к праздничному символу: история новогодней ели в России»","description":"Участники мероприятия проследят исторический путь новогодней ели от императорских залов до современных квартир. Гости музея узнают, когда появилась традиция украшения ели в России, когда была установлена первая ель для публики и как в эпоху СССР прошел первый праздник, центром которого стала нарядно украшенная ель. В ходе творческой части мероприятия присутствующие изобразят новогоднюю ель текстурной пастой. Принимаются заявки от организованных групп в количестве не менее 10 человек по телефонам: +7 (4242) 49-57-17, +7 (4242) 49-57-28, +7 (4242) 49-57-04. ","age":12,"ageCategory":"12+","startDate":"16.12.2025","endDate":"23.12.2025","city":"Южно-Сахалинск","category":"Обучение","isFree":false,"price":800,"image":"https:\/\/all.culture.ru\/uploads\/e4f600162f6bd79ff37baadd4f2bada6.jpeg","place":"Исторический парк «Россия – моя история» г. Южно-Сахалинска","address":"обл Сахалинская,г Южно-Сахалинск,ул Священномученика Илариона Троицкого,д 4","organizer":"ГБУК СО «Музейно-мемориальный комплекс «Победа»"},{"id":6339308,"title":"Программа «Лесные друзья: спасаем в холода»","description":" Приближается зима, и лесным обитателям нужна помощь, чтобы пережить суровые морозы. На мероприятии сотрудники расскажут, как животные готовятся к зиме, какие запасы делают и как можно им помочь в это непростое время. Школьники познакомятся с жизнью лесных зверей и птиц зимой, в викторине проверят свои знания о природе и узнают много нового. Вместе с экскурсоводам отправятся в путешествие по экспозиции музея, посвященной природе родного края.  Приходите, чтобы узнать, как стать настоящими друзьями леса и помочь его обитателям пережить холода.","age":0,"ageCategory":"0+","startDate":"29.11.2025","endDate":"29.11.2025","city":"Партизанский район","category":"Встречи","isFree":true,"price":"","image":"https:\/\/all.culture.ru\/uploads\/e6b9533edf06f0fe25188197f5539690.JPG","place":"Историко-краеведческий музей с. Владимиро-Александровского","address":"край Приморский,р-н Партизанский,с Владимиро-Александровское,ул Комсомольская,д 45","organizer":"Муниципальное казённое учреждение «Районный историко-краеведческий музей» Партизанского муниципального района"}],"total":974,"page":3,"limit":12,"pages":82}