{"events":[{"id":6339258,"title":"Оформление и украшение зала к Новому Году","description":"Для большинства людей встреча Нового года — самый любимый праздник. Главное желание — сделать его ярким, радостным и запоминающимся. К встрече Нового года начали готовиться дети.При оформлении зала будем стараться создать праздничную и новогоднюю обстановку и хорошее новогоднее настроение. Разукрасим живую елку в зале разноцветными гирляндами, мишурой, самодельными ёлочными украшениями,  игрушками сделанными своими руками разукрасим окна снежинками рисунками и помещение и зал в ОСП-63 Таковары…...","age":0,"ageCategory":"0+","startDate":"24.12.2025","endDate":"24.12.2025","city":"Буинский район","category":"Прочие","isFree":true,"price":"","image":"https:\/\/all.culture.ru\/uploads\/8debc31031a7bd0792c00a230273de51.jpg","place":"Клуб с. Таковары","address":"Респ Татарстан,р-н Буинский,с Таковары,ул Школьная,12","organizer":"МБУ «Районный Дом культуры» Буинского МР"},{"id":6339259,"title":"Урок «Толерантность– путь к миру»","description":" В преддверии Международного дня толерантности сельская библиотека с юными читателями проведет библиотечный урок. Заведующая библиотекой расскажет об истории появления этой даты, разъяснит понятие «толерантность». Учитывая многонациональность нашей республики,поговорит о необходимости взаимопонимания и взаимовыручки между людьми, в семье, в школе, между поколениями.В исполнении участников прозвучат стихи о дружбе, и доброте, вежливости и милосердии. Ребятам будет предложена викторина о толерантности. ","age":6,"ageCategory":"6+","startDate":"14.11.2025","endDate":"14.11.2025","city":"Гудермесский район","category":"Встречи","isFree":true,"price":"","image":"https:\/\/all.culture.ru\/uploads\/2b4576170c3be537c5554f32edfec89e.jpg","place":"Шуанинская сельская библиотека – филиал № 28","address":"респ Чеченская,р-н Гудермесский,с Шуани,ул Дружбы,д 21","organizer":"МБУК «Централизованная библиотечная система» Гудермесского муниципального района"},{"id":6339261,"title":"Акция «Сделай правильный выбор»","description":"Для популяризации здорового образа жизни и антитабачной профилактики, преподаватель Ойсхарской детской художественной школы им.А.А.Ильясова Абдуллаева Марха Магамедовна, вместе с учениками, проведут мероприятие с раздачей листовок и рисунков. Во время акции, жителям города, в особенности молодым людям – учащимся МБОУ «Ойсхарская Средняя Школа №4 им. Рахима Хамзатовича Каимова» будут вручены буклеты и рисунки, с информацией о вреде курения табака и различных курительных смесей. Участники узнают, как влияет сигаретный дым на окружающий мир, о вреде табака и примут участие в викторине «Курить или не курить?».","age":0,"ageCategory":"0+","startDate":"15.11.2025","endDate":"15.11.2025","city":"Гудермесский район","category":"Обучение","isFree":true,"price":"","image":"https:\/\/all.culture.ru\/uploads\/b9082d4ac98c00b21785472a8a4bbdb9.png","place":"Ойсхарская детская художественная школа № 1 им. А. А. Ильясова","address":"Респ Чеченская,р-н Гудермесский,г Ойсхара,ул Садовая,д 6","organizer":"ГБУ ДО «Ойсхарская ДХШ им. А.А. Ильясова»"},{"id":6339263,"title":"Мастер-класс «Открытка для мамы»","description":"В Детской художественной школе пройдет интересный обучающий мастер-класс для учащихся по изготовлению поделки из бумаги «Маме».На предлагаемом мастер-классе вы сможете:изготовить открытку как украшение интерьера для мамы, бабушке, сестренке;познакомиться с декоративно – прикладным искусством и особенностью праздника;развить творческое воображение, фантазию и чувство вкуса.Сувенир из бумаги будет замечательным подарком для близких и украшением интерьера. Мастер – класс интересен как детям, так и родителям.","age":6,"ageCategory":"6+","startDate":"24.11.2025","endDate":"24.11.2025","city":"Находка","category":"Обучение","isFree":true,"price":"","image":"https:\/\/all.culture.ru\/uploads\/7b784b9a1789e53c4061216e79b163b4.jpg","place":"Детская художественная школа №2 г. Находки на ул. Малиновского, 11а","address":"край Приморский,г Находка,ул Малиновского,д 11а","organizer":"МБУ ДО ДХШ № 2"},{"id":6339265,"title":"Уличная профилактическая акция «Терроризму нет»","description":" Для информирования о том, что такое терроризм, экстремизм и каковы их последствия, сельская библиотека совместно с библиоволонтерами проведет уличную профилактическую акцию: раздачу односельчанам и гостям села информационных памяток, в которых будет содержаться информация об угрозе терроризма человеческой жизни, о правилах безопасного поведения в случае угрозы или возникновения террористического акта, о том, что делать при обнаружении подозрительного предмета (мешок, сумка, коробка и т.д.), и телефоны для экстренного реагирования. ","age":6,"ageCategory":"6+","startDate":"15.11.2025","endDate":"15.11.2025","city":"Гудермесский район","category":"Встречи","isFree":true,"price":"","image":"https:\/\/all.culture.ru\/uploads\/98b7b7b19c2c4cfe88d591de0f3072d3.jpg","place":"Шуанинская сельская библиотека – филиал № 28","address":"респ Чеченская,р-н Гудермесский,с Шуани,ул Дружбы,д 21","organizer":"МБУК «Централизованная библиотечная система» Гудермесского муниципального района"},{"id":6339266,"title":"Беседа «Скажем коррупции твердое нет»","description":"Преподаватель Ильясова Тома Килябовна проведет беседу «Скажем коррупции твердое нет». В процессе общения участникам будет представлена информация о том, что коррупция представляет собой злоупотребление служебным положением, взяточничество, коммерческий подкуп или другие незаконные действия, совершаемые должностными лицами в личных интересах, в ущерб интересам общества и государства.Это явление негативно влияет на общество. Оно разрушает экономику, подрывает нравственные устои и вызывает недоверие к государственным институтам. Согласно исследованиям в области политической экономии, коррупция является одним из главных препятствий на пути экономического роста и развития, которое может поставить под угрозу любые реформы.О коррупции и методах борьбы с ней написано множество статей, книг и учебников. Разработаны и применяются на практике антикоррупционные программы и планы. На общегосударственном и местном уровнях приняты законы, направленные на борьбу с коррупцией. Созданы специальные комитеты и комиссии по борьбе с коррупцией.","age":0,"ageCategory":"0+","startDate":"17.11.2025","endDate":"17.11.2025","city":"Гудермесский район","category":"Обучение","isFree":true,"price":"","image":"https:\/\/all.culture.ru\/uploads\/3618bd243bcd2c123ec8e506456d1007.png","place":"Ойсхарская детская художественная школа № 1 им. А. А. Ильясова","address":"Респ Чеченская,р-н Гудермесский,г Ойсхара,ул Садовая,д 6","organizer":"ГБУ ДО «Ойсхарская ДХШ им. А.А. Ильясова»"},{"id":6339268,"title":"СВО. Выставка детских работ «Своя дорога добра»","description":"Преподаватель Ойсхарской детской художественной школе им.А.А.Ильясова Абдуллаева Макка Сайдахмедовна проведет выставку детских работ.Рисунки юных художников будут наполнены патриотизмом, гордостью и любовью к своей Родине и ее защитникам. Сюжеты рисунков не смогут оставить равнодушными никого. В своих работах ребята постараются передать свое стремление сохранить мир на земле, а также выразить чувство признательности, уважения и благодарности военнослужащим.Приглашаем всех желающих посетить нашу выставку, погрузиться в атмосферу героизма и патриотизма.","age":0,"ageCategory":"0+","startDate":"15.11.2025","endDate":"15.11.2025","city":"Гудермесский район","category":"Выставки","isFree":true,"price":"","image":"https:\/\/all.culture.ru\/uploads\/28fdd35abc47f2560c1814ab88195c25.png","place":"Ойсхарская детская художественная школа № 1 им. А. А. Ильясова","address":"Респ Чеченская,р-н Гудермесский,г Ойсхара,ул Садовая,д 6","organizer":"ГБУ ДО «Ойсхарская ДХШ им. А.А. Ильясова»"},{"id":6339270,"title":"Мастер-класс новогодних снежинок «Кружит снежинок хоровод»","description":"        Новый год – это праздник волшебства и подарков. Новый год – самое время для поделок. Приближение новогодних праздников радует детей и взрослых, создаёт атмосферу веселья, будит воображение и фантазию.    В преддверии новогодних праздников в СК Таковары пройдёт мастер-класс для детей по вырезанию новогодних снежинок на тему «Кружит снежинок хоровод». В начале мероприятия юных читателей ждут загадки о зиме, снеге, елочке и т.д, для чего и чем украшали елку наши предки. Снежинка – главный атрибут зимней сказки и прекрасное изящное украшение не только елки, но и интерьера в целом. Это нежный, хрупкий и очень красивый символ. Не бывает двух одинаковых снежинок.      ","age":0,"ageCategory":"0+","startDate":"20.12.2025","endDate":"20.12.2025","city":"Буинский район","category":"Прочие","isFree":true,"price":"","image":"https:\/\/all.culture.ru\/uploads\/59069e4a1606013b35c4eecfde14e038.jpg","place":"Клуб с. Таковары","address":"Респ Татарстан,р-н Буинский,с Таковары,ул Школьная,12","organizer":"МБУ «Районный Дом культуры» Буинского МР"},{"id":6339271,"title":"Выставка детских работ «Нана»","description":"В честь Дня Матери будет организована красочная выставка детских рисунков для мам участников. Выставка пройдет в теплой и праздничной атмосфере, с целью выразить благодарность и любовь самым близким и родным людям – мамам. В завершении выставки в конце текущей недели каждый рисунок будет возвращен детям, чтобы они смогли подарить мамам свои рисунки-портреты. Несомненно, самый приятный и дорогой подарок маме, выполненный своими руками, да еще и с признанием в любви. Авторы работ получат сладкие призы.","age":0,"ageCategory":"0+","startDate":"19.11.2025","endDate":"19.11.2025","city":"Гудермесский район","category":"Выставки","isFree":true,"price":"","image":"https:\/\/all.culture.ru\/uploads\/406a73f24e5ffbcc9c55a45d181171c0.jpeg","place":"Ойсхарская детская художественная школа № 1 им. А. А. Ильясова","address":"Респ Чеченская,р-н Гудермесский,г Ойсхара,ул Садовая,д 6","organizer":"ГБУ ДО «Ойсхарская ДХШ им. А.А. Ильясова»"},{"id":6339273,"title":"Программа «О войне стихами говорим»","description":"Мероприятие, посвященное 80-летию Победы в Великой Отечественной войне, проводится для жителей села Небылое. В программу войдут поэтические и музыкальные номера в исполнении участников художественной самодеятельности народного коллектива «Дубравушка» – Николая и Светланы Зайцевых: «Мой милый, если б не было войны», «Горит свечи огарочек», «Шумит под ветром Ладога», «Казаки», «На безымянной высоте», «Шел солдат», «Волховская застольная», «У деревни Крюкова», «Жди солдата», «Вдовы России», «К маме».","age":12,"ageCategory":"12+","startDate":"15.11.2025","endDate":"15.11.2025","city":"Юрьев-Польский район","category":"Концерты","isFree":true,"price":"","image":"https:\/\/all.culture.ru\/uploads\/744f018b637c90f57a1989d3324cb151.JPG","place":"Небыловский сельский дом культуры","address":"обл Владимирская,р-н Юрьев-Польский,с Небылое,ул Первомайская,д 21","organizer":"МБУК «Шихобаловский СДК»"},{"id":6339275,"title":"Исторический час «Подвиг 28 панфиловцев»","description":" Просмотр художественного фильма о подвиге 28 панфиловцев. Фильм «28 панфиловцев» рассказывает о героизме советских солдат в годы Великой Отечественной войны. Через просмотр фильма учащихся получат представление о реальных героях, которые сражались за свободу своей страны. Они узнают о трудностях, с которыми сталкивались солдаты, и о том, как важно было сохранить дух и веру в победу даже в самые тяжелые времена. это способствует формированию чувства гордости за свою страну и желание защищать ее ценности.","age":12,"ageCategory":"12+","startDate":"15.11.2025","endDate":"15.11.2025","city":"Тунгиро-Олекминский район","category":"Кино","isFree":true,"price":"","image":"https:\/\/all.culture.ru\/uploads\/88bdae2840e5c35fa2c2e045be820f92.jfif","place":"Районная центральная библиотека с. Тупик","address":"край Забайкальский,р-н Тунгиро-Олекминский,с Тупик,ул Нагорная,д 20Б","organizer":"МБУК «Районная центральная библиотека» МР «Тунгиро-Олекминского район»"},{"id":6339276,"title":"Квиз «Как-то раз под Новый год»","description":"Квиз – развлекательно-познавательная битва интеллектуалов, в рамках которой гости музея смогут продемонстрировать свои знания на тему истории празднования Нового года в России и узнать интересные факты о главном празднике зимы. Игра включает в себя 5 увлекательных туров. Викторина станет для участников настоящим праздничным приключением, наполнит знаниями и приятными воспоминаниями. Победителям будут вручены памятные призы и подарки. Принимаются заявки от организованных групп в количестве не менее 10 человек по телефонам: +7 (4242) 49-57-17, +7 (4242) 49-57-28, +7 (4242) 49-57-04. ","age":12,"ageCategory":"12+","startDate":"09.12.2025","endDate":"26.12.2025","city":"Южно-Сахалинск","category":"Встречи","isFree":false,"price":800,"image":"https:\/\/all.culture.ru\/uploads\/3fdfe7b31d29e96839754f14a7cb5b6d.jpg","place":"Исторический парк «Россия – моя история» г. Южно-Сахалинска","address":"обл Сахалинская,г Южно-Сахалинск,ул Священномученика Илариона Троицкого,д 4","organizer":"ГБУК СО «Музейно-мемориальный комплекс «Победа»"}],"total":974,"page":2,"limit":12,"pages":82}