{"events":[{"id":6340422,"title":"Налог на спасение","description":"  Фильм-наблюдение о человеческих проявлениях — чувствах, эмоциях, словах, поведении — об их значении и влиянии на качество жизни. Героями фильма стали люди разного возраста, образования и профессий. Их объединяют сложные жизненные обстоятельства, высокая чувствительность, активное стремление найти решение проблем.  Дни научного кино ФАНК — просветительский проект, реализуемый по принципу социальной франшизы.  Это  непростое фестивальное документальное кино о науке и технологиях.   Дни научного кино ФАНК —  главный и самый масштабный проект.  ","age":16,"ageCategory":"16+","startDate":"17.11.2025","endDate":"17.11.2025","city":"Краснокамск","category":"Кино","isFree":true,"price":"","image":"https:\/\/all.culture.ru\/uploads\/4f6664c5028704b634c99fff61a331f8.png","place":"Краснокамская городская библиотека – филиал № 2","address":"край Пермский,г Краснокамск,ул Энтузиастов,д 25","organizer":"МБУК «Централизованная библиотечная система г. Краснокамска»"},{"id":6340433,"title":"Фильм «Детки: инструкция не прилагается»","description":"В Сытоминском центре досуга и творчества пройдет  кинопоказ художественного фильма  для молодежи. Лео — закоренелый холостяк, живущий одним днем в маленьком приморском городке на Канарских островах. Его беззаботное существование нарушает неожиданное появление бывшей возлюбленной, которая оставляет ему на руках младенца и бесследно исчезает.  Страна Испания, год выпуска 2024, жанр комедия, возрастное ограничение 16+, режиссер  Марина Сересески,   музыка Сакариас М. де ла Рива,  продолжительность  фильма 99 мин.     ","age":16,"ageCategory":"16+","startDate":"15.11.2025","endDate":"15.11.2025","city":"Сургутский район","category":"Кино","isFree":false,"price":150,"image":"https:\/\/all.culture.ru\/uploads\/2d7733017792fc13999750e191fff064.jpg","place":"Сытоминский центр досуга и творчества","address":"АО Ханты-Мансийский Автономный округ - Югра,р-н Сургутский,с Сытомино,ул Центральная,д 61","organizer":"МКУК СР «Ресурсный центр культуры»"},{"id":6340436,"title":"Показ фильма «Яга на нашу голову»","description":"Когда у десятилетнего Пети появляется новая воспитательница – странная и ворчливая, но невероятно обаятельная, – он быстро понимает, что она не такая, как все. Она – «няня под прикрытием», а на самом деле – Яга, легендарная волшебница, потерявшая свою ступу и спрятавшаяся среди людей. Теперь только Петя сможет помочь ей вернуть магические силы, а Яга – научить мальчика летать. И не только на ступе, но и по жизни. Режиссером картины является Александр Войтинский («По щучьему велению»). Главные роли исполнили Светлана Ходченкова и Юрий Колокольников.","age":6,"ageCategory":"6+","startDate":"12.11.2025","endDate":"16.11.2025","city":"Заларинский район","category":"Кино","isFree":false,"price":250,"image":"https:\/\/all.culture.ru\/uploads\/99848765da4fa48e734751e09e7377df.jpg","place":"Дом культуры «Родник»","address":"обл Иркутская,р-н Заларинский,рп Залари,ул Ленина,д 76","organizer":"ММБУК «Родник»"},{"id":6340440,"title":"Показ фильма «Яга на нашу голову»","description":"Когда у десятилетнего Пети появляется новая воспитательница – странная и ворчливая, но невероятно обаятельная, – он быстро понимает, что она не такая, как все. Она – «няня под прикрытием», а на самом деле – Яга, легендарная волшебница, потерявшая свою ступу и спрятавшаяся среди людей. Теперь только Петя сможет помочь ей вернуть магические силы, а Яга – научить мальчика летать. И не только на ступе, но и по жизни. Режиссером картины является Александр Войтинский («По щучьему велению»). Главные роли исполнили Светлана Ходченкова и Юрий Колокольников.","age":6,"ageCategory":"6+","startDate":"12.11.2025","endDate":"03.12.2025","city":"Лениногорск","category":"Кино","isFree":false,"price":180,"image":"https:\/\/all.culture.ru\/uploads\/99848765da4fa48e734751e09e7377df.jpg","place":"Дворец культуры Лениногорского района","address":"Респ Татарстан,р-н Лениногорский,г Лениногорск,ул Ленинградская,д 28А","organizer":"МБУ «Дворец культуры» МО «Лениногорский муниципальный район» РТ"},{"id":6340473,"title":"Показ фильма «Яга на нашу голову»","description":"Когда у десятилетнего Пети появляется новая воспитательница – странная и ворчливая, но невероятно обаятельная, – он быстро понимает, что она не такая, как все. Она – «няня под прикрытием», а на самом деле – Яга, легендарная волшебница, потерявшая свою ступу и спрятавшаяся среди людей. Теперь только Петя сможет помочь ей вернуть магические силы, а Яга – научить мальчика летать. И не только на ступе, но и по жизни. Режиссером картины является Александр Войтинский («По щучьему велению»). Главные роли исполнили Светлана Ходченкова и Юрий Колокольников.","age":6,"ageCategory":"6+","startDate":"12.11.2025","endDate":"19.11.2025","city":"Среднеуральск","category":"Кино","isFree":false,"price":150,"image":"https:\/\/all.culture.ru\/uploads\/99848765da4fa48e734751e09e7377df.jpg","place":"Кинотеатр «Волна»","address":"обл Свердловская,г Среднеуральск,ул Калинина,стр 14","organizer":"МБУК «Дворец культуры»"},{"id":6340491,"title":"Показ фильма «Яга на нашу голову»","description":"Когда у десятилетнего Пети появляется новая воспитательница – странная и ворчливая, но невероятно обаятельная, – он быстро понимает, что она не такая, как все. Она – «няня под прикрытием», а на самом деле – Яга, легендарная волшебница, потерявшая свою ступу и спрятавшаяся среди людей. Теперь только Петя сможет помочь ей вернуть магические силы, а Яга – научить мальчика летать. И не только на ступе, но и по жизни. Режиссером картины является Александр Войтинский («По щучьему велению»). Главные роли исполнили Светлана Ходченкова и Юрий Колокольников.","age":6,"ageCategory":"6+","startDate":"12.11.2025","endDate":"26.11.2025","city":"Уварово","category":"Кино","isFree":false,"price":200,"image":"https:\/\/all.culture.ru\/uploads\/99848765da4fa48e734751e09e7377df.jpg","place":"Дворец культуры «Дружба» г. Уварово","address":"обл Тамбовская,г Уварово,мкр 1,д 4а","organizer":"МБУК УГДК «Дружба»"},{"id":6340514,"title":"Показ фильма «Яга на нашу голову»","description":"Когда у десятилетнего Пети появляется новая воспитательница – странная и ворчливая, но невероятно обаятельная, – он быстро понимает, что она не такая, как все. Она – «няня под прикрытием», а на самом деле – Яга, легендарная волшебница, потерявшая свою ступу и спрятавшаяся среди людей. Теперь только Петя сможет помочь ей вернуть магические силы, а Яга – научить мальчика летать. И не только на ступе, но и по жизни. Режиссером картины является Александр Войтинский («По щучьему велению»). Главные роли исполнили Светлана Ходченкова и Юрий Колокольников.","age":6,"ageCategory":"6+","startDate":"09.11.2025","endDate":"10.11.2025","city":"Порецкий район","category":"Кино","isFree":false,"price":150,"image":"https:\/\/all.culture.ru\/uploads\/99848765da4fa48e734751e09e7377df.jpg","place":"Порецкий районный дворец культуры","address":"Чувашия Чувашская республика,р-н Порецкий,с Порецкое,ул Ленина,д 4","organizer":"МБУ «Централизованная клубная система» Порецкого района ЧР"},{"id":6340517,"title":"Показ фильма «Яга на нашу голову»","description":"Когда у десятилетнего Пети появляется новая воспитательница – странная и ворчливая, но невероятно обаятельная, – он быстро понимает, что она не такая, как все. Она – «няня под прикрытием», а на самом деле – Яга, легендарная волшебница, потерявшая свою ступу и спрятавшаяся среди людей. Теперь только Петя сможет помочь ей вернуть магические силы, а Яга – научить мальчика летать. И не только на ступе, но и по жизни. Режиссером картины является Александр Войтинский («По щучьему велению»). Главные роли исполнили Светлана Ходченкова и Юрий Колокольников.","age":6,"ageCategory":"6+","startDate":"12.11.2025","endDate":"26.11.2025","city":"Благовещенский район","category":"Кино","isFree":false,"price":150,"image":"https:\/\/all.culture.ru\/uploads\/99848765da4fa48e734751e09e7377df.jpg","place":"Благовещенский многофункциональный культурный центр","address":"край Алтайский,р-н Благовещенский,рп Благовещенка,ул Ленина,д 95","organizer":"МБУК «Многофункциональный культурный центр Благовещенского район»"},{"id":6340539,"title":"Кино «Освобождение.Огненная дуга»","description":"  Масштабная историческая киноэпопея Юрия Озерова «Освобождение» состоит из пяти фильмов. Фильм первый - «Огненная Дуга» повествует о грандиозной битве на Курской дуге летом 1943 года. Здесь произошло самое крупное в истории Второй мировой войны танковое сражение. Наряду с личными судьбами героев в фильме показаны батальные сцены, деятельность штабов и разведок, тех, кто трудился на фронте и в тылу.  Немцы готовятся взять реванш после Сталинградской битвы и разрабатывают наступательную операцию «Цитадель». Вражеские силы намерены нанести удар в районе Курска, который имеет не только важное военное, но и политическое значение. Советское командование успевает принять оборонительные меры несмотря на то, что узнает о замысле противника всего за два часа до наступления. Курская битва становится крупнейшим танковым сражением за всю историю Второй мировой войны.    ","age":12,"ageCategory":"12+","startDate":"21.11.2025","endDate":"21.11.2025","city":"Буинский район","category":"Кино","isFree":true,"price":"","image":"https:\/\/all.culture.ru\/uploads\/2d7efeb13a97be8e32feac489588ab52.jpg","place":"Сельский дом культуры с. Энтуганы","address":"Респ Татарстан,р-н Буинский,с Энтуганы,ул Центральная,д 12","organizer":"МБУ «Досуговый центр» Буинского муниципального района РТ"},{"id":6340541,"title":"Показ фильма «Яга на нашу голову»","description":"Когда у десятилетнего Пети появляется новая воспитательница – странная и ворчливая, но невероятно обаятельная, – он быстро понимает, что она не такая, как все. Она – «няня под прикрытием», а на самом деле – Яга, легендарная волшебница, потерявшая свою ступу и спрятавшаяся среди людей. Теперь только Петя сможет помочь ей вернуть магические силы, а Яга – научить мальчика летать. И не только на ступе, но и по жизни. Режиссером картины является Александр Войтинский («По щучьему велению»). Главные роли исполнили Светлана Ходченкова и Юрий Колокольников.","age":6,"ageCategory":"6+","startDate":"12.11.2025","endDate":"23.11.2025","city":"Майкоп","category":"Кино","isFree":false,"price":150,"image":"https:\/\/all.culture.ru\/uploads\/99848765da4fa48e734751e09e7377df.jpg","place":"Сельский дом культуры ст. Ханской","address":"Респ Адыгея,г Майкоп,ст-ца Ханская,ул Краснооктябрьская,д 21","organizer":"МБУК «Сельский Дом культуры ст. Ханская»"},{"id":6340545,"title":"Показ фильма «Пуанты для моей мамы»","description":" 15-летняя девочка по прозвищу Крыся с синдромом Аспергера до семи лет жила в чуме на стойбище оленеводов в тундре. Крысю отбирают в балетную школу-интернат в Вологде. Как и в начальной школе, ее не любят одноклассники, не понимая ее заболевания. У Крыси большая мечта – стать знаменитой балериной. Режиссер, сценарист и продюсер – Яна Недзвецкая.Оператор – Василий Очеретнюк.Композитор – Дмитрий Концур.Художник – Яна Недзвецкая.В главных ролях:Инна Новикова;Лина Базаева;Сергей Федоров;Оксана Сташенко;Дина Корзун;Сергей Филин;Ольга Челышева.","age":16,"ageCategory":"16+","startDate":"10.11.2025","endDate":"19.11.2025","city":"Армавир","category":"Кино","isFree":false,"price":250,"image":"https:\/\/all.culture.ru\/uploads\/a0b760e1c30d7b280da3c8ce3155e59b.jpg","place":"Кинотеатр «Монитор на Красной площади» г. Армавира","address":"край Краснодарский,г Армавир,ул Воровского,д 69","organizer":"ООО «Монитор А»"},{"id":6340568,"title":"Показ фильма «Наш папа – Дед Мороз!»","description":" Федор – несостоявшийся актер, он пытается помочь своему младшему брату Никите снова научиться ходить. В костюме Деда Мороза Федор выезжает на заказы, надеясь собрать за праздники деньги на операцию. Он – самый грустный Дед Мороз на свете, потому что ко всем прочим неприятностям как раз перед Новым годом его бросила любимая девушка. И вот 31 декабря он звонит в очередную дверь очередной квартиры, чтобы подарить подарки от родителей очередной паре детишек. И тут начинается самое настоящее новогоднее волшебство. ","age":12,"ageCategory":"12+","startDate":"10.11.2025","endDate":"19.11.2025","city":"Армавир","category":"Кино","isFree":false,"price":250,"image":"https:\/\/all.culture.ru\/uploads\/0c44e92d22772bba159be00ac537e401.png","place":"Кинотеатр «Монитор на Красной площади» г. Армавира","address":"край Краснодарский,г Армавир,ул Воровского,д 69","organizer":"ООО «Монитор А»"}],"total":95,"page":15,"limit":12,"pages":8}