{"events":[{"id":6339394,"title":"Показ фильма «Яга на нашу голову»","description":"Когда у десятилетнего Пети появляется новая воспитательница – странная и ворчливая, но невероятно обаятельная, – он быстро понимает, что она не такая, как все. Она – «няня под прикрытием», а на самом деле – Яга, легендарная волшебница, потерявшая свою ступу и спрятавшаяся среди людей. Теперь только Петя сможет помочь ей вернуть магические силы, а Яга – научить мальчика летать. И не только на ступе, но и по жизни. Режиссером картины является Александр Войтинский («По щучьему велению»). Главные роли исполнили Светлана Ходченкова и Юрий Колокольников.","age":6,"ageCategory":"6+","startDate":"12.11.2025","endDate":"03.12.2025","city":"Крапивинский район","category":"Кино","isFree":false,"price":80,"image":"https:\/\/all.culture.ru\/uploads\/99848765da4fa48e734751e09e7377df.jpg","place":"Крапивинский дом культуры","address":"обл Кемеровская,р-н Крапивинский,пгт Крапивинский,ул Юбилейная,д 17","organizer":"МБУК «Клубная система Крапивинского района»"},{"id":6339395,"title":"Показ фильма «Яга на нашу голову»","description":"Когда у десятилетнего Пети появляется новая воспитательница – странная и ворчливая, но невероятно обаятельная, – он быстро понимает, что она не такая, как все. Она – «няня под прикрытием», а на самом деле – Яга, легендарная волшебница, потерявшая свою ступу и спрятавшаяся среди людей. Теперь только Петя сможет помочь ей вернуть магические силы, а Яга – научить мальчика летать. И не только на ступе, но и по жизни. Режиссером картины является Александр Войтинский («По щучьему велению»). Главные роли исполнили Светлана Ходченкова и Юрий Колокольников.","age":6,"ageCategory":"6+","startDate":"12.11.2025","endDate":"26.11.2025","city":"Дальнегорск","category":"Кино","isFree":false,"price":180,"image":"https:\/\/all.culture.ru\/uploads\/99848765da4fa48e734751e09e7377df.jpg","place":"Дворец культуры химиков г. Дальнегорска","address":"край Приморский,г Дальнегорск,ул Первомайская,д 15","organizer":"МБУ «Дворец культуры химиков»"},{"id":6339396,"title":"Показ фильма «Яга на нашу голову»","description":"Когда у десятилетнего Пети появляется новая воспитательница – странная и ворчливая, но невероятно обаятельная, – он быстро понимает, что она не такая, как все. Она – «няня под прикрытием», а на самом деле – Яга, легендарная волшебница, потерявшая свою ступу и спрятавшаяся среди людей. Теперь только Петя сможет помочь ей вернуть магические силы, а Яга – научить мальчика летать. И не только на ступе, но и по жизни. Режиссером картины является Александр Войтинский («По щучьему велению»). Главные роли исполнили Светлана Ходченкова и Юрий Колокольников.","age":6,"ageCategory":"6+","startDate":"12.11.2025","endDate":"03.12.2025","city":"Хабаровск","category":"Кино","isFree":false,"price":150,"image":"https:\/\/all.culture.ru\/uploads\/99848765da4fa48e734751e09e7377df.jpg","place":"Кинотеатр «Форум»","address":"край Хабаровский,г Хабаровск,ул Карла Маркса,д 91","organizer":"Кино КХВ"},{"id":6339399,"title":"Показ фильма «Яга на нашу голову»","description":"Когда у десятилетнего Пети появляется новая воспитательница – странная и ворчливая, но невероятно обаятельная, – он быстро понимает, что она не такая, как все. Она – «няня под прикрытием», а на самом деле – Яга, легендарная волшебница, потерявшая свою ступу и спрятавшаяся среди людей. Теперь только Петя сможет помочь ей вернуть магические силы, а Яга – научить мальчика летать. И не только на ступе, но и по жизни. Режиссером картины является Александр Войтинский («По щучьему велению»). Главные роли исполнили Светлана Ходченкова и Юрий Колокольников.","age":6,"ageCategory":"6+","startDate":"12.11.2025","endDate":"16.11.2025","city":"Краснозерский район","category":"Кино","isFree":false,"price":250,"image":"https:\/\/all.culture.ru\/uploads\/99848765da4fa48e734751e09e7377df.jpg","place":"Краснозерский районный дом культуры","address":"обл Новосибирская,р-н Краснозерский,рп Краснозерское,ул Советская,д 2","organizer":"МКУК Культурно-досуговое объединение Краснозерского района Новосибирской области"},{"id":6339403,"title":"Литературная викторина «Где раки зимуют»","description":"17         ноября в школе №24 состоится увлекательная литературная викторина для         первоклассников, посвященной         творчеству замечательного советского писателя Виталия Бианки. Его перу         принадлежат около трехсот произведений, среди которых такие любимые детьми, как         «Где раки зимуют» и «Лесные домишки».Библиотекарь  проведет  для ребят настоящее путешествие в прошлое,         рассказав о жизни и творческом пути Виталия Бианки. Дети узнают, как с самого         детства писатель полюбил лес и его обитателей, как его увлечение природой,         подкрепленное путешествиями с родителями и внимательными наблюдениями, легло в         основу его многочисленных книг. Почти все произведения Бианки – это гимн         природе, раскрывающий ее тайны и красоту. В ходе викторины ребята будут отгадывать         загадки о пернатых друзьях, а также          учится распознавать животных по их следам и даже угадывать лесных         жителей по одному лишь виду их хвостов.","age":6,"ageCategory":"6+","startDate":"17.11.2025","endDate":"17.11.2025","city":"Чунский район","category":"Кино","isFree":true,"price":"","image":"https:\/\/all.culture.ru\/uploads\/84ebd8e497cb7318fc8844d213ca12d0.jpg","place":"Чунская межпоселенческая центральная библиотека","address":"обл Иркутская,р-н Чунский,рп Чунский,ул Ленина,д 54","organizer":"МБУК «Межпоселенческая централизованная библиотечная система Чунского район»"},{"id":6339418,"title":"Показ фильма «Яга на нашу голову»","description":"Когда у десятилетнего Пети появляется новая воспитательница – странная и ворчливая, но невероятно обаятельная, – он быстро понимает, что она не такая, как все. Она – «няня под прикрытием», а на самом деле – Яга, легендарная волшебница, потерявшая свою ступу и спрятавшаяся среди людей. Теперь только Петя сможет помочь ей вернуть магические силы, а Яга – научить мальчика летать. И не только на ступе, но и по жизни. Режиссером картины является Александр Войтинский («По щучьему велению»). Главные роли исполнили Светлана Ходченкова и Юрий Колокольников.","age":6,"ageCategory":"6+","startDate":"12.11.2025","endDate":"22.11.2025","city":"Татарский район","category":"Кино","isFree":false,"price":150,"image":"https:\/\/all.culture.ru\/uploads\/99848765da4fa48e734751e09e7377df.jpg","place":"Дом культуры «Родина»","address":"обл Новосибирская,р-н Татарский,г Татарск,ул Ленина,94","organizer":"Муниципальное автономное учреждение районный дом культуры «Родина»"},{"id":6339430,"title":"Показ фильма «Яга на нашу голову»","description":"Когда у десятилетнего Пети появляется новая воспитательница – странная и ворчливая, но невероятно обаятельная, – он быстро понимает, что она не такая, как все. Она – «няня под прикрытием», а на самом деле – Яга, легендарная волшебница, потерявшая свою ступу и спрятавшаяся среди людей. Теперь только Петя сможет помочь ей вернуть магические силы, а Яга – научить мальчика летать. И не только на ступе, но и по жизни. Режиссером картины является Александр Войтинский («По щучьему велению»). Главные роли исполнили Светлана Ходченкова и Юрий Колокольников.","age":6,"ageCategory":"6+","startDate":"12.11.2025","endDate":"26.11.2025","city":"Барабинский район","category":"Кино","isFree":false,"price":130,"image":"https:\/\/all.culture.ru\/uploads\/99848765da4fa48e734751e09e7377df.jpg","place":"Дворец культуры «Модерн»","address":"обл Новосибирская,р-н Барабинский,г Барабинск,ул Ульяновская,д 70","organizer":"МБУК «ЦКСИМП»"},{"id":6339437,"title":"Показ фильма «Яга на нашу голову»","description":"Когда у десятилетнего Пети появляется новая воспитательница – странная и ворчливая, но невероятно обаятельная, – он быстро понимает, что она не такая, как все. Она – «няня под прикрытием», а на самом деле – Яга, легендарная волшебница, потерявшая свою ступу и спрятавшаяся среди людей. Теперь только Петя сможет помочь ей вернуть магические силы, а Яга – научить мальчика летать. И не только на ступе, но и по жизни. Режиссером картины является Александр Войтинский («По щучьему велению»). Главные роли исполнили Светлана Ходченкова и Юрий Колокольников.","age":6,"ageCategory":"6+","startDate":"09.11.2025","endDate":"30.11.2025","city":"Иланский район","category":"Кино","isFree":false,"price":300,"image":"https:\/\/all.culture.ru\/uploads\/99848765da4fa48e734751e09e7377df.jpg","place":"Дворец культуры железнодорожников г. Иланского","address":"край Красноярский,р-н Иланский,г Иланский,ул Набережная,зд 46","organizer":"МБУК «Дворец культуры железнодорожников» Иланского района Красноярского края"},{"id":6339442,"title":"Показ фильма «Яга на нашу голову»","description":"Когда у десятилетнего Пети появляется новая воспитательница – странная и ворчливая, но невероятно обаятельная, – он быстро понимает, что она не такая, как все. Она – «няня под прикрытием», а на самом деле – Яга, легендарная волшебница, потерявшая свою ступу и спрятавшаяся среди людей. Теперь только Петя сможет помочь ей вернуть магические силы, а Яга – научить мальчика летать. И не только на ступе, но и по жизни. Режиссером картины является Александр Войтинский («По щучьему велению»). Главные роли исполнили Светлана Ходченкова и Юрий Колокольников.","age":6,"ageCategory":"6+","startDate":"12.11.2025","endDate":"26.11.2025","city":"Чистоозерный район","category":"Кино","isFree":false,"price":150,"image":"https:\/\/all.culture.ru\/uploads\/99848765da4fa48e734751e09e7377df.jpg","place":"Чистоозерный культурно-досуговый центр","address":"обл Новосибирская,р-н Чистоозерный,рп Чистоозерное,ул Покрышкина,д 12","organizer":"МБУК «Чистоозерный КДЦ»"},{"id":6339480,"title":"Показ фильма «Яга на нашу голову»","description":"Когда у десятилетнего Пети появляется новая воспитательница – странная и ворчливая, но невероятно обаятельная, – он быстро понимает, что она не такая, как все. Она – «няня под прикрытием», а на самом деле – Яга, легендарная волшебница, потерявшая свою ступу и спрятавшаяся среди людей. Теперь только Петя сможет помочь ей вернуть магические силы, а Яга – научить мальчика летать. И не только на ступе, но и по жизни. Режиссером картины является Александр Войтинский («По щучьему велению»). Главные роли исполнили Светлана Ходченкова и Юрий Колокольников.","age":6,"ageCategory":"6+","startDate":"12.11.2025","endDate":"03.12.2025","city":"Боханский район","category":"Кино","isFree":false,"price":200,"image":"https:\/\/all.culture.ru\/uploads\/99848765da4fa48e734751e09e7377df.jpg","place":"Кинотеатр «Колос» п. Бохан","address":"обл Иркутская,р-н Боханский,п Бохан,ул Ленина,д 46В","organizer":"МБУК «Межпоселенческое клубное объединение» МО «Боханский район»"},{"id":6339490,"title":"Показ фильма «Яга на нашу голову»","description":"Когда у десятилетнего Пети появляется новая воспитательница – странная и ворчливая, но невероятно обаятельная, – он быстро понимает, что она не такая, как все. Она – «няня под прикрытием», а на самом деле – Яга, легендарная волшебница, потерявшая свою ступу и спрятавшаяся среди людей. Теперь только Петя сможет помочь ей вернуть магические силы, а Яга – научить мальчика летать. И не только на ступе, но и по жизни. Режиссером картины является Александр Войтинский («По щучьему велению»). Главные роли исполнили Светлана Ходченкова и Юрий Колокольников.","age":6,"ageCategory":"6+","startDate":"12.11.2025","endDate":"24.11.2025","city":"Купинский район","category":"Кино","isFree":false,"price":300,"image":"https:\/\/all.culture.ru\/uploads\/99848765da4fa48e734751e09e7377df.jpg","place":"Кинотеатр «Сибирь»","address":"обл Новосибирская,р-н Купинский,г Купино,ул Розы Люксембург,д 7","organizer":"МАУ «Районный Дворец культуры»"},{"id":6339493,"title":"Показ фильма «Про людей и про войну»","description":" Великая Отечественной война. Рядовые ситуации не могут серьезно повлиять на ход глобального мирового конфликта, развернувшегося на тысячах километров фронта бескрайней страны, в котором участвуют десятки миллионов солдат и сошлись все силы добра и зла. Но именно человеческие качества каждого, кто в это суровое время стоял насмерть с оружием в руках и был готов на все ради победы, и стали той силой, которая сокрушила нацизм.  В главных ролях:Егор Бероев;Антон Богданов;Федор Федотов;Тимофей Елецкий;Андрей Кислицин;Сергей Сафронов;Анна Попова;Евгения Глотова.","age":12,"ageCategory":"12+","startDate":"09.11.2025","endDate":"01.12.2025","city":"Назарово","category":"Кино","isFree":false,"price":10,"image":"https:\/\/all.culture.ru\/uploads\/6cc1fcda4fc29e76450cd73027c46d1e.png","place":"Дворец культуры «Энергетик»","address":"край Красноярский,г Назарово,ул Ленина,д 4А","organizer":"МБУК «Культурно-досуговое объединение «Энергетик» г. Назарово Красноярского края"}],"total":100,"page":2,"limit":12,"pages":9}