{"events":[{"id":6339359,"title":"Квест «В мире прав»","description":"20 ноября отмечается Международный день прав ребенка. Сотрудники библиотеки проведут для школьников интересную квест-игру. Ребята познакомятся с важным документом – Конвенцией о правах ребенка, которая защищает их от несправедливости и заботится о жизни, развитии, обучении и воспитании.Участники разделятся на команды и пройдут шесть станций: «Собери пословицы», «Правовая», «Права и обязанности», «Юридическая», «Анаграммы». У каждой команды будет маршрутный лист. Победят самые умные, находчивые и сплоченные команды.","age":6,"ageCategory":"6+","startDate":"20.11.2025","endDate":"20.11.2025","city":"Пожарский район","category":"Встречи","isFree":true,"price":"","image":"https:\/\/all.culture.ru\/uploads\/047d6511afa527becdc501f8480e2bfb.jpeg","place":"Детская библиотека п. Лучегорска","address":"край Приморский,р-н Пожарский,пгт Лучегорск,мкр 1-й,д 8","organizer":"МБУ «Централизованная библиотечная система Пожарского муниципального округа»"},{"id":6339360,"title":"Квест «Дорогами памяти»","description":"Квест-игра «Дорогами памяти», приуроченная ко Дню Неизвестного Солдата, направлена на сохранение исторической памяти, воспитание патриотизма и духовно-нравственных ценностей молодого поколения. В ходе интерактивного маршрута участники выполняют серию заданий, связанных с ключевыми событиями Великой Отечественной войны: поиск исторических фактов, восстановление фрагментов писем с фронта, решение шифров, тематические викторины и реконструкция боевых эпизодов в игровой форме. Каждый этап квеста сопровождается познавательными комментариями и видеоматериалами, подготовленными при участии педагогов и работников культуры. Особое внимание уделяется подвигам безымянных героев, идеям мужества, долга и любви к Родине. ","age":12,"ageCategory":"12+","startDate":"03.12.2025","endDate":"03.12.2025","city":"Анивский район","category":"Встречи","isFree":true,"price":"","image":"https:\/\/all.culture.ru\/uploads\/94140c3c6ed2b8b261a6124915d59a7b.jpg","place":"Детская школа искусств г. Анивы","address":"обл Сахалинская,р-н Анивский,г Анива,ул Калинина,зд 41а","organizer":"МБУ ДО «Школа искусств г. Анива»"},{"id":6339362,"title":"«В единстве народа-будущее России» тематический час","description":"  День народного единства — российский государственный праздник, отмечаемый с 2005 года. Специалистами «Культурно –досугового центра с. Гуран» вместе с библиотекарем подготовлен тематический час «В единстве народа — будущее России». Мероприятие начнется с рассказа об исторических событиях 1612 года, которые стали основой для праздника. Ведущие поведают детям о Кузьме Минине и Дмитрии Пожарском, объединивших ополчение и освободивших Москву от врагов. Этот день стал символом соединения прошлого, настоящего и будущего, объединения всех граждан нашей страны в любви к друг другу, своему краю и России.  ","age":0,"ageCategory":"0+","startDate":"15.11.2025","endDate":"15.11.2025","city":"Тулунский район","category":"Праздники","isFree":true,"price":"","image":"https:\/\/all.culture.ru\/uploads\/fb3b151a6660c09440da3b6da0676021.jpg","place":"Культурно-досуговый центр с. Гуран","address":"обл Иркутская,р-н Тулунский,с Гуран,ул Бурлова,д 38","organizer":"МКУК «Культурно-досуговый центр с. Гуран»"},{"id":6339363,"title":"Презентация книги «Против ветра»","description":"Литературно-музыкально-художественная студия «Паруса» имени Владимира Тыцких Приморского краевого отделения Русского географического общества «ОИАК» представляет сборник прозы, поэзии и воспоминаний.Встреча будет посвящена памяти Владимира Михайловича Тыцких, приморского писателя, члена Союза писателей России, чье творчество внесло огромный вклад в культуру Приморья.Эльвира Васильевна Кочеткова – член Союза российских писателей, поэт, редактор-составитель этого сборника и его авторы расскажут о культурно-просветительских проектах студии «Паруса», о вкладе студийцев в развитие отечественной литературы, о жизни и творчестве друзей и коллег.Гостей ждут фильм о студии, фотоматериалы и песни на стихи Владимира Тыцких в исполнении замечательного приморского барда Александра Бурнаевского.","age":0,"ageCategory":"0+","startDate":"15.11.2025","endDate":"15.11.2025","city":"Владивосток","category":"Встречи","isFree":true,"price":"","image":"https:\/\/all.culture.ru\/uploads\/2794b6b3c067ddb2c036f6a6491aac3f.jpeg","place":"Центральная библиотека им. А. П. Чехова г. Владивостока","address":"край Приморский,г Владивосток,пр-кт 100-летия Владивостока,д 48","organizer":"МБУК «Владивостокская ЦБС»"},{"id":6339365,"title":"Познавательная программа «Поля сражения Курской битвы»","description":"  Познавательная программа «Поля сражения Курской битвы» посвящена сражению на Курской дуге (Курской битве) — одному из ключевых сражений Великой Отечественной войны 1941–1945 годов. Программа включает в себя информацию о ходе битвы, подвигах советских солдат, значении победы под Курском для исхода войны. Цель программы — сформировать представление о Курской битве, её значении в ходе войны, и воспитать патриотические чувства на примере героических событий. В ходе программы участники  познакомятся с основными фактами и событиями битвы;рассмотрят основные этапы битвы и сравнить военный потенциал СССР и Германии в сражении;обобщат знания о событиях Курской битвы: выделят главное, факты и события.","age":0,"ageCategory":"0+","startDate":"17.11.2025","endDate":"17.11.2025","city":"Тулунский район","category":"Прочие","isFree":true,"price":"","image":"https:\/\/all.culture.ru\/uploads\/d043e114937e55409f902d3ed005ca86.jpeg","place":"Культурно-досуговый центр с. Гуран","address":"обл Иркутская,р-н Тулунский,с Гуран,ул Бурлова,д 38","organizer":"МКУК «Культурно-досуговый центр с. Гуран»"},{"id":6339366,"title":"Литературная игра «Идут часы, и дни, и годы»","description":"Если попросить любого человека назвать великих русских поэтов, то наверняка многие наряду с Александром Пушкиным, Михаилом Лермонтовым, Сергеем Есениным и Мариной Цветаевой назвали бы и Александра Блока. Блок – гений слова и чувства. Его стихи – гармония музыки и ритма. В них – бесконечность жизни со всеми ее страданиями и радостями, ее ничтожными и прекрасными чертами. Участники литературной игры отправятся в путешествие по страницам его творчества. Они попробуют услышать музыку в ритмах его стихов, разгадать образы и символы, которые он вложил в свои произведения. Вместе с ведущим гости перелистают страницы его биографии – от первых детских стихов до зрелых размышлений о времени и истории. Эта встреча позволит по‑новому увидеть знакомые строки, проследить, как рождались его образы, и почувствовать пульс эпохи, который Блок сумел передать в своей поэзии.","age":12,"ageCategory":"12+","startDate":"20.11.2025","endDate":"20.11.2025","city":"Усолье-Сибирское","category":"Обучение","isFree":true,"price":"","image":"https:\/\/all.culture.ru\/uploads\/e57ec1693316ac52309987573ef8bb29.jpg","place":"Центральная городская библиотека г. Усолья-Сибирского","address":"обл Иркутская,г Усолье-Сибирское,ул Интернациональная,д 32А","organizer":"МБУК «Усольская городская централизованная библиотечная система»"},{"id":6339368,"title":"Показ фильма «Яга на нашу голову»","description":"Когда у десятилетнего Пети появляется новая воспитательница – странная и ворчливая, но невероятно обаятельная, – он быстро понимает, что она не такая, как все. Она – «няня под прикрытием», а на самом деле – Яга, легендарная волшебница, потерявшая свою ступу и спрятавшаяся среди людей. Теперь только Петя сможет помочь ей вернуть магические силы, а Яга – научить мальчика летать. И не только на ступе, но и по жизни. Режиссером картины является Александр Войтинский («По щучьему велению»). Главные роли исполнили Светлана Ходченкова и Юрий Колокольников.","age":6,"ageCategory":"6+","startDate":"12.11.2025","endDate":"26.11.2025","city":"Константиновский район","category":"Кино","isFree":false,"price":150,"image":"https:\/\/all.culture.ru\/uploads\/99848765da4fa48e734751e09e7377df.jpg","place":"Кинозал Амурского областного дома народного творчества с. Константиновка","address":"обл Амурская,р-н Константиновский,с Константиновка,ул Ленина,зд 84","organizer":"ГАУКАО «Амурский областной Дом народного творчества»"},{"id":6339369,"title":"Гала-концерт «Ретрошлягер»","description":"Гала-концерт 13-го районного фестиваля-конкурса популярной песни состоится в районном доме культуры. Вас ждут незабываемые хиты прошлого века и начала XX столетия. Талантливые солисты и коллективы из поселков Кировский и Горные Ключи, а также из сел Павло-Федоровка, Преображенка и Комаровка порадуют зрителей своими выступлениями.Атмосферу праздника создадут музыкальные композиции, которые заставят вас вспомнить золотые времена. Каждый участник вложил душу в свои номера, и вы сможете насладиться великолепным исполнением. Не упустите возможность поддержать местных звезд и окунуться в мир ретромузыки.Победителей ждут дипломы и памятные подарки. Приходите и станьте частью этого музыкального события!","age":0,"ageCategory":"0+","startDate":"15.11.2025","endDate":"15.11.2025","city":"Кировский р-н","category":"Концерты","isFree":true,"price":"","image":"https:\/\/all.culture.ru\/uploads\/37f9253dbe3b96e21b23b0262883b2e5.jpg","place":"Районный дом культуры пгт Кировского","address":"край Приморский,р-н Кировский,пгт Кировский,ул Советская,д 55а","organizer":"МБУ КДЦ КМР"},{"id":6339371,"title":"Мастер-класс «Мамино счастье»","description":"  На пороге День матери — самый красивый и долгожданный праздник . А красивый он потому, что это праздник самой красивой половины человечества.Это Международный мам. Праздник бабушек, мам, сестер, всех женщин на земле.А что любят женщины на земле? Конечно же, подарки.Подарки украшают нашу жизнь, успокаивают, дарят редкие минуты созерцания и покоя.Работники КДЦ для детей школьного возраста проведут мастер класс по изготовлению объемной открытки. На занятии вы сможете смастерить своими руками подарок для своих мам.  ","age":6,"ageCategory":"6+","startDate":"26.11.2025","endDate":"26.11.2025","city":"Тулунский район","category":"Прочие","isFree":true,"price":"","image":"https:\/\/all.culture.ru\/uploads\/426558c4d4f76c02f80075b30295c08c.jpg","place":"Культурно-досуговый центр с. Гуран","address":"обл Иркутская,р-н Тулунский,с Гуран,ул Бурлова,д 38","organizer":"МКУК «Культурно-досуговый центр с. Гуран»"},{"id":6339373,"title":"Показ фильма «Яга на нашу голову»","description":"Когда у десятилетнего Пети появляется новая воспитательница – странная и ворчливая, но невероятно обаятельная, – он быстро понимает, что она не такая, как все. Она – «няня под прикрытием», а на самом деле – Яга, легендарная волшебница, потерявшая свою ступу и спрятавшаяся среди людей. Теперь только Петя сможет помочь ей вернуть магические силы, а Яга – научить мальчика летать. И не только на ступе, но и по жизни. Режиссером картины является Александр Войтинский («По щучьему велению»). Главные роли исполнили Светлана Ходченкова и Юрий Колокольников.","age":6,"ageCategory":"6+","startDate":"12.11.2025","endDate":"26.11.2025","city":"Карасукский район","category":"Кино","isFree":false,"price":120,"image":"https:\/\/all.culture.ru\/uploads\/99848765da4fa48e734751e09e7377df.jpg","place":"Киноконцертный зал «Космос»","address":"обл Новосибирская,р-н Карасукский,г Карасук,ул Октябрьская,д 8","organizer":"МБУК Карасукского района"},{"id":6339374,"title":"«Сердце мамы, источник любви» Концертная программа","description":"  День матери — это один из самых важных праздников в году. Он затрагивает самые глубокие струны души каждого человека, независимо от возраста, социального статуса или места проживания. Празднование Дня матери в разных уголках мира проходит по-разному, но везде царит атмосфера тепла, любви и семейного единения. В селе в этот замечательный день КДЦ традиционно открывает свои двери для всех желающих. В этом году на праздничном концерте, посвященном Дню матери, зрители смогут насладиться ярким и разнообразным представлением самодеятельных артистов. Программа концерта обещает быть насыщенной и увлекательной. На сцене выступят как юные таланты, которые покорят зрителей своими зажигательными танцами и трогательными песнями, так и опытные исполнители, которые порадуют публику своим вокалом.  ","age":0,"ageCategory":"0+","startDate":"29.11.2025","endDate":"29.11.2025","city":"Тулунский район","category":"Концерты","isFree":true,"price":"","image":"https:\/\/all.culture.ru\/uploads\/295c11230d34d33ae50981260fb1f24a.jpg","place":"Культурно-досуговый центр с. Гуран","address":"обл Иркутская,р-н Тулунский,с Гуран,ул Бурлова,д 38","organizer":"МКУК «Культурно-досуговый центр с. Гуран»"},{"id":6339375,"title":"Мастер-класс: «Открытка для Мамы»","description":"Пионерская библиотека 22 ноября в 15:00 часов.         Приглашает ребят на мастер-класс: «Открытка для Мамы» –         Сделайте самый тёплый подарок своими руками!   Что может быть ценнее подарка, сделанного своими         руками, особенно если он предназначен для самой дорогой женщины в вашей жизни –         вашей мамы? Приглашаем вас на наш уютный мастер-класс, где вы сможете создать         уникальную открытку, наполненную теплом, любовью и нежностью.  Что вас ждет:  • Творческая атмосфера: Погрузитесь в мир красок, бумаги и декора под         приятную музыку.  • Пошаговое руководство: Опытный мастер покажет и расскажет, как шаг за         шагом создать красивую и трогательную открытку.  • Все материалы включены: Мы предоставим широкий выбор качественной бумаги,         лент, пуговиц, сухоцветов, страз, вырубки и других декоративных элементов. Вам         не нужно ничего приносить с собой!  • Уникальный дизайн: Вы научитесь выбирать гармоничные цвета, создавать         многослойные композиции и добавлять объемные детали, чтобы ваша открытка стала         по-настоящему особенной.  • Готовый подарок: Уйдете домой с шедевром, созданным своими руками,         который обязательно растрогает вашу маму.     Подарите маме не просто открытку, а частичку своей души, вложенную в каждое         прикосновение и деталь. Это будет незабываемый подарок, который сохранит тепло         ваших рук и сердец!","age":6,"ageCategory":"6+","startDate":"22.11.2025","endDate":"22.11.2025","city":"Чунский район","category":"Обучение","isFree":true,"price":"","image":"https:\/\/all.culture.ru\/uploads\/edfe31f582a5b2236df44bc99eee18ca.png","place":"Чунская межпоселенческая центральная библиотека","address":"обл Иркутская,р-н Чунский,рп Чунский,ул Ленина,д 54","organizer":"МБУК «Межпоселенческая централизованная библиотечная система Чунского район»"}],"total":975,"page":5,"limit":12,"pages":82}