{"events":[{"id":6339385,"title":"Концерт «Герои и судьбы»","description":"Вашему вниманию представят итоговый экзамен по композиции и     постановке танца студентов четвертого курса Иркутского областного колледжа     культуры по специальности народное художественное творчество (по виду)     Хореографическое творчество.  В программе - четыре хореографические сюиты, вдохновлённые     судьбами выдающихся личностей, литературными образами и волшебными сказками:  «Клетка творца» - драматический портрет гениального     танцовщика Вацлава Нижинского, чья свобода была заперта в стенах безумия;    «Алиса в Стране чудес» - причудливое путешествие через     зеркало реальности, где логика танцует с абсурдом;    «Чучело» - пронзительная хореографическая притча о доброте,     предательстве и силе детской души по повести Владимира Железникова;    «Восточная сказка о любви» - яркая, страстная и поэтичная     фантазия по мотивам легендарного «Аладдина».  Все танцевальные сюиты представлены в разных направлениях.  Это не просто экзамен - это спектакль, в котором студенты     раскрывают себя как зрелые хореографы, способные не только двигаться, но и     рассказывать истории, трогающие сердце.   ","age":6,"ageCategory":"6+","startDate":"16.12.2025","endDate":"16.12.2025","city":"Иркутск","category":"Концерты","isFree":false,"price":250,"image":"https:\/\/all.culture.ru\/uploads\/6ab0c92c4141576732d8248eeb4b5905.jpg","place":"Иркутский областной колледж культуры","address":"обл Иркутская,г Иркутск,ул Некрасова,д 2","organizer":"ГБПОУ «Иркутский областной колледж культуры»"},{"id":6339540,"title":"Театрализованный концерт «Потерянный Новый год»","description":"Новый  год – самая яркая и долгожданная пора, которая приносит с собой  волшебство и чудеса, дарит подлинное ощущение счастья и веселья. Для  любителей необыкновенных приключений будет организовано увлекательное  театрализованное музыкальное представление – зрителей ждут красочные  декорации, танцевальные и вокальные номера, невероятные костюмы, яркие  персонажи и захватывающие приключения.Сюжет классической сказки  практически не претерпел изменений: будут тут и злая Королева, и  дремучий Леший, пакостная Кикимора и, конечно же, главная героиня  Василиса Премудрая. Вместе с Дедушкой Морозом и Снегурочкой они наведут  порядок в запутанной новогодней истории.Запоминающийся праздник и  неожиданное завершение таинственных событий в канун Нового года  представит фольклорный ансамбль «Непоседы», хореографические коллективы  «Веснушки» и «Вдохновение» и преподаватели школы. Этот спектакль полон  юмора и волшебства. Он обязательно понравится как детям, так и взрослым.","age":6,"ageCategory":"6+","startDate":"24.12.2025","endDate":"24.12.2025","city":"Мариинский район","category":"Концерты","isFree":false,"price":200,"image":"https:\/\/all.culture.ru\/uploads\/046c6aa3228eacf38432e388c147503a.jpg","place":"Детская музыкальная школа № 80 с. Суслово","address":"обл Кемеровская область - Кузбасс,р-н Мариинский,с Суслово,ул Стройка,зд 12","organizer":"МБУ ДО «ДМШ № 80»"},{"id":6339566,"title":"Концерт студии «Динамика»","description":"Окунитесь в мир музыки!Для всех ценителей прекрасного состоится концерт студии музыкального развития «Динамика»!Вас ждёт незабываемое музыкальное путешествие, наполненное волшебством голоса, чарующими мелодиями и искренними эмоциями. Воспитанники студии подготовили душевную программу, включающую лучшие произведения – от романсов до современных хитов, которые можно не только послушать, но и исполнить вместе с артистами! Приходите насладиться искусством живого исполнения и зарядиться позитивной энергией!Не упустите шанс стать частью музыкального события! ","age":6,"ageCategory":"6+","startDate":"22.11.2025","endDate":"22.11.2025","city":"Каменск-Уральский","category":"Концерты","isFree":false,"price":150,"image":"https:\/\/all.culture.ru\/uploads\/0b15a95eb43fec7831ca1febb0deebcd.jpg","place":"Детский культурный центр г. Каменска-Уральского","address":"обл Свердловская,г Каменск-Уральский,ул Каменская,д 33","organizer":"МАУК «Детский культурный центр города Каменска-Уральского»"},{"id":6339578,"title":"Вечер скрипичной и фортепианной музыки","description":"В музыке разных эпох, стилей, вы услышите близкие воспоминания юности, глубокие чувства и переживания произведений прошлого и настоящего. От Бетховена до Яна Тирсена в исполнении лауреатов международных конкурсов Эюбовой Камиллы и Ковалева Михаила.От Бетховена к Яну Тирсену. Вы услышите музыку эпохи классицизма, романтизма, а также современную музыку из кинофильмов и песен, великих композиторов.Программа:Бетховен Соната для скрипки и фортепиано №5 \"Весенняя\"Бизе-Ваксман Фантазия из оперы \"Кармен\" для скрипки и фортепианоФрэнк Синатра \"May way\"Мишель Легран музыка из кинофильма \"Шербургские зонтики\"Ян Тирсен музыка из кинофильма \"Амели\"Исполняют лауреаты международных конкурсов Эюбова Камилла и Ковалев МихаилКамилла Эюбова, лауреат международных конкурсов, закончила Московскую консерваторию у Майи Самойловны ГЛЕЗАРОВОЙ (1924-2017).       Выступала в залах Московской консерватории,         Бетховенском зале и на исторической сцене Большого театра, в доме Ученых, в         доме Ермоловой, в Малом и Большом зале музея Скрябина, музее Рахманинова,         киноконцертном зале Эльдар, музее Цветаевой, а также заграницей в туре по всей         Европе, включая Испанию, Австрию, Латвию, Германию и Францию, соло с оркестром.  В репертуар         входят концерты для скрипки:  Бетховена,         Брамса, Дворжака, Сибелиуса, Чайковского, Хачатуряна, Прокофьева 1й и 2й         концерты и Шостаковича 1й концерт, а также лучшие произведения, написанные для         скрипки и фортепиано, от И.Баха до Б.Бартока.  Также имеются рекомендации видных профессоров: Павла         Бермана (Швейцария), В.М. Иванова (Россия), М.С. Глезаровой, Слуцкой, А.А.         Шанина.  Имеются интервью на сайтах Яндекс-дзен, Музыкальный         клондайк www.muzklondike.ru\/afisha\/7181, на Культура РФ,         www.culture.ru\/events\/2075596\/vecher-skripichnoi-muzyki .  Работала в         Большом театре с 2021-2022 год.  В 2000 г.         Выиграла международный конкурс в Афинах, Греция.  В 2018 получила         диплом на международном конкурсе Musical strings.  В 2021         выиграла 3 приз на международном конкурсе World vision.  В 2021 году         выпустила диск на Американской студии звукозаписи. Аудитория в интернете         насчитывает 3000 человек.  Михаил Ковалев – пианист, композитор, лауреат         международных конкурсов, заместитель председателя Московского отделения         Российского творческого Союза работников культуры, Член Международного союза         музыкальных деятелей, Российского музыкального союза, Российского общества         Знание, Союза композиторов Евразии, Международного союза композиторов XXI век,         Международного общества музыкального образования при ЮНЕСКО и многих других         профессиональных организаций, один из последних учеников выдающегося пианиста XX-го века,         Народного артиста СССР, профессора Виктора Карповича МЕРЖАНОВА (1919 –         2012).   Игру Михаила Ковалева отличает благородство,         красивый, насыщенный звук с богатой тембральной окраской. Он легко преодолевает         технические трудности, которые становятся незаметными для слушателей во время         его выступлений. Исполнение пианиста всегда горячо воспринимаются публикой. В         обширном концертном репертуаре пианиста произведения Баха, Клементи, Моцарта,         Гайдна, Бетховена, Шуберта, Шумана, Шопена, Листа, Рахманинова, Балакирева,         Ляпунова, Прокофьева, Скрябина, Дебюсси, Равеля, Бабаджаняна, Шнитке, Печи и         других композиторов, в том числе современных.  Выступал во многих городах России, а также в Болгарии,         Италии, США, Албании. Постоянный участник концертных, памятных и патриотических         мероприятий Московской Государственной консерватории им. П. И. Чайковского.         Общественный деятель, художественный руководитель Творческого Проекта «ЛИРА»,         посвященного пропаганде и развитию классического искусства, патриотического         воспитания, поддержке молодых музыкантов, композиторов, художников, поэтов,         литераторов и других представителей прекрасных искусств, содействию работе         педагогов.   Михаил             Ковалев продолжает         традиции русской романтической школы. Является автором фортепианных, камерных,         хоровых, вокальных, духовных сочинений. ","age":0,"ageCategory":"0+","startDate":"23.11.2025","endDate":"23.11.2025","city":"Москва","category":"Концерты","isFree":false,"price":1000,"image":"https:\/\/all.culture.ru\/uploads\/2fc6c090ce7e91ac020fbc1775b9dda5.jpg","place":"Дом культуры «Гайдаровец»","address":"г Москва,г Москва,ул Земляной Вал,д 27","organizer":"ИП Ковалев Михаил Викторович"},{"id":6339606,"title":"Праздничный концерт «Свет Рождественской звезды»","description":" Старый Новый год – один из самых любимых семейных праздников россиян. Он словно дает второй шанс сделать то, что не успели воплотить в новогоднюю ночь: загадать желание под бой курантов, прогуляться по новогодним локациям, посмотреть любимое кино или мультфильм с близкими людьми. Этот праздник позволяет вспомнить народные обряды и традиции.Гости концертной программы узнают о традиции отмечать Старый новый год. Ведущие расскажут о святочных гаданиях и колядках. Будут веселые поздравления, интересные игры, конкурсы, предсказания. Не обойдется и без новогодних песен в исполнении фольклорного ансамбля «Непоседы» и преподавателей на музыкальных инструментах Теплая атмосфера мероприятия станет прекрасным завершением новогодних праздников и оставит приятные воспоминания до следующего Нового года.","age":6,"ageCategory":"6+","startDate":"14.01.2026","endDate":"14.01.2026","city":"Мариинский район","category":"Концерты","isFree":false,"price":200,"image":"https:\/\/all.culture.ru\/uploads\/ddafdbea3ccea21f3dfb981091c6705a.jpg","place":"Детская музыкальная школа № 80 с. Суслово","address":"обл Кемеровская область - Кузбасс,р-н Мариинский,с Суслово,ул Стройка,зд 12","organizer":"МБУ ДО «ДМШ № 80»"},{"id":6339647,"title":"«Зажигаем звёзды»","description":"  Восьмой раз на сцене Досугового центра пройдет ежегодный фестиваль творчества детей среди воспитанников дошкольных образовательных учреждений города. Фестиваль проходит в два этапа: отборочный тур и гала-концерт. Дети вместе со своими педагогами представляют на суд жюри номера по различным направлениям: вокал, хореография, инструментальное исполнение и другиеВ этом году фестиваль, посвящен   Году Защитника Отечества в России и Году Исторического наследия в Югре.  Жители и гости города Урая приглашаются  посмотреть детские номера и поболеть за маленьких дарований города.  ","age":0,"ageCategory":"0+","startDate":"30.11.2025","endDate":"30.11.2025","city":"Урай","category":"Концерты","isFree":false,"price":300,"image":"https:\/\/all.culture.ru\/uploads\/11957c66329a1f031c6ae4761b10a594.jpg","place":"Культурно-досуговый центр «Нефтяник»","address":"ао Ханты-Мансийский Автономный округ - Югра,г Урай,мкр 1А,д 73","organizer":"МАУ «Культура»"},{"id":6339651,"title":"Юбилейный концерт Центра татарской культуры","description":"  Дорогие тюменцы и гости города!22 ноября состоится знаменательное событие в культурной жизни города Тюмени — юбилейный концерт, посвященный 25-летию Центра татарской культуры города Тюмени.Концерт состоится в большом зале Дворца культуры «Нефтянник».В этот вечер на одной сцене соберутся лучшие творческие коллективы Центра, чтобы продемонстрировать всю красоту, богатство и многогранность татарской культуры. Вас ждет яркое и незабываемое путешествие по страницам истории Центра, наполненное самобытными песнями, зажигательными танцами и народными традициями.","age":0,"ageCategory":"0+","startDate":"22.11.2025","endDate":"22.11.2025","city":"Тюмень","category":"Концерты","isFree":false,"price":500,"image":"https:\/\/all.culture.ru\/uploads\/4323750d80d61f8dd912c53f6e14ee55.jpg","place":"Центр татарской культуры г. Тюмени","address":"обл Тюменская,г Тюмень,ул Щербакова,д 4 стр 11","organizer":"МАУК г. Тюмени «Центр татарской культуры»"},{"id":6339808,"title":"Концерт «Пою героям моего Отечества!»","description":"Памятная дата «День Героев Отечества» была установлена в России в 2007 году. С этого времени ежегодно 9 декабря Россия чествует Героев Советского Союза, Российской Федерации, а также кавалеров ордена Славы и ордена Святого Георгия.Дата праздника приурочена ко дню христианского святого, великомученика Георгия Победоносца. В этот день, 9 декабря (26 ноября по старому стилю) 1769 года, императрица Екатерина II учредила высшую воинскую награду – орден Святого Георгия. В этот день принято чествовать героев России, открывают памятники, проводят церемонии возложения цветов к памятникам погибших воинов, минуты молчания, митинги и собрания. Организуются концертные программы, тематические выставки, конкурсы военной песни и рисунков, спортивные соревнования. Этот праздник очень важен для всех жителей России, потому что он объединяет историю воинских подвигов и героев российской армии со дня ее создания и до настоящего времени.В концертной программе «Пою героям моего Отечества!», подготовленной солистами Орловской государственной филармонии, прозвучат мелодии военных лет, песни советских композиторов о Родине, ратных подвигах ее солдат, Победе.","age":12,"ageCategory":"12+","startDate":"09.12.2025","endDate":"09.12.2025","city":"Дульдургинский район","category":"Концерты","isFree":false,"price":200,"image":"https:\/\/all.culture.ru\/uploads\/6cafdebf230cbabd51e7905efb8f63d8.jpg","place":"Дульдургинский межпоселенческий социально-культурный центр","address":"край Забайкальский,р-н Дульдургинский,с Дульдурга,ул 8 Марта,зд 7","organizer":"МБУК «Социально-культурный центр» муниципального района «Дульдургинский район»"},{"id":6339860,"title":"Праздничный концерт, посвященный дню матери «Мое счастье-мама!»","description":"  Сельский Дом Культуры села Суккулово организует для жителей и гостей  торжественный концерт, посвященный самому светлому и трогательному празднику – Дню Матери.  Эта программа – дань уважения и признательности всем мамам, бабушкам и женщинам, чья любовь и забота согревают мир. Концертная программа построена как путешествие по разным граням материнской любви, где каждое выступление – это искреннее признание в чувствах. Прозвучат лирические вокальные композиции, посвященные материнской нежности и мудрости. Гости услышат как классические, так и современные песни в исполнении солистов и ансамблей СДК, включая выступление вокального ансамбля «Ювента», чьи голоса наполнят зал особой теплотой.  Танцевальный коллектив «АК чишма» представит хореографические этюды, отражающие жизненный путь женщины – от юности до зрелости, наполненный заботой и любовью. Зрители увидят как национальные, так и эстрадные танцы, каждый из которых несет в себе глубокий эмоциональный посыл.  ","age":0,"ageCategory":"0+","startDate":"29.11.2025","endDate":"29.11.2025","city":"Дюртюлинский район","category":"Концерты","isFree":false,"price":100,"image":"https:\/\/all.culture.ru\/uploads\/1e35ea5728103c346ca666641fe01e4e.jpg","place":"Дом культуры с. Суккулово","address":"Респ Башкортостан,р-н Дюртюлинский,с Суккулово,ул Центральная,д 9","organizer":"МБУ «Культурно-досуговый центр МР Дюртюлинский район РБ»"},{"id":6340310,"title":"Праздничный концерт «Волшебство под елкой»","description":"  Сотрудники сельского дома культуры села Суккулово подготовили для  жителей и гостей села  кульминацию праздничного сезона – большой новогодний концерт «Волшебство под ёлкой». Это яркое, динамичное представление, объединяющее лучшие творческие силы  дома культуры.  Концертная программа представляет собой праздничный калейдоскоп, где гармонично сочетаются традиционное искусство и современный взгляд на новогоднее волшебство. Зрителей ждет феерия света, музыки и движения, созданная для того, чтобы подарить ощущение настоящего праздника и предвкушения чуда.  Сцена оживет благодаря ярким вокальным и хореографическим номерам, которые пронизаны духом нового года и зимних традиций. Выступления коллективов СДК продемонстрируют богатство талантов – от лирических песен, согревающих душу, до зажигательных танцевальных постановок, которые не оставят равнодушным ни одного зрителя. ","age":0,"ageCategory":"0+","startDate":"30.12.2025","endDate":"30.12.2025","city":"Дюртюлинский район","category":"Концерты","isFree":false,"price":150,"image":"https:\/\/all.culture.ru\/uploads\/c484e30fdf560f7316355179f27e5813.jpg","place":"Дом культуры с. Суккулово","address":"Респ Башкортостан,р-н Дюртюлинский,с Суккулово,ул Центральная,д 9","organizer":"МБУ «Культурно-досуговый центр МР Дюртюлинский район РБ»"},{"id":6340311,"title":"Денис Мацуев «И классика, и джаз»","description":"  Феноменальный виртуоз, один из лучших пианистов мира, самый титулованный российский пианист Денис Мацуев представляет грандиозную программу «  И классика, и джаз ».Классика и джаз — две страсти, которые определяют пианистическое кредо Дениса Мацуева. В этот вечер вместе с артистом на сцене — его друзья, известные российские музыканты: Андрей Иванов (контрабас), Давид Ткебучава (ударные), Борислав Струлёв (виолончель), Екатерина Мочалова (домбра), Софья Тюрина (саксофон) и София Виланд (флейта).«Мы играем джаз, играем саму жизнь – и музыканты, и зрители! Это и дань уважения великим композиторам, это и встреча старых друзей, это соединение классики с новыми элементами, это и хулиганство, и восторг...», – так рассказывает о программе «И классика, и джаз» сам Денис Мацуев.  ","age":6,"ageCategory":"6+","startDate":"26.11.2025","endDate":"26.11.2025","city":"Альметьевск","category":"Концерты","isFree":false,"price":500,"image":"https:\/\/all.culture.ru\/uploads\/d61c336522c8c7f31c98f28d404d7945.jpg","place":"Дворец культуры «Нефтьче»","address":"Респ Татарстан,р-н Альметьевский,г Альметьевск,ул Ленина,д 98","organizer":"МАУ «Дворец культуры «Нефтьче»"},{"id":6340320,"title":"Шоу Александра Пескова","description":"Насыщенное и наполненное энергией Шоу Александра Пескова отвлечет Вас от повседневной суеты и забот. Это шоу пластики, танца, эксклюзивных постановок и костюмов перенесет Вас в мир легенд прошлого и настоящего. Каждое выступление сочетает в себе качественную хореографию, артистизм, мощную энергетику и обаяние. Комедийный актер Александр Песков представит образы известных отечественных звезд, таких как Людмила Зыкина, Клавдия Шульженко, Людмила Гурченко, Надежда Кадышева, Александр Вертинский, Надежда Бабкина, Валерий Леонтьев, Сосо Павлиашвили и многих многих других. Вы услышите полюбившиеся песни, зарядитесь энергией и позитивом.","age":12,"ageCategory":"12+","startDate":"24.12.2025","endDate":"24.12.2025","city":"Белово","category":"Концерты","isFree":false,"price":2500,"image":"https:\/\/all.culture.ru\/uploads\/2cc0247e1e5ca924442ff60399cbe323.jpeg","place":"Центральный дворец культуры г. Белово","address":"обл Кемеровская область - Кузбасс,г Белово,ул Октябрьская,д 12а","organizer":"МУ «Центральный Дворец культуры»"}],"total":15,"page":1,"limit":12,"pages":2}