{"events":[{"id":6340663,"title":"Беседа «Для кофе...»","description":"  Конфетница. Эта конфетница украшает пятый зал Свитского корпуса.Конфетница маленькая, округлая, тыквообразная. Основной цвет белый с легким розоватым оттенком, украшена ветвями цветущего миндаля. На дне – печать зеленым под глазурью щит с перевязью под короной и перьями. На перевязи надпись: «LCS». Над перевязью, на щите изображение цветка. Под краями щита надпись: «R. CAPODIMONTE». Этот предмет был изготовлен в Италии в середине ХХ века. Беседа проводится по предварительной записи по телефону +7 (950) 775-45-45","age":12,"ageCategory":"12+","startDate":"14.11.2025","endDate":"14.11.2025","city":"Рамонский район","category":"Прочие","isFree":false,"price":100,"image":"https:\/\/all.culture.ru\/uploads\/1e3bc3e69a9b916dd7663864ec93f51d.jpg","place":"Историко-культурный центр «Дворцовый комплекс Ольденбургских»","address":"обл Воронежская,р-н Рамонский,рп Рамонь,ул Мосина,д 23 б","organizer":"АУК ВО «Историко-культурный центр «Дворцовый комплекс Ольденбургских»"},{"id":6340664,"title":"Интерактивная программа «Раз, два, три, четыре, пять, мы идем играть!»","description":"Васильевский клуб приглашает детей и их родителей принять участие в спортивных соревнованиях под названием «Раз, два, три, четыре, пять, мы идем играть!»  Участников игры ждут веселые и активные игры, приключения, задания и творческие конкурсы.  «Раз, два, три, четыре, пять, мы идем играть!» – не просто развлечение; это праздник свободы и активного отдыха, который объединяет людей, укрепляет дружеские связи и оставляет за собой яркие воспоминания о беззаботном детстве.  С каждым новым подходом к игре, в ней открываются новые грани, даруя участникам возможность снова и снова окунаться в атмосферу веселья и бодрости.","age":0,"ageCategory":"0+","startDate":"20.11.2025","endDate":"20.11.2025","city":"Великоустюгский район","category":"Встречи","isFree":true,"price":"","image":"https:\/\/all.culture.ru\/uploads\/077dbb0d0885d3cd14bc61fe01c587cb.jpg","place":"Васильевский клуб","address":"обл Вологодская,р-н Великоустюгский,с Васильевское,ул Парковая,д 33","organizer":"МБУК «Центр культурного развития г. Красавино»"},{"id":6340665,"title":"Акция «Книга на дом»","description":"  Вне стационарное обслуживание — это обслуживание читателей за пределами библиотеки.  Библиотека  проведет акцию «Книга на дом». Её суть заключается в том, что библиотекарь приносит книги, периодические издания на дом читателю, который в силу возраста, здоровья или занятости не может сам прийти в библиотеку. В ходе акции  библиотекарь познакомит своих читателей с книжными новинками, свежими периодическими изданиями и конечно же расспросит о пожеланиях читателей, какие произведения нужно принести в следующий визит.  ","age":6,"ageCategory":"6+","startDate":"03.12.2025","endDate":"03.12.2025","city":"Казанский район","category":"Прочие","isFree":true,"price":"","image":"https:\/\/all.culture.ru\/uploads\/64188234a059a879239ea87d82db3728.jpg","place":"Грачевская библиотека","address":"обл Тюменская,р-н Казанский,д Грачи,ул Зеленая,д 38","organizer":"МАУ «Казанская районная централизованная библиотечная система»"},{"id":6340666,"title":"Обзор творчества «О доблестях, о подвигах, о славе...»","description":"Александр Блок – выдающийся русский поэт, писатель, драматург, критик и переводчик. Он стал классиком русской литературы XX века и одним из главных представителей символизма.Библиотекарь проведет обзор книг о жизни и творчестве Блока, посвященный 145-летию со дня рождения поэта.Посетители смогут погрузиться в мир его трагической и прекрасной души. Они узнают малоизвестные факты и события из жизни Блока, а также познакомятся с его произведениями разных жанров: поэзией, прозой и драматургией. Будут представлены сборники стихов «Стихи о Прекрасной Даме», «Нечаянная радость» и «Страшный мир» и другие.","age":6,"ageCategory":"6+","startDate":"29.11.2025","endDate":"29.11.2025","city":"Бутурлиновский район","category":"Выставки","isFree":true,"price":"","image":"https:\/\/all.culture.ru\/uploads\/89686529388b376505b4ddb88c247442.jpg","place":"Заречная городская библиотека","address":"обл Воронежская,р-н Бутурлиновский,г Бутурлиновка,ул Кирова,д 3","organizer":"МКУК «Бутурлиновская межпоселенческая центральная районная библиотека им. Ю. Д. Гончарова» Бутурлиновского района"},{"id":6340667,"title":"Мастер-класс Бумажные модули","description":"  Бумага — это удивительный и податливый материал, который открывает безграничные возможности для творчества. Благодаря своей легкости и доступности, бумага идеально подходит для создания разнообразных поделок. На мастер-классе, с помощью простых техник оригами, аппликации и многих других, вы сможете создать из бумаги необычные поделки. Сложив бумажные модули, можно собрать фигуру различных размеров: от маленьких звездочек и снежинок до больших шкатулок, фигур животных и птиц. Удивите своих друзей и близких оригинальными подарками, сделанными своими руками.  ","age":6,"ageCategory":"6+","startDate":"20.11.2025","endDate":"20.11.2025","city":"Сергиевский район","category":"Обучение","isFree":true,"price":"","image":"https:\/\/all.culture.ru\/uploads\/7b67420731ce8384f34c4f561dc5e845.png","place":"Светлодольский сельский дом культуры","address":"обл Самарская,р-н Сергиевский,п Светлодольск,ул Полевая,зд 1","organizer":"МАУК «МКДЦ» Муниципального района Сергиевский"},{"id":6340668,"title":"День рождения Волшебника","description":"  Дед Мороз — главный зимний волшебник России. В Новый год он приносит детям подарки, исполняет желания и создает атмосферу праздника. Но мало кто знает, что у любимого волшебника есть день рождения. Рассказываем, какого числа его поздравлять, где он живет и как этот день отмечают в России.   День рождения Деда Мороза в России отмечают 18 ноября. В 2025 году праздник выпадает на вторник. В это время в большинстве регионов России наступает настоящая зима: холодает, ложится первый снег, и воздух наполняется волшебством. День считается началом зимнего сезона. так давайте и мы поздравим его с днем его рождения,вспомним все песни посвященные Деду Морозу.","age":0,"ageCategory":"0+","startDate":"18.11.2025","endDate":"18.11.2025","city":"Буинский район","category":"Встречи","isFree":true,"price":"","image":"https:\/\/all.culture.ru\/uploads\/687122d8374abadb1b6bc83664c714bb.jpeg","place":"Сельский дом культуры с. Мокрая Савалеевка","address":"Респ Татарстан,р-н Буинский,с Мокрая Савалеевка,ул Молодежная,д 49","organizer":"МБУ «Районный Дом культуры» Буинского МР"},{"id":6340669,"title":"Час толерантности «Дай сердца твоего коснуться сердцем»","description":"  В МКУК\"Новокучерлинский ЦКиД\" ТМО СК пройдёт час толерантности посвященный международному дню толерантности.  Ребята сформируют представление о толерантности как важной социальной ценности,  будут развивать эмпатию и навыки уважительного взаимодействия с людьми, отличающимися по мировоззрению, культуре, внешности или жизненному опыту.  Познакомятся и с понятиями: толерантность, толерантное отношение, сочувствие, сострадание, милосердие, доброта. Обсудят то, что люди все разные, у каждого есть свои особенности, не говоря уже о внутреннем мире каждого человека. Поразмышляют над тем, что такое дружба, уважение, терпимость и какие добрые дела и поступки могут они совершить.  ","age":12,"ageCategory":"12+","startDate":"16.11.2025","endDate":"16.11.2025","city":"Туркменский район","category":"Встречи","isFree":true,"price":"","image":"https:\/\/all.culture.ru\/uploads\/53955421fc0b7c626bd481933f5137ea.jpeg","place":"Новокучерлинский центр культуры и досуга","address":"край Ставропольский,р-н Туркменский,п Ясный,ул Школьная,д 4","organizer":"МКУК «Новокучерлинский ЦКиД»"},{"id":6340670,"title":"Встреча «Осторожно, экстремизм»","description":"Работники Чащинского     сельского Дома культуры подготовили программу, информирующую об опасности представления экстремистской и террористической деятельности в сети Интернет.     Мероприятие подготовлено для того, чтобы проинформировать подростков об     ответственности за участие в этих деятельностях, показать опасность и сформировать отрицательное отношение к экстремизму и терроризму, показать важность     уважительного отношения к людям независимо от их этнической, культурной или     религиозной принадлежности.","age":6,"ageCategory":"6+","startDate":"16.11.2025","endDate":"16.11.2025","city":"Нолинский район","category":"Встречи","isFree":true,"price":"","image":"https:\/\/all.culture.ru\/uploads\/c1eb8c28e2a446a00cc6b86d39b9922a.jpg","place":"Чащинский сельский дом культуры","address":"обл Кировская,р-н Нолинский,д Чащино,ул Первомайская,д 16","organizer":"МКУК «Централизованная клубная система» Нолинского района"},{"id":6340671,"title":"День Акварели.","description":"День Акварели 23 ноября. Акварель переводится с французского языка как«водянистая». Действительно акварельные краски такие легкие и полупрозрачные, потому что растворителем для них служит вода. Во время мероприятия будет предложено ребятам нарисовать акварелью разноцветный зимний пейзаж. Научатся изображать акварельными красками переливающийся разными оттенками снег, передать с помощью акварели его красоту и сказочность. Нарисуют деревья разных пород, а с помощью акварели передадут красоту снежной зимы. После проведем различные конкурсы, загадывать загадки.","age":6,"ageCategory":"6+","startDate":"23.11.2025","endDate":"23.11.2025","city":"Мечетлинский район","category":"Прочие","isFree":true,"price":"","image":"https:\/\/all.culture.ru\/uploads\/389bd42cbbd8cbb041ac78349f210bc0.jpeg","place":"Степной сельский клуб","address":"Респ Башкортостан,р-н Мечетлинский,д Степной,ул Советская,д 27","organizer":"МАУ «Районный дом культуры» МР Мечетлинский район РБ"},{"id":6340672,"title":"Тематическая беседа","description":"В Старокаширском сельском доме культуры пройдет тематическая беседа ко Дню доброты посвящённые одному из самых добрых праздников, Всемирному дню доброты! Этот день стал еще одним поводом напомнить детям о важности и необходимости доброты. Всемирный день доброты и вежливости – это особый день, когда люди по всему миру призываются быть добрее и вежливее друг к другу.Пусть все окружающие люди излучают добро, и пусть будут в радость добрые дела. Пусть вокруг звучат только добрые слова, а в сердце ярким цветком распускается доброта!!!  ","age":16,"ageCategory":"16+","startDate":"18.11.2025","endDate":"18.11.2025","city":"Сармановский район","category":"Прочие","isFree":true,"price":"","image":"https:\/\/all.culture.ru\/uploads\/656c58bbdf3b1b406218eeb4e8bd8de4.jpg","place":"Старокаширский сельский дом культуры","address":"Респ Татарстан,р-н Сармановский,с Старый Кашир,ул Комсомола,д 4А","organizer":"МБУ Сармановского муниципального района «Централизованная клубная система» (Районный дом культуры)"},{"id":6340673,"title":"Музыкальный вечер","description":"Адаевском СК пройдет музыкальный вечер. Прозвучат различные жанры песен и исполнители. Во время музыкальной программы гостям предложат поучаствовать в разных викторинах и конкурсах. Угадать эстрадного певца по исполняющим его песням, назвать песню по звучавшей мелодии, угадать мелодию по тексту, отгадать загадки связанные с музыкальными инструментами. Литературно- музыкальный вечер «А музыка звучит» пройдет в теплой, веселой и музыкальной атмосфере. Вечер завершится чаепитием и приятной беседой.","age":12,"ageCategory":"12+","startDate":"22.11.2025","endDate":"22.11.2025","city":"Кукморский район","category":"Прочие","isFree":true,"price":"","image":"https:\/\/all.culture.ru\/uploads\/3ce43fb418e2bd5a817c07247f454cb2.jpg","place":"Адаевский сельский клуб","address":"Респ Татарстан,р-н Кукморский,с Адаево,ул Центральная,влд 4","organizer":"МБУ «Районный дом культуры» Кукморского муниципального района"},{"id":6340674,"title":"Выставка «Король приключений Роберт Льюис Стивенсон»","description":"Читатели смогут познакомиться с историко-приключенческими, фантастическо-психологическими произведениями Льюиса Стивенсона на языке оригинала, а также в переводе на немецкий и русский язык. Представлены первые творческие работы, очерки о его путешествиях по Франции, первые успешные работы на английском языке и в переводах. Книги биографического характера раскрывают тайны жизни писателя, особенности характера и сложности судьбы. Отдельное внимание уделено дневнику его жены Фанни «Четыре года на Самоа», который считается особенно трогательным. Юных читателей может заинтересовать сборник стихотворений «Свистульки», написанный Стивенсоном под впечатлением от детских воспоминаний. В России он был издан в 1920 году в сокращенном варианте под названием «Детский цветник стихов» и стал классикой английской поэзии для детей. ","age":12,"ageCategory":"12+","startDate":"15.11.2025","endDate":"25.11.2025","city":"Владимир","category":"Выставки","isFree":true,"price":"","image":"https:\/\/all.culture.ru\/uploads\/2f07f262d6f457e31fd8a3cc727a3855.jpg","place":"Владимирская областная научная библиотека","address":"обл Владимирская,г Владимир,ул Дзержинского,д 3","organizer":"ГБУК «Владимирская областная научная библиотека»"}],"total":974,"page":88,"limit":12,"pages":82}