{"events":[{"id":6340780,"title":"Беседа «Дети зимой»","description":"  На открытке «Дети зимой» изображены мальчик и девочка на фоне заснеженной деревенской улицы. В нижнем правом углу сохранилось факсимиле монограммы автора — великой княгини Ольги Александровны Ольденбургской: «ОА 1902». Ольга Александровна много времени проводила в фамильном имении Рамонь в Воронежской губернии. Она тепло относилась к рамонским крестьянам, часто становилась крестной матерью для их детей. Согласно записям Метрической книги Никольской церкви Рамонского уезда у Ольги Александровны было свыше 50 крестников в Рамони. Она приглашала их в гости, навещала сама, одаривала ценными подарками, помогала получить образование.Участие по предварительной записи у администратора по номерам +7 (950) 775-45-45  ","age":12,"ageCategory":"12+","startDate":"14.11.2025","endDate":"14.11.2025","city":"Рамонский район","category":"Прочие","isFree":false,"price":100,"image":"https:\/\/all.culture.ru\/uploads\/1ef14f81dceaa5df483d04da925f9fc3.png","place":"Историко-культурный центр «Дворцовый комплекс Ольденбургских»","address":"обл Воронежская,р-н Рамонский,рп Рамонь,ул Мосина,д 23 б","organizer":"АУК ВО «Историко-культурный центр «Дворцовый комплекс Ольденбургских»"},{"id":6340781,"title":"Творческая гостиная «В Доме на Каинской»","description":"Гончарная мастерская «Крынка» ‒ уголок творчества, родившийся из обычной поездки на Алтай. Здесь проходят мастер-классы по лепке из глины, работе за гончарным кругом и декорированию изделий. Керамические работы Олега, Ольги и Александры Магзяновых ‒ результат кропотливого ежедневного труда: цикл создания многих изделий занимает недели.В коллекции «Крынки» десятки разных сосудов: кувшинов, крынок, квасников, ваз и не только. Особенно выделяются предметы, созданные по мотивам старинных форм с использованием различных технологий. Также в мастерской представлены изделия других мастеров, которые приезжали для обмена опытом.Во время встречи зрителей ждет увлекательное путешествие в мир глины и керамики. Гости расскажут, что сподвигло их основать гончарную мастерскую, какие техники они используют в работе, а также поделятся секретом, как привлечь внимание к авторским рукотворным шедеврам и мешает ли творчеству отсутствие художественного образования.","age":12,"ageCategory":"12+","startDate":"15.11.2025","endDate":"15.11.2025","city":"Новосибирск","category":"Встречи","isFree":true,"price":"","image":"https:\/\/all.culture.ru\/uploads\/19c6a9b64345c57e8628f5a790ffd9a6.jpg","place":"Новосибирский государственный областной дом народного творчества на Каинской","address":"обл Новосибирская,г Новосибирск,ул Каинская,д 5","organizer":"ГАУК НСО «Новосибирский государственный областной дом народного творчества»"},{"id":6340782,"title":"«Жизнь, ставшая легендой»","description":"Александр Васильевич Суворов – один из         основоположников русского военного искусства, военачальник, участник семи войн,         на счету которого 60 выигранных сражений. Это человек отчаянной храбрости,         гениальный тактик и стратег, мудрый военный наставник, который относился к         солдатам с заботой и отеческой теплотой. Знание и понимание солдатского сердца         нашло наиболее яркое отражение в знаменитой суворовской «Науке побеждать».   Александр Васильевич воспитал целое поколение         талантливых военачальников. Среди них Пётр Иванович Багратион и Михаил         Илларионович Кутузов, которые успешно проявили себя ещё при жизни Суворова.  За свои заслуги Александр Васильевич Суворов был         удостоен десяти высших наград Российской империи и семи иностранных, был         пожалован наградным оружием и громкими титулами.  К юбилею А.В. Суворова будет оформлена выставка –         знакомство, на которой представлены книги, посвящённых выдающемуся русскому         полководцу, генералиссимусу, графу Рымникскому, князю Италийскому, генерал –         фельдмаршалу Священной Римской империи, кавалеру всех российских орденов той         эпохи. Среди книг, представленных на выставке – научно-популярные издания,         исторические энциклопедии, художественная литература. Здесь любознательный         читатель найдёт и биографию Суворова, и его афоризмы, и высказывания, а также         поэтические строки, посвящённые доблести и славе великого полководца.","age":6,"ageCategory":"6+","startDate":"10.11.2025","endDate":"16.11.2025","city":"Юринский район","category":"Выставки","isFree":true,"price":"","image":"https:\/\/all.culture.ru\/uploads\/90d176d759d78bb5c7dccb991c2a67d5.jpg","place":"Быковская сельская библиотека","address":"Респ Марий Эл,р-н Юринский,д Быковка,ул Центральная,д 157","organizer":"МБУК «Межпоселенческая ЦБС» Юринского муниципального района"},{"id":6340783,"title":"Показ фильма «Иллюзия обмана 3»","description":" Джей Дэниел Атлас, временно отделившись от остальных «Всадников», набирает команду из молодых иллюзионистов. Они хотят – похитить «Бриллиантовое сердце» – самое дорогое ювелирное изделие в мире, которое хранится у криминального семейства Вандербергов. Однако вскоре выясняется, что на тот же алмаз положили глаз и бывшие напарники Атласа. Столкнувшись с общим врагом, старому и новому поколению «Всадников» предстоит забыть о разногласиях и объединить силы, чтобы провернуть самый масштабный и опасный фокус в их жизни. ","age":12,"ageCategory":"12+","startDate":"15.11.2025","endDate":"15.11.2025","city":"Брейтовский район","category":"Кино","isFree":false,"price":180,"image":"https:\/\/all.culture.ru\/uploads\/c7a16d6e91222d81b27b03be0db372e4.jpg","place":"Брейтовский районный культурно-досуговый центр","address":"обл Ярославская,р-н Брейтовский,с Брейтово,ул Республиканская,д 23","organizer":"МУК Брейтовский районный КДЦ"},{"id":6340784,"title":"Кино «Освобождение. Прорыв»","description":"Фильм «Освобождение: Прорыв» (1969) повествует о битве за Днепр и наступательной операции советских войск во второй половине 1943 года. В центре сюжета — судьба батальона, сражавшегося на плацдарме.  Фильм «Прорыв» посвящён битве за Днепр и наступательной операции советских войск в 1944 году. В центре фильма — судьба батальона, сражавшегося на плацдарме.  «Освобождение: Прорыв» (1968–1971) — это историческая хроника о самых главных событиях и сражениях Великой Отечественной войны. В картине, наряду с подлинными историческими деятелями, действуют и вымышленные герои.  Фильм «Освобождение: Прорыв» (1970) — вторая часть главной советской эпопеи о Второй мировой войне. В центре сюжета — очередной этап разгрома немецко-фашистских войск советской армией, битва за Днепр.  «Освобождение: Прорыв» (1969) — вторая часть киноэпопеи о битве за Днепр. Ради успеха наступления командование решается на отвлекающий манёвр.     ","age":12,"ageCategory":"12+","startDate":"15.11.2025","endDate":"15.11.2025","city":"Буинск","category":"Кино","isFree":true,"price":"","image":"https:\/\/all.culture.ru\/uploads\/a6fcaa4da50fd65c73e4309b6469f973.jpg","place":"Досуговый центр Буинского района","address":"Респ Татарстан,р-н Буинский,г Буинск,ул Р.Люксембург,д 65","organizer":"МБУ «Досуговый центр» Буинского муниципального района РТ"},{"id":6340785,"title":"«Карамельный вечерок»","description":"Дискотека будет проводиться в зале Рантамакского СДК.     Её проведёт художественный руководитель сельского дома культуры. Этот     музыкально-развлекательный вечер пройдёт для тех, чьё сердце требует действий и     развлечений, жаждет новых открытий и приключений! Танцевальный вечер — это     эмоциональная зарядка, общение, прослушивание музыкальных новинок, воспитание     эстетического вкуса у молодёжи. Хорошая музыка — это разум, воплощённый в     прекрасных звуках! Дискотека как форма досуга занимает важное     место в молодежной культуре.  ","age":12,"ageCategory":"12+","startDate":"15.11.2025","endDate":"15.11.2025","city":"Сармановский район","category":"Прочие","isFree":true,"price":"","image":"https:\/\/all.culture.ru\/uploads\/843805fc65d6f54cc6b3b1936962d6ef.jpg","place":"Рантамакский сельский дом культуры","address":"Респ Татарстан,р-н Сармановский,с Рантамак,ул Вахитова,д 51","organizer":"МБУ Сармановского муниципального района «Централизованная клубная система» (Районный дом культуры)"},{"id":6340786,"title":"Беседа с допризывной молодежью на тему «Служба в рядах вооруженных сил Р.Ф»","description":"  Мы приглашаем вас на открытую беседу, посвященную теме, которая волнует многих – \"Служба в рядах Вооруженных Сил Российской Федерации\".  Приближается важный этап в вашей жизни – время, когда вам предстоит сделать осознанный выбор и определить свой путь.    Это не просто формальное мероприятие, а возможность получить полную и достоверную информацию из первых уст, задать интересующие вас вопросы и развеять возможные сомнения. Мы хотим, чтобы вы подошли к этому важному решению подготовленными, понимая все аспекты воинской службы.","age":16,"ageCategory":"16+","startDate":"20.11.2025","endDate":"20.11.2025","city":"Россошанский район","category":"Встречи","isFree":true,"price":"","image":"https:\/\/all.culture.ru\/uploads\/7ccd7668700c956ccef14aa646d3020f.jpg","place":"Плодово-ягодненский сельский клуб","address":"обл Воронежская,р-н Россошанский,п Опытной плодово-ягодной станции,зд 14а","organizer":"МБУ «Молодежный центр»"},{"id":6340787,"title":"Беседа «Память храня»","description":"В начале прозвучит трогательная песня, которая затронет сердца каждого.Затем, организатор расскажет о значении этого дня , о том , почему важно помнить о тех, чьи имена остались неизвестными , но чьи подвиги навсегда вписаны в историю.Организатор расскажет о мужестве и героизме солдат, о тяжелых испытаниях,которые им пришлось пережить.Далее, ребята смогут услышать рассказы о реальных героях, о тех , кто сражался за свободу и независимость своей страны.Покажем ребятам видеофрагменты, которые помогут лучше понять масштаб трагедии и величие подвига.Обязательно будет минута молчания, чтобы почтить память всех погибших солдат.Сделаем общее фото на память.","age":6,"ageCategory":"6+","startDate":"02.12.2025","endDate":"02.12.2025","city":"Благоварский район","category":"Встречи","isFree":true,"price":"","image":"https:\/\/all.culture.ru\/uploads\/464e61e097b6c2a73612ca8317acc5aa.jpg","place":"Дом культуры с. Агарды","address":"Респ Башкортостан,р-н Благоварский,с Агарды,ул Центральная,д 13А","organizer":"МБУ Районный Дворец культуры МР Благоварский район Республики Башкортостан"},{"id":6340788,"title":"«Жизнь и творчество Александры Пахмутовой»","description":"   Познакомить учащихся с биографией и творчеством композитора А. Н. Пахмутовой. Вызвать интерес к творчеству А.Н. Пахмутовой. Воспитывать музыкальный вкус, культуру.  Сегодня  разговор о замечательном композиторе, чьи песни стали частичкой истории нашей Родины и нашей жизни – Александре Николаевне Пахмутовой.Александра Пахмутова родилась 9 ноября 1929 года, провела счастливые годы в посёлке Бекетовка (сейчас это пригород Волгограда). Ещё совсем недавно там стоял постаревший от времени и пережитого дом, где жила большая и необыкновенно дружная семья Пахмутовых. Даже в трудные времена сюда не пускали скуку. Всегда друзья, музыка. Музыкой окрашены самые сильные впечатления детства Али Пахмутовой.      ","age":6,"ageCategory":"6+","startDate":"15.11.2025","endDate":"15.11.2025","city":"Надтеречный район","category":"Прочие","isFree":true,"price":"","image":"https:\/\/all.culture.ru\/uploads\/723d66d391b87b5da3e121c65ef43433.jpg","place":"Детская школа искусств Надтеречного района","address":"Респ Чеченская,р-н Надтеречный,с Надтеречное,ул. им. Шейха-Каны Хантиева,30","organizer":"МБУ ДО «Детская школа искусств» Надтеречного муниципального района"},{"id":6340790,"title":"«Летучий корабль»","description":"  Мультфильм «Летучий корабль» (1979) рассказывает о любви простого парня и царской дочери, о волшебстве и справедливости. Основой для сюжета послужила одноимённая русская народная сказка. Любовь, которая преодолевает преграды. Иван, несмотря на свою простоту и отсутствие богатства, добивается цели благодаря искренности и верности чувствам.Мечта и свобода. Летучий корабль — символ свободы и надежды на лучшее будущее.Народная мудрость и юмор в песенной форме. Весь мультфильм состоит из песен, в которых персонажи изливают свои души, а такие персонажи, как Водяной, вводят в мультфильм элементы юмора.  ","age":6,"ageCategory":"6+","startDate":"15.11.2025","endDate":"15.11.2025","city":"Буинск","category":"Кино","isFree":true,"price":"","image":"https:\/\/all.culture.ru\/uploads\/4188e1daba379435994d17c4a368eacf.jpg","place":"Досуговый центр Буинского района","address":"Респ Татарстан,р-н Буинский,г Буинск,ул Р.Люксембург,д 65","organizer":"МБУ «Досуговый центр» Буинского муниципального района РТ"},{"id":6340792,"title":"Подвижная игра «Скакалка»","description":"Подвижная игра – одно из важных средств всестороннего воспитания детей. Характерная ее особенность – комплексность воздействия на организм и на все стороны личности ребенка: в игре одновременно осуществляется физическое, умственное, нравственное, эстетическое и трудовое воспитание. В подвижных играх ребенку приходится самому решать, как действовать, чтобы получить результат.Специалисты Коптевского клуба приглашают всех желающих принять участие в подвижных играх. Ребята пополнят знания и представления об окружающем мире, разовьют смекалку и ловкость.","age":6,"ageCategory":"6+","startDate":"13.11.2025","endDate":"13.11.2025","city":"Мышкинский район","category":"Встречи","isFree":true,"price":"","image":"https:\/\/all.culture.ru\/uploads\/19089a29fb3071434c88f38762ac5b01.jpg","place":"Коптевский дом культуры","address":"обл Ярославская,р-н Мышкинский,д Коптево,д 1","organizer":"МУ ММР «Межпоселенческий Дом культуры»"},{"id":6340794,"title":"Концерт ко Дню Матери","description":"В преддверии праздника День Матери, Васильевский клуб приглашает жителей и гостей с. Васильевское на праздничный концерт.  Основная цель концерта – создать праздничную атмосферу, выразить благодарность мамам за их любовь, заботу и труд, а также укрепить семейные ценности.  Вас ждут: выступления творческих коллективов и исполнителей, поздравления, песни, танцы и другие номера, призванные выразить любовь, уважение и благодарность нашим любимым мамам.  Концерт пройдет в теплой, душевной и радостной атмосфере. Мы ждем вас, чтобы разделить этот творческий вечер вместе! ","age":0,"ageCategory":"0+","startDate":"28.11.2025","endDate":"28.11.2025","city":"Великоустюгский район","category":"Концерты","isFree":false,"price":100,"image":"https:\/\/all.culture.ru\/uploads\/f402008388c4d95a64c040654ac48e0e.jpg","place":"Васильевский клуб","address":"обл Вологодская,р-н Великоустюгский,с Васильевское,ул Парковая,д 33","organizer":"МБУК «Центр культурного развития г. Красавино»"}],"total":971,"page":92,"limit":12,"pages":81}