{"events":[{"id":6339396,"title":"Показ фильма «Яга на нашу голову»","description":"Когда у десятилетнего Пети появляется новая воспитательница – странная и ворчливая, но невероятно обаятельная, – он быстро понимает, что она не такая, как все. Она – «няня под прикрытием», а на самом деле – Яга, легендарная волшебница, потерявшая свою ступу и спрятавшаяся среди людей. Теперь только Петя сможет помочь ей вернуть магические силы, а Яга – научить мальчика летать. И не только на ступе, но и по жизни. Режиссером картины является Александр Войтинский («По щучьему велению»). Главные роли исполнили Светлана Ходченкова и Юрий Колокольников.","age":6,"ageCategory":"6+","startDate":"12.11.2025","endDate":"03.12.2025","city":"Хабаровск","category":"Кино","isFree":false,"price":150,"image":"https:\/\/all.culture.ru\/uploads\/99848765da4fa48e734751e09e7377df.jpg","place":"Кинотеатр «Форум»","address":"край Хабаровский,г Хабаровск,ул Карла Маркса,д 91","organizer":"Кино КХВ"},{"id":6339397,"title":"Мастер-класс «Мамочке подарок приготовлю я…»","description":"В России более четверти века отмечают День матери – праздник, наполненный     теплом, любовью и уважением к самому дорогому человеку на земле. Роль матери является фундаментальной для развития личности человека‚     формирования его характера и мировоззрения. Мама – это, тот неповторимый     человек‚ который всегда будет рядом‚ поддерживая‚ любя и вдохновляя на самые     высокие достижения.    В честь такого дня сотрудники библиотеки организовали мероприятие,     которое поможет участникам выразить чувства к маме своими руками. В этом мастер-классе посетители научатся создавать композиции из бисера, путём подбора цвета, размера и вида бусинок.  У каждого человека есть мама и всё первое что делает человек связано с     ней, пусть брошка, сделанная на мероприятие, напоминает маме о ваших чувствах,     а вам самим о самом дорогом человеке!","age":12,"ageCategory":"12+","startDate":"28.11.2025","endDate":"28.11.2025","city":"Усть-Канский район","category":"Обучение","isFree":false,"price":300,"image":"https:\/\/all.culture.ru\/uploads\/a41ee8a8ce849dcc59754ce81fe342c4.jpg","place":"Усть-Канская центральная модельная библиотека им.А.Г. Калкина","address":"Респ Алтай,р-н Усть-Канский,с Усть-Кан,ул Ленинская,зд 93","organizer":"МБУ «Усть-Канская ЦБС»"},{"id":6339398,"title":"Всероссийский день гармонистов","description":"25 ноября в России отмечается День гармониста – праздник, посвящённый одному из самых известных  инструментов, а также в честь профессиональных музыкантов, играющих на нём, и любителей этого многогранного инструмента. Главная цель Дня – сохранение и развитие национального фольклора,  музыкальных традиций, и, в частности, – искусства игры на гармони, а также – воспитание новых поколений гармонистов. Гармонь  – особенный инструмент, со своей историей и давними традициями. Она занимает особое место в народной культуре России, ведь ни одно событие, ни один праздник не обходились без гармошки. Она создавала настроение, проникала в самую душу, вызывала чувства… Не удивительно, что «профессиональный» гармонист был «первым парнем на деревне» во все времена. ","age":12,"ageCategory":"12+","startDate":"22.11.2025","endDate":"22.11.2025","city":"Актанышский район","category":"Прочие","isFree":true,"price":"","image":"https:\/\/all.culture.ru\/uploads\/66d260e21be9bf4cfbfb573ef83965f0.jpg","place":"Такталачукский сельский дом культуры","address":"Респ Татарстан,р-н Актанышский,с Такталачук,ул Г.Авзал,д 50","organizer":"МБУ «ЦКС Актанышского муниципального района»"},{"id":6339399,"title":"Показ фильма «Яга на нашу голову»","description":"Когда у десятилетнего Пети появляется новая воспитательница – странная и ворчливая, но невероятно обаятельная, – он быстро понимает, что она не такая, как все. Она – «няня под прикрытием», а на самом деле – Яга, легендарная волшебница, потерявшая свою ступу и спрятавшаяся среди людей. Теперь только Петя сможет помочь ей вернуть магические силы, а Яга – научить мальчика летать. И не только на ступе, но и по жизни. Режиссером картины является Александр Войтинский («По щучьему велению»). Главные роли исполнили Светлана Ходченкова и Юрий Колокольников.","age":6,"ageCategory":"6+","startDate":"12.11.2025","endDate":"16.11.2025","city":"Краснозерский район","category":"Кино","isFree":false,"price":250,"image":"https:\/\/all.culture.ru\/uploads\/99848765da4fa48e734751e09e7377df.jpg","place":"Краснозерский районный дом культуры","address":"обл Новосибирская,р-н Краснозерский,рп Краснозерское,ул Советская,д 2","organizer":"МКУК Культурно-досуговое объединение Краснозерского района Новосибирской области"},{"id":6339400,"title":"Конкурс-выставка «Маленькие шедевры»","description":"  Организаторы:Управление по культуре и молодёжной политике администрации Ангарского городского округа;МБУДО «Детская школа искусств №4».Срок подачи работ: до 21 ноября 2025 года.Выставка работ: с 28 ноября по 5 декабря 2025 года в фойе ДШИ №4.Кто может участвоватьОбучающиеся детских школ искусств и художественных студий Ангарского городского округа в возрасте от 5 до 10 лет.НоминацииГрафика;Живопись;Декоративно‑прикладное искусство.Что нужно сделатьВыбрать картину известного мастера из коллекции Государственной Третьяковской галереи.Создать работу — представить своё видение выбранного произведения. Допустимы:свободная интерпретация;традиционная копия полотна.Как подать заявкуОтправить оформленную работу и заявку на участие до 21 ноября 2025 года.Подробности оформления указаны в Положении о конкурсе (уточняйте у организаторов или на официальном ресурсе ДШИ №4).Почему стоит участвоватьВозможность проявить творческий потенциал и показать свои способности.Победители получат дипломы и награды в каждой возрастной группе.Работы участников будут представлены на выставке.Контакты и дополнительные сведенияДля уточнения деталей (требования к работам, формат заявки, контакты для отправки) рекомендуем обратиться:в МБУДО «Детская школа искусств №4»  ","age":6,"ageCategory":"6+","startDate":"28.11.2025","endDate":"05.12.2025","city":"Ангарск","category":"Выставки","isFree":true,"price":"","image":"https:\/\/all.culture.ru\/uploads\/fd6555749cba18efdf9e160dd3f34640.jpg","place":"Детская школа искусств № 4 г. Ангарска","address":"обл Иркутская,г Ангарск,мкр 12А,д 14","organizer":"МБУ ДО «ДШИ №4»"},{"id":6339401,"title":"Программа «Как пан конем стал»","description":"Увлекательное мероприятие, которое состоится в рамках знакомства с фольклором Беларуси. Программа включает просмотр анимационного фильма, снятого по мотивам известной белорусской народной сказки. Посетителей мероприятия ждут яркие персонажи, занимательные сюжеты и незабываемые впечатления от погружения в мир традиционной культуры. После просмотра гостей ждет интерактивная викторина, где каждый сможет проверить свои знания о белорусском фольклоре. Мероприятие станет прекрасным поводом познакомиться с богатством белорусских традиций и подарит заряд позитивных эмоций.","age":0,"ageCategory":"0+","startDate":"22.11.2025","endDate":"22.11.2025","city":" Артем","category":"Встречи","isFree":true,"price":"","image":"https:\/\/all.culture.ru\/uploads\/b09d7ac40f110fedf8253dad3f155691.jpg","place":"Библиотека-филиал № 12 с. Суражевка","address":"край Приморский,г Артем,с Суражевка,ул Ярославская,д 52","organizer":"Муниципальное казённое учреждение культуры «Централизованная библиотечная система» Артёмовского городского округа"},{"id":6339403,"title":"Литературная викторина «Где раки зимуют»","description":"17         ноября в школе №24 состоится увлекательная литературная викторина для         первоклассников, посвященной         творчеству замечательного советского писателя Виталия Бианки. Его перу         принадлежат около трехсот произведений, среди которых такие любимые детьми, как         «Где раки зимуют» и «Лесные домишки».Библиотекарь  проведет  для ребят настоящее путешествие в прошлое,         рассказав о жизни и творческом пути Виталия Бианки. Дети узнают, как с самого         детства писатель полюбил лес и его обитателей, как его увлечение природой,         подкрепленное путешествиями с родителями и внимательными наблюдениями, легло в         основу его многочисленных книг. Почти все произведения Бианки – это гимн         природе, раскрывающий ее тайны и красоту. В ходе викторины ребята будут отгадывать         загадки о пернатых друзьях, а также          учится распознавать животных по их следам и даже угадывать лесных         жителей по одному лишь виду их хвостов.","age":6,"ageCategory":"6+","startDate":"17.11.2025","endDate":"17.11.2025","city":"Чунский район","category":"Кино","isFree":true,"price":"","image":"https:\/\/all.culture.ru\/uploads\/84ebd8e497cb7318fc8844d213ca12d0.jpg","place":"Чунская межпоселенческая центральная библиотека","address":"обл Иркутская,р-н Чунский,рп Чунский,ул Ленина,д 54","organizer":"МБУК «Межпоселенческая централизованная библиотечная система Чунского район»"},{"id":6339405,"title":"Кукольный спектакль «Три медведя»","description":"В Бирюльской сельской библиотеке состоится кукольный спектакль «Три медведя». Спектакль основан на сказке Л.Н.Толстого и будет разыгрываться с помощью перчаточных кукол на ширме. Яркая постановка и оригинальные куклы позволят детям полноценно окунуться в историю и получить незабываемые впечатления, которые останутся с ними на всю жизнь! После спектакля, будет проведено обсуждение постановки, расскажут зрителям о важности воспитания, вреде хамства и отсутствия вежливости, научат бережливости и заботливому отношению к тем, кто рядом.","age":0,"ageCategory":"0+","startDate":"27.11.2025","endDate":"27.11.2025","city":"Качугский район","category":"Спектакли","isFree":true,"price":"","image":"https:\/\/all.culture.ru\/uploads\/34f72283a43e8b214cdb127bb34838d2.jpg","place":"Бирюльская сельская библиотека","address":"обл Иркутская,р-н Качугский,с Бирюлька,ул Ленина,д 41","organizer":"МКУК Бирюльский КИК"},{"id":6339406,"title":"Концерт «Юный концертмейстер»","description":"220-летию Александра Львовича Гурилева – замечательного русского композитора, автора многочисленных романсов и песен, посвящен этот концерт. Среди самых известных его произведений романсы: «Домик-крошечка», «Однозвучно гремит колокольчик», «Матушка-голубушка», «И скучно, и грустно», «Как смотрю на него» и песни, которые давно считаются народными: «У ворот девка стоит», «Скоро ли ты, солнышко красное, взойдешь». Романсы и песни исполнит преподаватель вокала Марина Васильевна Лентина.В роли концертмейстеров выступят ученицы старших классов музыкального отделения школы. В программе: Ануфриева Арина, 8 кл. – романс «Домик-крошечка», Кучеренко Ксения, 8 кл. – песня «У ворот девка стоит», Желудкова Василиса, 8 кл. – песня «Скоро ли ты, солнышко красное, взойдешь», Ербягина Евгения, 7 кл. – романс «Как смотрю на него». В концерте выступят и другие юные концертмейстеры. Проведет концерт Белик Елена Михайловна.","age":6,"ageCategory":"6+","startDate":"24.11.2025","endDate":"24.11.2025","city":"Владивосток","category":"Концерты","isFree":true,"price":"","image":"https:\/\/all.culture.ru\/uploads\/8687239652f0975a4cb6ddfd35c6ba06.jpg","place":"Концертный зал детской школы искусств № 4 г. Владивостока","address":"край Приморский,г Владивосток,ул Адмирала Юмашева,д 20А","organizer":"МБУ ДО «Детская школа искусств № 4 г. Владивостока»"},{"id":6339409,"title":"Калейдоскоп полезных советов «Здоровый образ жизни: как противостоять риску»","description":"Здоровый образ жизни играет ключевую роль в поддержании здоровья и долголетия. Он помогает снизить риски развития хронических заболеваний, таких как сердечно-сосудистые болезни, диабет, ожирение и рак. На мероприятии вы получите ценные знания о том, как правильно питаться, поддерживать физическую активность и заботиться о своем ментальном здоровье. Узнаете о главных факторах риска для здоровья, таких как неправильное питание, недостаток физической активности, стресс и вредные привычки, а также о методах их профилактики.Особое внимание будет уделено дополнительным мерам профилактики, таким как регулярные медицинские осмотры, своевременное обращение к специалистам, использование профилактических вакцин и здоровый сон.","age":6,"ageCategory":"6+","startDate":"01.12.2025","endDate":"01.12.2025","city":"Балаганский район","category":"Прочие","isFree":true,"price":"","image":"https:\/\/all.culture.ru\/uploads\/44b62b5df7d582c655fe23ad4dce9b73.jpg","place":"Балаганская центральная детская библиотека","address":"обл Иркутская,р-н Балаганский,п Балаганск,ул Суворова,д 1","organizer":"МБУК «Межпоселенческое объединение библиотек Балаганского района»"},{"id":6339411,"title":"«День рождения Деда Мороза»","description":"  Ждём ребят младшего школьного возраста на добрый и творческий мастер-класс, посвящённый Дню рождения! ❄️ 👧👦 Юные участники узнают, как появился самый главный зимний волшебник, где он живёт и кто помогает ему готовить подарки. А затем своими руками создадут праздничные открытки и сувениры для Деда Мороза, чтобы порадовать его в этот особенный день! 🎁✨ 🌟 Вас ждёт: — увлекательная зимняя история о Дедушке Морозе; — творческая мастерская с поделками; — весёлые игры и сюрпризы. 🎨 Приходите создавать атмосферу волшебства и хорошего настроения вместе!  ","age":0,"ageCategory":"0+","startDate":"21.11.2025","endDate":"21.11.2025","city":"Елизовский район","category":"Прочие","isFree":true,"price":"","image":"https:\/\/all.culture.ru\/uploads\/f42066910361ea02ae5895553273b6ca.png","place":"Дом культуры «Галактика»","address":"край Камчатский,р-н Елизовский,рп Вулканный,ул Центральная,д 27","organizer":"МБУК ДК «Галактика»"},{"id":6339413,"title":"Выставка «Разноцветная планета»","description":"Во многих странах 20 ноября отмечают Всемирный день ребенка. Этот праздник был учрежден еще в 1954 году, он направлен на привлечение внимания к проблемам детей и улучшению уровня их жизни. Забота о детях, внимание к их жизни и развитию – это главный приоритет как для детских школ искусств, так и для целого государства.В этом году ДШИ р.п. Средний организовывает выставку ко дню ребенка. На ней будут представлены работы учащихся ДШИ разных возрастов. Экспозиция продемонстрирует, насколько разнообразен, красочен и уникален взгляд каждого ребенка на этот мир, как по-разному видят дети планету и ее жителей. ","age":0,"ageCategory":"0+","startDate":"17.11.2025","endDate":"22.11.2025","city":"Усольский район","category":"Выставки","isFree":true,"price":"","image":"https:\/\/all.culture.ru\/uploads\/ddcc90842d63b6aee9c378bb1ead2f47.jpg","place":"Детская школа искусств р. п. Средний","address":"обл Иркутская,р-н Усольский,рп Средний,ул ДОС,д 16","organizer":"МБУДО «ДШИ р. п. Средний»"}],"total":975,"page":6,"limit":12,"pages":82}