{"events":[{"id":6339234,"title":"Концертная программа «За всё тебя благодарю».","description":"  День матери – особенный праздник, который напоминает всем о важности ценить и беречь своих мам. Это день, когда  можем выразить благодарность за бессонные ночи, за заботу и переживания, за бесконечную любовь, которую матери дарят своим детям.К этому празднику работники культуры подготовят праздничный концерт. На сцене будут взрослые и дети. В программе поздравления, стихи, песни, танцы, сценки. Также красиво украсим фойе и сцену, оформим выставку рисунков. Мамы примут участие в викторине и все вместе исполнять знакомые песни.","age":6,"ageCategory":"6+","startDate":"29.11.2025","endDate":"29.11.2025","city":"Острогожский район","category":"Концерты","isFree":true,"price":"","image":"https:\/\/all.culture.ru\/uploads\/8f7c0609cc2747c57c3162ffb781c51a.JPG","place":"Криниченский сельский дом культуры","address":"обл Воронежская,р-н Острогожский,с Криница,пер Рабочий,д 1А","organizer":"МКУК «Криниченский сельский культурно-досуговый центр» Острогожского МР"},{"id":6339273,"title":"Программа «О войне стихами говорим»","description":"Мероприятие, посвященное 80-летию Победы в Великой Отечественной войне, проводится для жителей села Небылое. В программу войдут поэтические и музыкальные номера в исполнении участников художественной самодеятельности народного коллектива «Дубравушка» – Николая и Светланы Зайцевых: «Мой милый, если б не было войны», «Горит свечи огарочек», «Шумит под ветром Ладога», «Казаки», «На безымянной высоте», «Шел солдат», «Волховская застольная», «У деревни Крюкова», «Жди солдата», «Вдовы России», «К маме».","age":12,"ageCategory":"12+","startDate":"15.11.2025","endDate":"15.11.2025","city":"Юрьев-Польский район","category":"Концерты","isFree":true,"price":"","image":"https:\/\/all.culture.ru\/uploads\/744f018b637c90f57a1989d3324cb151.JPG","place":"Небыловский сельский дом культуры","address":"обл Владимирская,р-н Юрьев-Польский,с Небылое,ул Первомайская,д 21","organizer":"МБУК «Шихобаловский СДК»"},{"id":6339339,"title":"Праздничный концерт ко Дню матери","description":"Ко Дню матери пройдет праздничный концерт.  Особенное мероприятие будет подготовлено специально для тех, кто дарит заботу, поддержку и вдохновение ежедневно - любимых мам. Гостей ждет приятная атмосфера семейного праздника, теплый прием и море положительных эмоций. Тем самым хотим выразить свою благодарность самым дорогим людям - мамам, ведь именно благодаря их терпению, мудрости и доброте жизнь становится ярче и счастливее. В программе концерта стихи и песни о маме на родном языке, танцы в исполнении детей, выставка детских рисунков. ","age":6,"ageCategory":"6+","startDate":"22.11.2025","endDate":"22.11.2025","city":"Закаменский район","category":"Концерты","isFree":true,"price":"","image":"https:\/\/all.culture.ru\/uploads\/73e8d078bd43e9e20f8d78af67ae9701.jpg","place":"Cанагинский дворец культуры","address":"Респ Бурятия,р-н Закаменский,у Санага,ул Советская,зд 13","organizer":"АУ «Санагинский Дворец культуры»"},{"id":6339350,"title":"Концерт «Мы подарим маме»","description":"В программе мероприятия – музыкальные и вокальные номера, подготовленные талантливыми детьми различных возрастов. Зрителей ожидает теплая атмосфера, наполненная искренними эмоциями и творческим вдохновением. Каждый номер станет настоящим даром, способным тронуть сердце и выразить безмерную благодарность мамам за их любовь и заботу.Во время концерта прозвучат как классические произведения, так и современные композиции, что придаст событию разнообразие и динамику. Посещение мероприятия позволит окунуться в мир детского творчества, увидеть результаты упорного труда юных музыкантов и проникнуться атмосферой.Это событие станет превосходным поводом провести время вместе, насладиться живым искусством и подарить мамам незабываемые эмоции.","age":6,"ageCategory":"6+","startDate":"27.11.2025","endDate":"27.11.2025","city":"Кавалеровский район","category":"Концерты","isFree":true,"price":"","image":"https:\/\/all.culture.ru\/uploads\/2f0b8c64dd3ebe7979421601a78e894c.jpg","place":"Детская школа искусств п. Кавалерово","address":"край Приморский,р-н Кавалеровский,пгт Кавалерово,ул Подгорная,д 19","organizer":"МБУДО «Детская школа искусств» Кавалеровского муниципального округа"},{"id":6339385,"title":"Концерт «Герои и судьбы»","description":"Вашему вниманию представят итоговый экзамен по композиции и     постановке танца студентов четвертого курса Иркутского областного колледжа     культуры по специальности народное художественное творчество (по виду)     Хореографическое творчество.  В программе - четыре хореографические сюиты, вдохновлённые     судьбами выдающихся личностей, литературными образами и волшебными сказками:  «Клетка творца» - драматический портрет гениального     танцовщика Вацлава Нижинского, чья свобода была заперта в стенах безумия;    «Алиса в Стране чудес» - причудливое путешествие через     зеркало реальности, где логика танцует с абсурдом;    «Чучело» - пронзительная хореографическая притча о доброте,     предательстве и силе детской души по повести Владимира Железникова;    «Восточная сказка о любви» - яркая, страстная и поэтичная     фантазия по мотивам легендарного «Аладдина».  Все танцевальные сюиты представлены в разных направлениях.  Это не просто экзамен - это спектакль, в котором студенты     раскрывают себя как зрелые хореографы, способные не только двигаться, но и     рассказывать истории, трогающие сердце.   ","age":6,"ageCategory":"6+","startDate":"16.12.2025","endDate":"16.12.2025","city":"Иркутск","category":"Концерты","isFree":false,"price":250,"image":"https:\/\/all.culture.ru\/uploads\/6ab0c92c4141576732d8248eeb4b5905.jpg","place":"Иркутский областной колледж культуры","address":"обл Иркутская,г Иркутск,ул Некрасова,д 2","organizer":"ГБПОУ «Иркутский областной колледж культуры»"},{"id":6339387,"title":"«Поговори со мною, мама…»","description":"  21 ноября в реабилитационном зале КГБУК \"Хабаровской Краевой специализированной библиотеки для слепых\" состоится душевный и трогательный концерт, посвященный Дню матери.    Вас ждет теплая атмосфера и выступления членов Местной организации Всероссийского общества слепых. Талантливые участники подарят зрителям прекрасные вокальные номера и проникновенную декламацию поэзии. Не пропустите возможность провести этот день в кругу друзей и близких, наслаждаясь искусством и выражая свою любовь и благодарность самым дорогим людям – мамам!  ","age":6,"ageCategory":"6+","startDate":"21.11.2025","endDate":"21.11.2025","city":"Хабаровск","category":"Концерты","isFree":true,"price":"","image":"https:\/\/all.culture.ru\/uploads\/23dec382dab8dd8b519d3bdf8bda38c2.JPG","place":"Хабаровская краевая библиотека для слепых","address":"край Хабаровский,г Хабаровск,ул Ленина,д 11","organizer":"КГБУК «Хабаровская краевая специализированная библиотека для слепых»"},{"id":6339406,"title":"Концерт «Юный концертмейстер»","description":"220-летию Александра Львовича Гурилева – замечательного русского композитора, автора многочисленных романсов и песен, посвящен этот концерт. Среди самых известных его произведений романсы: «Домик-крошечка», «Однозвучно гремит колокольчик», «Матушка-голубушка», «И скучно, и грустно», «Как смотрю на него» и песни, которые давно считаются народными: «У ворот девка стоит», «Скоро ли ты, солнышко красное, взойдешь». Романсы и песни исполнит преподаватель вокала Марина Васильевна Лентина.В роли концертмейстеров выступят ученицы старших классов музыкального отделения школы. В программе: Ануфриева Арина, 8 кл. – романс «Домик-крошечка», Кучеренко Ксения, 8 кл. – песня «У ворот девка стоит», Желудкова Василиса, 8 кл. – песня «Скоро ли ты, солнышко красное, взойдешь», Ербягина Евгения, 7 кл. – романс «Как смотрю на него». В концерте выступят и другие юные концертмейстеры. Проведет концерт Белик Елена Михайловна.","age":6,"ageCategory":"6+","startDate":"24.11.2025","endDate":"24.11.2025","city":"Владивосток","category":"Концерты","isFree":true,"price":"","image":"https:\/\/all.culture.ru\/uploads\/8687239652f0975a4cb6ddfd35c6ba06.jpg","place":"Концертный зал детской школы искусств № 4 г. Владивостока","address":"край Приморский,г Владивосток,ул Адмирала Юмашева,д 20А","organizer":"МБУ ДО «Детская школа искусств № 4 г. Владивостока»"},{"id":6339528,"title":"Станислав Корчагин, Леонид Железный, Василий Степанов, Энджел Вонг","description":"Приглашаем вас на просмотр записи Всероссийского         виртуального концертного зала, который состоится в субботу, 15 ноября 2025 года         в 14:00.  Концерт в исполнении         Государственного академического симфонического оркестра России имени Е. Ф.         Светланова под управлением Антона Торбеева обещает стать знаковым событием для         почитателей академической сцены. Программа вечера объединяет сразу несколько ярких         исполнителей и знаковых сочинений, создавая мощное эмоциональное и         стилистическое полотно.   Станислав Корчагин,         Энджел Вонг, Леонид Железный и Василий Степанов — музыканты, чья техническая         безупречность сочетается с глубокой музыкальностью. В сопровождении оркестра         прозвучит фантастическая «Скиталец»-фантазия Ференца Листа по мотивам         произведения Шуберта — произведение редкой симфонической яркости и виртуозной         динамики, в котором фортепиано словно ведёт рассказ о странствиях души.   Далее слушателей ждёт редкое         исполнение скрипичного концерта Роберта Шумана, написанного в последние годы         его жизни. Это произведение нечасто звучит в концертных залах, однако в руках         Леонида Железного оно раскрывается по-новому — эмоционально, насыщенно, с         оттенком трагического романтизма.   Особое внимание в         программе уделено Камилю Сен-Сансу, 190-летие которого отмечается в этом году.         Прозвучат сразу два концерта — для фортепиано и для виолончели, в исполнении         Энджел Вонг и Василия Степанова соответственно. Эти произведения подчеркнут как         мощь сольного начала, так и филигранную работу оркестра с солистом.                В ПРОГРАММЕ:  Станислав                 Корчагин — фортепиано  Леонид                 Железный — скрипка  Василий                 Степанов — виолончель  Энджел                 Вонг — фортепиано  Антон                 Торбеев — дирижер     1 час 56 минут  При посещении Всероссийского виртуального концертного зала предусмотрен бесплатный         просмотр действующих выставок:  ·                    выставка «Династия семьи Орловых»;  Дополнительную информацию вы         можете получить по телефону: 8 (39151) 7-54-68. Ждём вас по адресу: г. Ачинск,         микрорайон 8, дом 3, филиал «Ачинский музейно-выставочный центр».","age":12,"ageCategory":"12+","startDate":"15.11.2025","endDate":"15.11.2025","city":"Ачинск","category":"Концерты","isFree":true,"price":"","image":"https:\/\/all.culture.ru\/uploads\/e3e65aae691ffc53aac75294ae5b5564.jpg","place":"Ачинский музейно-выставочный центр","address":"край Красноярский,г Ачинск,8 мкрн,д 3","organizer":"Ачинский краеведческий музей имени Д.С. Каргаполова"},{"id":6339540,"title":"Театрализованный концерт «Потерянный Новый год»","description":"Новый  год – самая яркая и долгожданная пора, которая приносит с собой  волшебство и чудеса, дарит подлинное ощущение счастья и веселья. Для  любителей необыкновенных приключений будет организовано увлекательное  театрализованное музыкальное представление – зрителей ждут красочные  декорации, танцевальные и вокальные номера, невероятные костюмы, яркие  персонажи и захватывающие приключения.Сюжет классической сказки  практически не претерпел изменений: будут тут и злая Королева, и  дремучий Леший, пакостная Кикимора и, конечно же, главная героиня  Василиса Премудрая. Вместе с Дедушкой Морозом и Снегурочкой они наведут  порядок в запутанной новогодней истории.Запоминающийся праздник и  неожиданное завершение таинственных событий в канун Нового года  представит фольклорный ансамбль «Непоседы», хореографические коллективы  «Веснушки» и «Вдохновение» и преподаватели школы. Этот спектакль полон  юмора и волшебства. Он обязательно понравится как детям, так и взрослым.","age":6,"ageCategory":"6+","startDate":"24.12.2025","endDate":"24.12.2025","city":"Мариинский район","category":"Концерты","isFree":false,"price":200,"image":"https:\/\/all.culture.ru\/uploads\/046c6aa3228eacf38432e388c147503a.jpg","place":"Детская музыкальная школа № 80 с. Суслово","address":"обл Кемеровская область - Кузбасс,р-н Мариинский,с Суслово,ул Стройка,зд 12","organizer":"МБУ ДО «ДМШ № 80»"},{"id":6339550,"title":"Концерт «Говорите мамам нежные слова»","description":"  Дорогие друзья! Приглашаем вас окунуться в тёплую атмосферу любви и благодарности на музыкальном концерте «Говорите мамам нежные слова».🎶 Что ожидает зрителей: трогательная концертная программа, исполненная профессиональными артистами и талантливыми коллективами района. Музыкальные номера, проникнутые теплотой и уважением к самым близким людям — матерям.    Это отличный повод выразить благодарность своим родным и близким женщинам, вспомнить приятные моменты и насладиться душевной музыкой. Вход свободный!Ждем вас на прекрасном празднике добра и тепла!","age":6,"ageCategory":"6+","startDate":"30.11.2025","endDate":"30.11.2025","city":"Куйтунский район","category":"Концерты","isFree":true,"price":"","image":"https:\/\/all.culture.ru\/uploads\/5c574aa09240309e7eda07d86ad25041.png","place":"Большекашелакский социально-культурный центр","address":"обл Иркутская,р-н Куйтунский,с Большой Кашелак,ул Молодежная,д 2","organizer":"МКУК БСКЦ"},{"id":6339566,"title":"Концерт студии «Динамика»","description":"Окунитесь в мир музыки!Для всех ценителей прекрасного состоится концерт студии музыкального развития «Динамика»!Вас ждёт незабываемое музыкальное путешествие, наполненное волшебством голоса, чарующими мелодиями и искренними эмоциями. Воспитанники студии подготовили душевную программу, включающую лучшие произведения – от романсов до современных хитов, которые можно не только послушать, но и исполнить вместе с артистами! Приходите насладиться искусством живого исполнения и зарядиться позитивной энергией!Не упустите шанс стать частью музыкального события! ","age":6,"ageCategory":"6+","startDate":"22.11.2025","endDate":"22.11.2025","city":"Каменск-Уральский","category":"Концерты","isFree":false,"price":150,"image":"https:\/\/all.culture.ru\/uploads\/0b15a95eb43fec7831ca1febb0deebcd.jpg","place":"Детский культурный центр г. Каменска-Уральского","address":"обл Свердловская,г Каменск-Уральский,ул Каменская,д 33","organizer":"МАУК «Детский культурный центр города Каменска-Уральского»"},{"id":6339606,"title":"Праздничный концерт «Свет Рождественской звезды»","description":" Старый Новый год – один из самых любимых семейных праздников россиян. Он словно дает второй шанс сделать то, что не успели воплотить в новогоднюю ночь: загадать желание под бой курантов, прогуляться по новогодним локациям, посмотреть любимое кино или мультфильм с близкими людьми. Этот праздник позволяет вспомнить народные обряды и традиции.Гости концертной программы узнают о традиции отмечать Старый новый год. Ведущие расскажут о святочных гаданиях и колядках. Будут веселые поздравления, интересные игры, конкурсы, предсказания. Не обойдется и без новогодних песен в исполнении фольклорного ансамбля «Непоседы» и преподавателей на музыкальных инструментах Теплая атмосфера мероприятия станет прекрасным завершением новогодних праздников и оставит приятные воспоминания до следующего Нового года.","age":6,"ageCategory":"6+","startDate":"14.01.2026","endDate":"14.01.2026","city":"Мариинский район","category":"Концерты","isFree":false,"price":200,"image":"https:\/\/all.culture.ru\/uploads\/ddafdbea3ccea21f3dfb981091c6705a.jpg","place":"Детская музыкальная школа № 80 с. Суслово","address":"обл Кемеровская область - Кузбасс,р-н Мариинский,с Суслово,ул Стройка,зд 12","organizer":"МБУ ДО «ДМШ № 80»"}],"total":39,"page":1,"limit":12,"pages":4}