{"events":[{"id":6339242,"title":"Показ фильма «Яга на нашу голову»","description":"Когда у десятилетнего Пети появляется новая воспитательница – странная и ворчливая, но невероятно обаятельная, – он быстро понимает, что она не такая, как все. Она – «няня под прикрытием», а на самом деле – Яга, легендарная волшебница, потерявшая свою ступу и спрятавшаяся среди людей. Теперь только Петя сможет помочь ей вернуть магические силы, а Яга – научить мальчика летать. И не только на ступе, но и по жизни. Режиссером картины является Александр Войтинский («По щучьему велению»). Главные роли исполнили Светлана Ходченкова и Юрий Колокольников.","age":6,"ageCategory":"6+","startDate":"12.11.2025","endDate":"19.11.2025","city":"Рассказово","category":"Кино","isFree":false,"price":300,"image":"https:\/\/all.culture.ru\/uploads\/99848765da4fa48e734751e09e7377df.jpg","place":"Киноконцертный зал «Смена» г. Рассказово","address":"обл Тамбовская,г Рассказово,ул Куйбышева,д 12","organizer":"МБУ «Культурно-досуговое объединение»"},{"id":6339275,"title":"Исторический час «Подвиг 28 панфиловцев»","description":" Просмотр художественного фильма о подвиге 28 панфиловцев. Фильм «28 панфиловцев» рассказывает о героизме советских солдат в годы Великой Отечественной войны. Через просмотр фильма учащихся получат представление о реальных героях, которые сражались за свободу своей страны. Они узнают о трудностях, с которыми сталкивались солдаты, и о том, как важно было сохранить дух и веру в победу даже в самые тяжелые времена. это способствует формированию чувства гордости за свою страну и желание защищать ее ценности.","age":12,"ageCategory":"12+","startDate":"15.11.2025","endDate":"15.11.2025","city":"Тунгиро-Олекминский район","category":"Кино","isFree":true,"price":"","image":"https:\/\/all.culture.ru\/uploads\/88bdae2840e5c35fa2c2e045be820f92.jfif","place":"Районная центральная библиотека с. Тупик","address":"край Забайкальский,р-н Тунгиро-Олекминский,с Тупик,ул Нагорная,д 20Б","organizer":"МБУК «Районная центральная библиотека» МР «Тунгиро-Олекминского район»"},{"id":6339278,"title":"Показ фильма «Наш папа – Дед Мороз!»","description":" Федор – несостоявшийся актер, он пытается помочь своему младшему брату Никите снова научиться ходить. В костюме Деда Мороза Федор выезжает на заказы, надеясь собрать за праздники деньги на операцию. Он – самый грустный Дед Мороз на свете, потому что ко всем прочим неприятностям как раз перед Новым годом его бросила любимая девушка. И вот 31 декабря он звонит в очередную дверь очередной квартиры, чтобы подарить подарки от родителей очередной паре детишек. И тут начинается самое настоящее новогоднее волшебство. ","age":12,"ageCategory":"12+","startDate":"09.11.2025","endDate":"12.11.2025","city":"Владивосток","category":"Кино","isFree":false,"price":100,"image":"https:\/\/all.culture.ru\/uploads\/0c44e92d22772bba159be00ac537e401.png","place":"Кинотеатр «Черемушки»","address":"край Приморский,г Владивосток,ул Черемуховая,д 15","organizer":"ООО «Центр-Уссури»"},{"id":6339281,"title":"Показ фильма «Яга на нашу голову»","description":"Когда у десятилетнего Пети появляется новая воспитательница – странная и ворчливая, но невероятно обаятельная, – он быстро понимает, что она не такая, как все. Она – «няня под прикрытием», а на самом деле – Яга, легендарная волшебница, потерявшая свою ступу и спрятавшаяся среди людей. Теперь только Петя сможет помочь ей вернуть магические силы, а Яга – научить мальчика летать. И не только на ступе, но и по жизни. Режиссером картины является Александр Войтинский («По щучьему велению»). Главные роли исполнили Светлана Ходченкова и Юрий Колокольников.","age":6,"ageCategory":"6+","startDate":"12.11.2025","endDate":"03.12.2025","city":"Хабаровск","category":"Кино","isFree":false,"price":250,"image":"https:\/\/all.culture.ru\/uploads\/99848765da4fa48e734751e09e7377df.jpg","place":"Кинотеатр «Фабрика грез»","address":"край Хабаровский,г Хабаровск,ул Ким Ю Чена,д 44","organizer":"ООО «Фабрика Грёз ДВ»"},{"id":6339294,"title":"Показ фильма «Яга на нашу голову»","description":"Когда у десятилетнего Пети появляется новая воспитательница – странная и ворчливая, но невероятно обаятельная, – он быстро понимает, что она не такая, как все. Она – «няня под прикрытием», а на самом деле – Яга, легендарная волшебница, потерявшая свою ступу и спрятавшаяся среди людей. Теперь только Петя сможет помочь ей вернуть магические силы, а Яга – научить мальчика летать. И не только на ступе, но и по жизни. Режиссером картины является Александр Войтинский («По щучьему велению»). Главные роли исполнили Светлана Ходченкова и Юрий Колокольников.","age":6,"ageCategory":"6+","startDate":"12.11.2025","endDate":"23.11.2025","city":"Невельск","category":"Кино","isFree":false,"price":250,"image":"https:\/\/all.culture.ru\/uploads\/99848765da4fa48e734751e09e7377df.jpg","place":"Районный дом культуры им. Г. И. Невельского","address":"обл Сахалинская,р-н Невельский,г Невельск,ул Ленина,д 54А","organizer":"МБУК «РДК им. Г. И. Невельского»"},{"id":6339297,"title":"Показ фильма «Яга на нашу голову»","description":"Когда у десятилетнего Пети появляется новая воспитательница – странная и ворчливая, но невероятно обаятельная, – он быстро понимает, что она не такая, как все. Она – «няня под прикрытием», а на самом деле – Яга, легендарная волшебница, потерявшая свою ступу и спрятавшаяся среди людей. Теперь только Петя сможет помочь ей вернуть магические силы, а Яга – научить мальчика летать. И не только на ступе, но и по жизни. Режиссером картины является Александр Войтинский («По щучьему велению»). Главные роли исполнили Светлана Ходченкова и Юрий Колокольников.","age":6,"ageCategory":"6+","startDate":"12.11.2025","endDate":"26.11.2025","city":"Анадырь","category":"Кино","isFree":false,"price":350,"image":"https:\/\/all.culture.ru\/uploads\/99848765da4fa48e734751e09e7377df.jpg","place":"Кинотеатр «Полярный»","address":"АО Чукотский,г Анадырь,ул Отке,зд 15","organizer":"АУ Чукотского автономного округа по киновидеопрокату и кинообслуживанию населения «Окркиновидеопрокат»"},{"id":6339344,"title":"Показ фильма «Наш папа – Дед Мороз!»","description":" Федор – несостоявшийся актер, он пытается помочь своему младшему брату Никите снова научиться ходить. В костюме Деда Мороза Федор выезжает на заказы, надеясь собрать за праздники деньги на операцию. Он – самый грустный Дед Мороз на свете, потому что ко всем прочим неприятностям как раз перед Новым годом его бросила любимая девушка. И вот 31 декабря он звонит в очередную дверь очередной квартиры, чтобы подарить подарки от родителей очередной паре детишек. И тут начинается самое настоящее новогоднее волшебство. ","age":12,"ageCategory":"12+","startDate":"09.11.2025","endDate":"19.11.2025","city":"Ижморский район","category":"Кино","isFree":false,"price":150,"image":"https:\/\/all.culture.ru\/uploads\/0c44e92d22772bba159be00ac537e401.png","place":"Ижморский дом культуры","address":"обл Кемеровская область - Кузбасс,р-н Ижморский,пгт Ижморский,ул Ленинская,д 84","organizer":"МУК «Ижморская ЦКС»"},{"id":6339347,"title":"Показ фильма «Яга на нашу голову»","description":"Когда у десятилетнего Пети появляется новая воспитательница – странная и ворчливая, но невероятно обаятельная, – он быстро понимает, что она не такая, как все. Она – «няня под прикрытием», а на самом деле – Яга, легендарная волшебница, потерявшая свою ступу и спрятавшаяся среди людей. Теперь только Петя сможет помочь ей вернуть магические силы, а Яга – научить мальчика летать. И не только на ступе, но и по жизни. Режиссером картины является Александр Войтинский («По щучьему велению»). Главные роли исполнили Светлана Ходченкова и Юрий Колокольников.","age":6,"ageCategory":"6+","startDate":"12.11.2025","endDate":"03.12.2025","city":"Ижморский район","category":"Кино","isFree":false,"price":150,"image":"https:\/\/all.culture.ru\/uploads\/99848765da4fa48e734751e09e7377df.jpg","place":"Ижморский дом культуры","address":"обл Кемеровская область - Кузбасс,р-н Ижморский,пгт Ижморский,ул Ленинская,д 84","organizer":"МУК «Ижморская ЦКС»"},{"id":6339355,"title":"Показ фильма «Яга на нашу голову»","description":"Когда у десятилетнего Пети появляется новая воспитательница – странная и ворчливая, но невероятно обаятельная, – он быстро понимает, что она не такая, как все. Она – «няня под прикрытием», а на самом деле – Яга, легендарная волшебница, потерявшая свою ступу и спрятавшаяся среди людей. Теперь только Петя сможет помочь ей вернуть магические силы, а Яга – научить мальчика летать. И не только на ступе, но и по жизни. Режиссером картины является Александр Войтинский («По щучьему велению»). Главные роли исполнили Светлана Ходченкова и Юрий Колокольников.","age":6,"ageCategory":"6+","startDate":"12.11.2025","endDate":"03.12.2025","city":"Осинники","category":"Кино","isFree":false,"price":300,"image":"https:\/\/all.culture.ru\/uploads\/99848765da4fa48e734751e09e7377df.jpg","place":"Дворец культуры «Октябрь» г. Осинники","address":"обл Кемеровская,г Осинники,ул Ленина,д 123","organizer":"МБУК Дворец культуры «Октябрь»"},{"id":6339368,"title":"Показ фильма «Яга на нашу голову»","description":"Когда у десятилетнего Пети появляется новая воспитательница – странная и ворчливая, но невероятно обаятельная, – он быстро понимает, что она не такая, как все. Она – «няня под прикрытием», а на самом деле – Яга, легендарная волшебница, потерявшая свою ступу и спрятавшаяся среди людей. Теперь только Петя сможет помочь ей вернуть магические силы, а Яга – научить мальчика летать. И не только на ступе, но и по жизни. Режиссером картины является Александр Войтинский («По щучьему велению»). Главные роли исполнили Светлана Ходченкова и Юрий Колокольников.","age":6,"ageCategory":"6+","startDate":"12.11.2025","endDate":"26.11.2025","city":"Константиновский район","category":"Кино","isFree":false,"price":150,"image":"https:\/\/all.culture.ru\/uploads\/99848765da4fa48e734751e09e7377df.jpg","place":"Кинозал Амурского областного дома народного творчества с. Константиновка","address":"обл Амурская,р-н Константиновский,с Константиновка,ул Ленина,зд 84","organizer":"ГАУКАО «Амурский областной Дом народного творчества»"},{"id":6339373,"title":"Показ фильма «Яга на нашу голову»","description":"Когда у десятилетнего Пети появляется новая воспитательница – странная и ворчливая, но невероятно обаятельная, – он быстро понимает, что она не такая, как все. Она – «няня под прикрытием», а на самом деле – Яга, легендарная волшебница, потерявшая свою ступу и спрятавшаяся среди людей. Теперь только Петя сможет помочь ей вернуть магические силы, а Яга – научить мальчика летать. И не только на ступе, но и по жизни. Режиссером картины является Александр Войтинский («По щучьему велению»). Главные роли исполнили Светлана Ходченкова и Юрий Колокольников.","age":6,"ageCategory":"6+","startDate":"12.11.2025","endDate":"26.11.2025","city":"Карасукский район","category":"Кино","isFree":false,"price":120,"image":"https:\/\/all.culture.ru\/uploads\/99848765da4fa48e734751e09e7377df.jpg","place":"Киноконцертный зал «Космос»","address":"обл Новосибирская,р-н Карасукский,г Карасук,ул Октябрьская,д 8","organizer":"МБУК Карасукского района"},{"id":6339390,"title":"Показ фильма «Наш папа – Дед Мороз!»","description":" Федор – несостоявшийся актер, он пытается помочь своему младшему брату Никите снова научиться ходить. В костюме Деда Мороза Федор выезжает на заказы, надеясь собрать за праздники деньги на операцию. Он – самый грустный Дед Мороз на свете, потому что ко всем прочим неприятностям как раз перед Новым годом его бросила любимая девушка. И вот 31 декабря он звонит в очередную дверь очередной квартиры, чтобы подарить подарки от родителей очередной паре детишек. И тут начинается самое настоящее новогоднее волшебство. ","age":12,"ageCategory":"12+","startDate":"09.11.2025","endDate":"19.11.2025","city":"Крапивинский район","category":"Кино","isFree":false,"price":80,"image":"https:\/\/all.culture.ru\/uploads\/0c44e92d22772bba159be00ac537e401.png","place":"Крапивинский дом культуры","address":"обл Кемеровская,р-н Крапивинский,пгт Крапивинский,ул Юбилейная,д 17","organizer":"МБУК «Клубная система Крапивинского района»"}],"total":99,"page":1,"limit":12,"pages":9}