{"events":[{"id":6339330,"title":"Лекция «Дело декабристов»","description":"Слушатели узнают о движении представителей дворянского сословия, основанных ими обществах, целях и задачах, а также о крупнейшем политическом выступлении дворян в декабре 1825 года. Крупнейшим политическим выступлением дворянского сословия стало восстание декабристов на Сенатской площади 1825 года. Его главной целью было свержение самодержавия, отмена крепостного строя, принятие Конституции и введение представительного правления. Лекция сопровождается визуальными материалами – фотографиями и картами, что делает ее более наглядной и увлекательной.Принимаются заявки от организованных групп в составе не менее 10 человек по телефонам: +7 (4242) 49-57-17, +7 (4242) 49-57-28, +7 (4242) 49-57-04.","age":12,"ageCategory":"12+","startDate":"25.12.2025","endDate":"25.12.2025","city":"Южно-Сахалинск","category":"Обучение","isFree":false,"price":300,"image":"https:\/\/all.culture.ru\/uploads\/a7b28123692af2ae40cdcaf825cb5782.jpg","place":"Исторический парк «Россия – моя история» г. Южно-Сахалинска","address":"обл Сахалинская,г Южно-Сахалинск,ул Священномученика Илариона Троицкого,д 4","organizer":"ГБУК СО «Музейно-мемориальный комплекс «Победа»"},{"id":6339331,"title":"Зажжение новогодней ёлки в сквере цирка в рамках фестиваля «Зима начинается с Якутии»","description":"Дорогие         жители и гости Якутска!  Государственный         цирк РС(Я) имени Марфы и Сергея Расторгуевых приглашает вас 1 декабря в 16:55ч.         в сквер цирка на традиционное Зажжение Новогодней ёлки в рамках Фестиваля «Зима         начинается с Якутии»!  Вас ждёт настоящая         зимняя сказка:   ·                   Самые тёплые поздравления от Дедушки         Мороза и Снегурочки;  ·                   Очаровательные северные маламут и хаски         в упряжках;  ·                   Праздничный хоровод и море веселья с         самой задорной ведущей—  Ириской!  Приходите         и подарите себе самое волшебное предновогоднее настроение!  С         нетерпением ждём вас, чтобы вместе дать начало самой волшебной поре года!","age":0,"ageCategory":"0+","startDate":"01.12.2025","endDate":"01.12.2025","city":"Якутск","category":"Праздники","isFree":true,"price":"","image":"https:\/\/all.culture.ru\/uploads\/56d7c52097862db0f5f02bcbc102f5ef.jpeg","place":"Государственный цирк Республики Саха (Якутия)","address":"Респ Саха \/Якутия\/,г Якутск,ул Пояркова,д 22","organizer":"АУ «Государственный цирк РС(Я)»"},{"id":6339332,"title":"«Знать должны и взрослые и дети о правах, что защищают всех на свете!»","description":"  В Центральной детской библиотеке пройдет увлекательный разговор о правах ребенка. Наша цель – в доступной и интересной форме объяснить детям, что они находятся под защитой закона, научить их основам безопасности и уверенности в себе.В программе мероприятия:Познавательная беседа о главных правах каждого ребенка.Интерактивные игры и задания на смекалку.Обсуждение, как правильно поступать в сложных ситуациях.Ответы на вопросы: почему важно знать закон и что значит быть защищенным.Мы поможем вашим детям открыть для себя мир их прав и свобод!  ","age":12,"ageCategory":"12+","startDate":"20.11.2025","endDate":"20.11.2025","city":"Мамско-Чуйский район","category":"Встречи","isFree":true,"price":"","image":"https:\/\/all.culture.ru\/uploads\/f16440a4828e9765eddf4d27b5719e78.jpg","place":"Мамско-Чуйская центральная районная библиотека","address":"обл Иркутская,р-н Мамско-Чуйский,рп Мама,ул Володарского,д 21","organizer":"МКУК «ЦБС Мамско-Чуйского района - ЦРБ»"},{"id":6339333,"title":"Клуб выходного дня 16 ноября","description":"Добро  пожаловать в клуб выходного дня!  16 ноября в 11:00 в зале «Кроха» для самых маленьких читателей от         полутора до трёх лет, пройдет игровое занятие «Домашние         животные» в клубе «Кроха литературная» вместе с библиотекарем Ксенией         Федосеенко. Телефон для записи 8(4132) 62-31-88.  В             13:00 в зале «Клёпа» для детей от 4 лет пройдёт мастер-класс         по изготовлению поделки «Пластилиновое чудо: лепим котёнка» с библиотекарем Анной         Червоной. Предварительная запись 8(4132)62-07-22.   В             12:00 в зале «Абонемент» для детей от 12 лет пройдут         громкие чтения эвенской сказки «Кутх в стране Эскимосии» в Клубе «КниГав» с         библиотекарем Оксаной Бибиковой. (Работа с детьми с ОВЗ)  В 13:00 в зале «Подросток» пройдет мастер-класс для детей от 12 лет по изготовлению         поделки в технике декупаж «Подарок с душой», вместе с библиотекарем Натальей         Сабанеевой. Мероприятие платное – 350р. Телефон для записи 89148517662.  В             14:00 в зале «Абонемент» можно поиграть в настольные игры в         клубе «Фишка». Он работает для детей от 12 лет. А также посмотреть мультфильм в         «Киноклубе».  С             10:00-17:00 на первом этаже вас ждёт «Игротека» -         уникальное пространство с развивающими играми для всей семьи. Вход платный -         100 рублей. Телефон для записи 8(4132)62-07-22. Возрастное ограничение 6+.         Перерыв с 14:00-15:00.    Мероприятия бесплатные и адаптированы         для лиц с особыми образовательными потребностями, в том числе для лиц с         инвалидностью.                       ","age":0,"ageCategory":"0+","startDate":"15.11.2025","endDate":"16.11.2025","city":"Магадан","category":"Встречи","isFree":true,"price":"","image":"https:\/\/all.culture.ru\/uploads\/019f5660c71ec3a200fca1c9493c57e3.png","place":"Магаданская областная детская библиотека","address":"обл Магаданская,г Магадан,пер Школьный,д 1","organizer":"ОГБУК «Магаданская областная детская библиотека»"},{"id":6339334,"title":"Русский обрядовый праздник «Кузьминки»","description":"         В настоящее время обращение к фольклору имеет глубокий социальный смысл, являясь средством эстетического, нравственного и патриотического воспитания детей и юношества. Народная культура помогает сориентировать самовыражение детей в художественной сфере во всех направлениях: музыке, танце, слове, изобразительной деятельности, актерской игре, выявить природные способности и задатки для дальнейшего развития.              Участие детей в календарных обрядах — школа освоения жизненного опыта, накопленного старшими поколениями, их традиций, обычаев.      ","age":6,"ageCategory":"6+","startDate":"20.11.2025","endDate":"20.11.2025","city":"Чунский район","category":"Встречи","isFree":true,"price":"","image":"https:\/\/all.culture.ru\/uploads\/2615b3be0d89de9183dd13836630f47d.jpg","place":"Культурно-досуговый, информационный центр Весёловского муниципального образования","address":"обл Иркутская,р-н Чунский,п Веселый,ул Мира,д 2","organizer":"МКУК «Культурно-досуговый, информационный центр» Веселовского МО"},{"id":6339335,"title":"Настольные игры «Стратег»","description":"Настольные игры – это замечательный способ развить эрудицию, пополнить словарный запас, улучшить логическое мышление, а также хороший способ весело провести досуг. Но самое главное, настольные игры – это живое общение. Любая из таких игр дарит интересное времяпрепровождение, азарт, яркие эмоции. В нашем сельском клубе будут организованы настольные игры для детей. Они с большим удовольствием поиграют в шашки, шахматы, домино. Море веселья и отличное настроение получат за проведенное время с друзьями.","age":6,"ageCategory":"6+","startDate":"19.11.2025","endDate":"19.11.2025","city":"Альшеевский район","category":"Прочие","isFree":true,"price":"","image":"https:\/\/all.culture.ru\/uploads\/ca91613846ebddfd5f7107b1f2dc84a3.jpg","place":"Сараевский сельский клуб","address":"Респ Башкортостан,р-н Альшеевский,с Сараево,ул Школьная,д 3","organizer":"МБУ «Социально-культурный центр» МР Альшеевский район"},{"id":6339336,"title":"«Всемирный День Качества»","description":"В России в         2025 году День качества отмечается 13 ноября, в рамках Всемирной недели         качества, которая пройдет с 10 по 16 ноября. Этот день приурочен к Всемирному         дню качества, который ежегодно отмечается во второй четверг ноября. Мероприятия          проходят под лозунгом «Россия – страна         со знаком качества». Ежегодно , этот праздник отмечают во второй четверг ноября.         Понятие качества объединяет множество смыслов.  В         современном мире это понятие связано не только с качеством товаров и услуг, но         и с качеством жизни, включающим вопросы экологии, осознанного потребления,         социальной сферы, традиций, здорового образа жизни. Качество этих «слагаемых»         волнует нас всех, поэтому выделить особую аудиторию этого праздника невозможно.         Все, что мы создаем или приобретаем, связано с понятием «качество» и         естественным стремлением современного человека обладать лучшим и создавать         лучшее. В России данный праздник отмечают с 1989 года. Традиционно в рамках         Недели качества Роскачество организует деловые мероприятия, уроки качества в         учебных заведениях и другие активности по всей России. Методический центр         «Звезда» присоединяется к празднованию и проводит акцию «Киренск. Знак         качества»  где аниматоры поздравят         индивидуальных предпринимателей оказывающих спонсорскую помощь для проведения         мероприятий.","age":0,"ageCategory":"0+","startDate":"15.11.2025","endDate":"15.11.2025","city":"Киренский район","category":"Прочие","isFree":true,"price":"","image":"https:\/\/all.culture.ru\/uploads\/5d94c253873c07a8b4c863216fb1e8a3.jpg","place":"Методический центр народного творчества и досуга «Звезда»","address":"обл Иркутская,р-н Киренский,г Киренск,мкр Центральный,ул Красноштанова,стр 1","organizer":"МКУК «МЦНТ И Д «ЗВЕЗДА»"},{"id":6339337,"title":"Краеведческий час «Исторические вехи Магадана: Люди и События»","description":"Магадан – город с         уникальной и судьбоносной историей, в которой переплелись мужество, трагедия и         триумф. Приглашаем читателей на краеведческий час, где мы пройдём по основным         вехам становления столицы Колымы.     Участников ждёт         глубокий и многогранный рассказ о ключевых событиях и людях, которые создавали         облик города. Вы узнаете о первых исследователях Дальнего Востока, о времени         больших надежд и великих строек, о суровых испытаниях эпохи и о невероятной         силе духа магаданцев.     Через архивные         фотографии, кадры кинохроники и документы оживут истории первооткрывателей,         геологов, архитекторов и простых тружеников, чьими руками возводился город. Мы         вспомним тех, чьи имена вписаны в летопись Магадана, и откроем для себя         малоизвестные страницы его прошлого","age":6,"ageCategory":"6+","startDate":"17.12.2025","endDate":"17.12.2025","city":"Магадан","category":"Прочие","isFree":true,"price":"","image":"https:\/\/all.culture.ru\/uploads\/7cc7fd75f9a7edbf8a2c1f0fb35bec73.jpg","place":"Детско-юношеский центр чтения г. Магадана","address":"обл Магаданская,г Магадан,ул Гагарина,д 44\/1","organizer":"МБУК города Магадана «Централизованная библиотечная система»"},{"id":6339338,"title":"Игра «В Стране прав»","description":"Участники игры познакомятся с документом «Конвенция по правам ребенка», узнают о своих правах и обязанностях, а также проявят свои способности работы в команде.Игра будет состоять из нескольких туров: «Ты не прав, если не знаешь прав», «Право или обязанность», «Сказочный», «Анаграммы». Каждый тур состоит из 6 вопросов, на которые нужно дать ответ в течение установленного времени. На обсуждение каждого ответа дается от 30 до 60 секунд. Команда, набравшая большее количество баллов, станет победителем.","age":6,"ageCategory":"6+","startDate":"19.11.2025","endDate":"19.11.2025","city":"Пожарский район","category":"Встречи","isFree":true,"price":"","image":"https:\/\/all.culture.ru\/uploads\/e2db60fa7abcdfbd335933f0a2feb158.jpeg","place":"Детская библиотека п. Лучегорска","address":"край Приморский,р-н Пожарский,пгт Лучегорск,мкр 1-й,д 8","organizer":"МБУ «Централизованная библиотечная система Пожарского муниципального округа»"},{"id":6339339,"title":"Праздничный концерт ко Дню матери","description":"Ко Дню матери пройдет праздничный концерт.  Особенное мероприятие будет подготовлено специально для тех, кто дарит заботу, поддержку и вдохновение ежедневно - любимых мам. Гостей ждет приятная атмосфера семейного праздника, теплый прием и море положительных эмоций. Тем самым хотим выразить свою благодарность самым дорогим людям - мамам, ведь именно благодаря их терпению, мудрости и доброте жизнь становится ярче и счастливее. В программе концерта стихи и песни о маме на родном языке, танцы в исполнении детей, выставка детских рисунков. ","age":6,"ageCategory":"6+","startDate":"22.11.2025","endDate":"22.11.2025","city":"Закаменский район","category":"Концерты","isFree":true,"price":"","image":"https:\/\/all.culture.ru\/uploads\/73e8d078bd43e9e20f8d78af67ae9701.jpg","place":"Cанагинский дворец культуры","address":"Респ Бурятия,р-н Закаменский,у Санага,ул Советская,зд 13","organizer":"АУ «Санагинский Дворец культуры»"},{"id":6339340,"title":"Урок истории «Непобедимый полководец»","description":"Александр Суворов вошел в историю как величайший русский полководец, что вел за собой целые армии, приводил страну к победам и гордился тем, что он русский. Его путь к славе начался в детстве, когда он, несмотря на слабое здоровье, упорно готовил себя к военной службе, самостоятельно изучая науки и военное дело. В ходе мероприятия ведущий расскажет о жизни и подвигах Суворова, который был не только талантливым военачальником, но и умнейшим, интереснейшим человеком. Участники шаг за шагом пройдут путем его блистательных побед – от штурма неприступной крепости Измаил до легендарного перехода через Альпы. Они увидят, что сделало его солдат непобедимыми: не слепая муштра, а понимание смысла боя, воплощенное в знаменитой суворовской «Науке побеждать» – «глазомер, быстрота и натиск». Мероприятие будет дополнено видеофрагментами документальных и художественных фильмов, освещающих личность Александра Суворова, символа воинской доблести России.","age":12,"ageCategory":"12+","startDate":"24.11.2025","endDate":"24.11.2025","city":"Усолье-Сибирское","category":"Обучение","isFree":true,"price":"","image":"https:\/\/all.culture.ru\/uploads\/cb368006697b49f7af90162430118f48.jpg","place":"Центральная детская библиотека г. Усолье-Сибирское","address":"обл Иркутская,г Усолье-Сибирское,пр-кт Комсомольский,д 61","organizer":"МБУК «Усольская городская централизованная библиотечная система»"},{"id":6339341,"title":"Лекция «Подвиг любви бескорыстной»","description":" За декабристами в Сибирь направились не только жены, но и матери, сестры, а также невесты. Эти смелые женщины бросили все, от детей до домов. Также их лишили дворянских привилегий, права распоряжения своим имуществом, передвижения и переписки.На встрече участники поговорят о женах, невестах, сестрах и матерях осужденных и приговоренных к каторге дворян-декабристов, которые добровольно последовали за ними в Сибирь. Лекция сопровождается визуальными материалами – фотографиями и картами, что делает ее более наглядной и увлекательной.Принимаются заявки от организованных групп в составе не менее 10 человек по телефонам: +7 (4242) 49-57-17, +7 (4242) 49-57-28, +7 (4242) 49-57-04.","age":12,"ageCategory":"12+","startDate":"26.12.2025","endDate":"26.12.2025","city":"Южно-Сахалинск","category":"Обучение","isFree":false,"price":300,"image":"https:\/\/all.culture.ru\/uploads\/ea6fcc271fedef5d5dd2ef142537fa6f.jpg","place":"Исторический парк «Россия – моя история» г. Южно-Сахалинска","address":"обл Сахалинская,г Южно-Сахалинск,ул Священномученика Илариона Троицкого,д 4","organizer":"ГБУК СО «Музейно-мемориальный комплекс «Победа»"}],"total":975,"page":4,"limit":12,"pages":82}