{"events":[{"id":6340605,"title":"Тематическая полка «Выхожу я в путь, открытый взорам...»","description":"   28 ноября 2025 года исполняется 145 лет со дня рождения Александра Александровича Блока (1880–1921) – выдающегося поэта Серебряного века, одного из главных представителей русского символизма. В честь этой даты в библиотеке будет организована тематическая полка, где каждый сможет познакомиться с биографическими материалами, исследованиями и художественными произведениями, посвященными жизни и творчеству Блока. Выставка откроет читателям не только его знаменитые стихи, но и малоизвестные страницы его жизненного пути, позволяя глубже понять многогранность его таланта.   ","age":16,"ageCategory":"16+","startDate":"28.11.2025","endDate":"28.11.2025","city":"Пошехонский район","category":"Выставки","isFree":true,"price":"","image":"https:\/\/all.culture.ru\/uploads\/649a03adece3d8798190aeba58627d85.JPG","place":"Ермаковская библиотека","address":"обл Ярославская,р-н Пошехонский,с Ермаково,ул Ильинская,д 1","organizer":"МБУК «Пошехонская централизованная библиотечная система»"},{"id":6340606,"title":"Час ЗОЖ «Чтобы не было беды», посвященное Дню отказа от курения","description":"  Пройдёт час ЗОЖ «Чтобы не было беды», посвященный Дню отказа от курения. Школьники нарисуют рисунки для выставки «Молодежь против курения». Для присутствующих будет  организован просмотр слайдовой презентации «Чем заменить курение!», авторы которой призовут ребят заниматься спортом, творчеством, хобби, развивать полезные привычки, быть чаще на природе, заниматься ароматерапией, слушать музыку, помогать другим людям. Будет организован просмотр видеороликов о вреде курения и пропаганде здорового образа жизни. Также подготовим агитационные листовки и буклеты против курения и раздадим их на улицах нашего села.  ","age":6,"ageCategory":"6+","startDate":"19.11.2025","endDate":"19.11.2025","city":"Новошешминский район","category":"Встречи","isFree":true,"price":"","image":"https:\/\/all.culture.ru\/uploads\/ed6744e75397f5cc28c8fdb172e95eb5.jpg","place":"Районный дом культуры с. Новошешминска","address":"Респ Татарстан,р-н Новошешминский,с Новошешминск,ул Заливная,зд 4","organizer":"МБУК «Централизованная клубная система Новошешминского муниципального района Республики Татарстан»"},{"id":6340607,"title":"«А ну -ка, мальчишки!»","description":"В районном конкурсе могут принять участие мальчишки в возрасте 8 -12 лет. конкурсные задания для них следующие: Визитная карточка (рассказ о себе, своих увлечениях, семье, друзьях), Интеллектуальный конкурс (без подготовки ответить на несколько вопросов), Самый умелый (участники предоставляют видеоролик, в котором рассказывают и изготавливают модель любой техники), Спортивный конкурс(участники без подготовки соревнуются в спортивных играх и заданиях). Победителем конкурса становится участник, набравший наибольшее количество баллов.","age":6,"ageCategory":"6+","startDate":"23.11.2025","endDate":"23.11.2025","city":"Подосиновский район","category":"Прочие","isFree":true,"price":"","image":"https:\/\/all.culture.ru\/uploads\/22315a01bfb98b5e0ee7d418bd9c2903.jpg","place":"Подосиновский районный дом культуры","address":"обл Кировская,р-н Подосиновский,пгт Подосиновец,ул Советская,д 38","organizer":"Муниципальное казенное учреждение культуры «Подосиновский РДК»"},{"id":6340608,"title":"Родительское собрание с концертом класса «Роль семьи в процессе обучения детей в классе скрипки детской школы искусств»","description":"Мероприятие предназначено для родителей класса преподавателя оркестрового отделения Волковой Натальи Алексеевны.   На собрании будет представлена информация о том, как игра на скрипке влияет на общее развитие ребёнка. Также на собрании состоится концерт, на котором учащиеся класса продемонстрируют свои навыки игры на инструменте.  Во вступительном слове   будет рассказано о важности музыкального образования и о том, какие навыки развивает игра на скрипке: музыкальные способности, координацию, дисциплину, память, концентрацию внимания и т. д.Далее состоится концерт, в котором  родители увидят, как дети применяют полученные знания и навыки.","age":0,"ageCategory":"0+","startDate":"24.11.2025","endDate":"24.11.2025","city":"Донской ","category":"Встречи","isFree":true,"price":"","image":"https:\/\/all.culture.ru\/uploads\/691edbc6744de182c15a3a75c09bd1ef.jpg","place":"Детская школа искусств № 1 г. Донского","address":"обл Тульская,г Донской,мкр Центральный,ул Октябрьская,д 55А","organizer":"МБУДО «ДШИ № 1»"},{"id":6340609,"title":"Интерактивная игра «Изюминка»","description":"15 ноября – восхитительный День шоколадного кекса! В честь этого сладкого праздника Васильевский клуб с радостью проводит яркую программу «Изюминка».Наших гостей ждет увлекательное путешествие в историю знаменитого кондитерского изделия, от его истоков до наших дней. Мы раскроем секреты и поделимся лучшими рецептами его приготовления, чтобы вы могли легко повторить этот кулинарный шедевр дома.Участники смогут проявить свои творческие способности и широкую фантазию, приняв участие в веселых играх, викторинах и конкурсах с призами. Присоединяйтесь к нам и откройте для себя весь многогранный мир шоколадного кекса, который подарит море положительных эмоций и оставит самое незабываемое послевкусие в сердце каждого!","age":0,"ageCategory":"0+","startDate":"17.11.2025","endDate":"17.11.2025","city":"Великоустюгский район","category":"Встречи","isFree":true,"price":"","image":"https:\/\/all.culture.ru\/uploads\/14c37afaddbec896f8b1812df88e8a89.jpg","place":"Васильевский клуб","address":"обл Вологодская,р-н Великоустюгский,с Васильевское,ул Парковая,д 33","organizer":"МБУК «Центр культурного развития г. Красавино»"},{"id":6340610,"title":"Интеллектуальная игра «Битва эрудитов»","description":"Библиотека приглашает эрудитов на новую интеллектуально-развлекательную викторину по мотивам популярных в конце 90-х и начале 00-х передач. Ведущие предлагают поностальгировать, а заодно проверить, насколько хорошо вы помните эти популярные теле-шоу: Что? Где? Когда?, Брейн ринг, Кто хочет стать миллионером?, Угадай мелодию и т.д. Читателей ждет эффектная подача заданий и захватывающая игра с первой минуты. Ведь интеллектуальный квиз – это не душный экзамен на знания и кругозор, а настоящий эмоциональный аттракцион, который вовлекает всех гостей.","age":12,"ageCategory":"12+","startDate":"15.11.2025","endDate":"15.11.2025","city":"Казань","category":"Встречи","isFree":true,"price":"","image":"https:\/\/all.culture.ru\/uploads\/a9529d4abb5aabbe3b339624388603c8.JPG","place":"Республиканская специальная библиотека для слепых и слабовидящих им. Ш. К. Еникеева","address":"Респ Татарстан,г Казань,ул Серова,д 3","organizer":"ГБУК «Республиканская специальная библиотека для слепых и слабовидящих»"},{"id":6340613,"title":"«Белая смерть»Беседа и тематическая дисеотека","description":"Ежегодно войны, эпидемии, стихийные бедствия уносят жизни сотен тысяч людей. Но намного страшнее, когда так называемые пороки общества: курение и пьянство, наркомания губят гораздо больше людей.  «Белая смерть» — наркомания — уносит жизни миллионов людей.  Наркомания — это болезненное влечение к употреблению вредных и опасных веществ, парализующих нервную систему, вызывающих временное притупление чувств, сознания. Наркомания — беда нашего времени. Наркоманы не доживают даже до среднего возраста. Употребление наркотиков сокращает жизнь в 2-2,5 раза, то есть на 30-40 лет!","age":12,"ageCategory":"12+","startDate":"16.11.2025","endDate":"16.11.2025","city":"Кукморский район","category":"Прочие","isFree":true,"price":"","image":"https:\/\/all.culture.ru\/uploads\/0107a9338b1b87209bddaec08efc3f22.jpg","place":"Адаевский сельский клуб","address":"Респ Татарстан,р-н Кукморский,с Адаево,ул Центральная,влд 4","organizer":"МБУ «Районный дом культуры» Кукморского муниципального района"},{"id":6340614,"title":"Рекомендательный обзор «Слава солдату за мир на земле»","description":"Книга Александра Щелокова «Предают только свои».  Роман погружает читателя в напряженную атмосферу спецопераций и борьбы спецслужб против террористической угрозы. Действие разворачивается вокруг группы агентов федеральной службы безопасности, выполняющих задание по предотвращению масштабного теракта в Москве. Главная интрига романа заключается в неожиданной предательстве внутри команды, которое ставит под угрозу успех операции и жизнь героев.   Книга также поднимает важные моральные вопросы, заставляя задуматься о цене долга и последствий выбора каждого героя.   ","age":16,"ageCategory":"16+","startDate":"17.11.2025","endDate":"17.11.2025","city":"Угличский район","category":"Прочие","isFree":true,"price":"","image":"https:\/\/all.culture.ru\/uploads\/6a66ce24f5feb17520e39a3805bd974a.jpg","place":"Библиотека им. Н. Н. Старостина","address":"обл Ярославская,р-н Угличский,г Углич,ул Победы,д 5","organizer":"МБУК «Централизованная библиотечная система Угличского МР»"},{"id":6340616,"title":"Беседа «Тарелка с портретом»","description":"  Тарелка сувенирная с женским портретом. В витрине 3 зала Свитского корпуса представлена красивая сувенирная фарфоровая тарелка. По центру портретное изображение молодой черноволосой дамы, сидящей в кресле, с ребенком на коленях. В нижней правой четверти изображения имеется плохо пропечатанная надпись, прочесть которую можно с трудом. Предположительно: «17 Lawrense». Возможно, автором портрета, послужившего основой для изображения, был британский живописец Т. Лоуренс.На дне тарелки почти в центре – подглазурное клеймо зеленого цвета в желтом картуше: скрещенные под короной литеры «Р», развернутые в разные стороны, ниже – надпись «BAVARIA».По предположению продавца, дама, изображенная на портрете – Жозефина Богарне, а ребенок у нее на коленях – ее сын Эжен, внучкой которого была принцесса Е.М. Ольденбургская.Беседа проводится по предварительной записи по телефону +7 (950) 775-45-45  ","age":12,"ageCategory":"12+","startDate":"14.11.2025","endDate":"14.11.2025","city":"Рамонский район","category":"Прочие","isFree":false,"price":100,"image":"https:\/\/all.culture.ru\/uploads\/0c44697b163195423407e48107f12df6.jpg","place":"Историко-культурный центр «Дворцовый комплекс Ольденбургских»","address":"обл Воронежская,р-н Рамонский,рп Рамонь,ул Мосина,д 23 б","organizer":"АУК ВО «Историко-культурный центр «Дворцовый комплекс Ольденбургских»"},{"id":6340617,"title":"Выставка – стенд «Герои спецоперации»","description":"Для посетителей библиотеки будет представлена информационная экспозиция, которая познакомит с именами современных героев–земляков, которые участвуют в специальной военной операции.Они герои – такие же, как их прадеды в годы Великой Отечественной войны. За каждым успехом российской армии в спецоперации – имена российских солдат и офицеров, и пусть они не стремятся за славой, почестями и наградами, страна должна знать имена своих Героев! Каждый раздел – это история реального подвига участника СВО. ","age":6,"ageCategory":"6+","startDate":"24.11.2025","endDate":"24.11.2025","city":"Бутурлиновский район","category":"Выставки","isFree":true,"price":"","image":"https:\/\/all.culture.ru\/uploads\/22a896fd2b74e95b31d0648f4763ece4.jpg","place":"Заречная городская библиотека","address":"обл Воронежская,р-н Бутурлиновский,г Бутурлиновка,ул Кирова,д 3","organizer":"МКУК «Бутурлиновская межпоселенческая центральная районная библиотека им. Ю. Д. Гончарова» Бутурлиновского района"},{"id":6340618,"title":"Показ фильма «Яга на нашу голову»","description":"Когда у десятилетнего Пети появляется новая воспитательница – странная и ворчливая, но невероятно обаятельная, – он быстро понимает, что она не такая, как все. Она – «няня под прикрытием», а на самом деле – Яга, легендарная волшебница, потерявшая свою ступу и спрятавшаяся среди людей. Теперь только Петя сможет помочь ей вернуть магические силы, а Яга – научить мальчика летать. И не только на ступе, но и по жизни. Режиссером картины является Александр Войтинский («По щучьему велению»). Главные роли исполнили Светлана Ходченкова и Юрий Колокольников.","age":6,"ageCategory":"6+","startDate":"12.11.2025","endDate":"26.11.2025","city":"Изобильненский район","category":"Кино","isFree":false,"price":150,"image":"https:\/\/all.culture.ru\/uploads\/99848765da4fa48e734751e09e7377df.jpg","place":"Центр культуры и досуга г. Изобильного","address":"край Ставропольский,р-н Изобильненский,г Изобильный,ул Красная,д 6","organizer":"МКУ ИГО СК «Центр Культуры и Досуга»"},{"id":6340620,"title":"Перформанс «Поэт осени»","description":"Перформанс – это смесь интерактивного театрального действия и игры, где развитие сюжета зависит от самих  читателей. Они главные герои, они  управляют развитием сюжета. Перформанс «Поэт осени» будет приурочен  к 135-летию Александра Блока, включает в себя: *Поэтический баттл «Был Пушкин и был Блок. Всё остальное – между»;  Театрально-музыкальное представление «Блоковыражение»;  * Художественно-иллюстративная  импровизация на стихи А. Блока  «Тайна. Истина. Символ»; * Инсталляция «Вариации на тему Блока».","age":16,"ageCategory":"16+","startDate":"18.11.2025","endDate":"19.11.2025","city":"Бугульма","category":"Прочие","isFree":true,"price":"","image":"https:\/\/all.culture.ru\/uploads\/f8d08b23d1fca52b3eac2271edd54850.JPG","place":"Бугульминская библиотека (филиал № 2)","address":"Респ Татарстан,р-н Бугульминский,г Бугульма,ул Оршанская,д 8","organizer":"МБУК «Межпоселенческая центральная библиотека» Бугульминский МР РТ"}],"total":974,"page":82,"limit":12,"pages":82}