{"events":[{"id":6339933,"title":"Посвящение в студенты","description":"   В Центре культурного развития скоро состоится торжественное посвящение в студенты первокурсников медицинского колледжа! Это незабываемое мероприятие, где традиции встречаются с современностью, а новые поколения медиков получают символические атрибуты профессии – белые халаты и стетоскопы. Ребята примут клятву, услышат мудрые напутствия от преподавателей и старших коллег, и окунутся в атмосферу праздника, полного эмоций, вдохновения и культурного наследия! 🌟👏Приглашаем всех присоединиться и поддержать наших первокурсников в этот важный день. Давайте вместе отметим начало их пути к спасению жизней!  ","age":12,"ageCategory":"12+","startDate":"15.11.2025","endDate":"15.11.2025","city":"Касимов","category":"Концерты","isFree":true,"price":"","image":"https:\/\/all.culture.ru\/uploads\/fd0365e62fcf503bb049ad5cea63d0f0.jpg","place":"Центр культурного развития г. Касимова","address":"обл Рязанская,г Касимов,ул Советская,д 1а","organizer":"МБУК «Центр культурного развития»"},{"id":6339944,"title":"«Букетик для мамы» Концертная программа ко дню матери","description":" Специалисты МКУК ЦНКК «Круг» совместно с библиотекой проведут праздничный концерт посвящённый дню матери в  поддержание традиций бережного отношения к женщине , закрепить семейные устои , отметить значение в нашей жизни главного человека – матери. Задачи: формирование уважительного отношения детей к своим родителям; культурных традиций в общений взрослых и детей; пробудить во взрослых и детях желание быть доброжелательными и доверчивыми друг к другу ; создание положительной эмоциональной сферы.  ","age":6,"ageCategory":"6+","startDate":"30.11.2025","endDate":"30.11.2025","city":"Енотаевский район","category":"Концерты","isFree":true,"price":"","image":"https:\/\/all.culture.ru\/uploads\/2999a344b8fec1bcd56edc8ece236ebb.jpg","place":"Центр народной казачьей культуры «Круг»","address":"обл Астраханская,р-н Енотаевский,с Копановка,ул Ленина,д 25","organizer":"МКУК ЦНКК «Круг» МО село Копановка"},{"id":6339975,"title":"Праздничное мероприятие для сотрудников ООО «КинельАгроПласт»","description":"В Городском Доме культуры пройдет праздничное мероприятие для сотрудников ООО \"КинельАгроПласт\". Это событие станет замечательной возможностью для коллектива отметить свои успехи и достижения, которые были достигнуты в уходящем году. Творческая команда Дома культуры уже активно готовится, чтобы порадовать трудовой коллектив яркими номерами и запоминающимися выступлениями. На мероприятии зрителей ожидает разнообразная программа, в которой будут представлены лучшие творческие номера. Специалисты и артисты подготовили сюрпризы, которые поднимут настроение и создадут праздничную атмосферу. Это отличный повод для сотрудников не только порадовать себя, но и получить заряд энергии, который поможет в дальнейшей работе.Пусть каждый из присутствующих уйдет с положительными эмоциями и новыми идеями для будущих свершений. Поздравляем сотрудников ООО \"КинельАгроПласт\" с важным событием и надеемся на дальнейшие успехи и достижения! ","age":6,"ageCategory":"6+","startDate":"15.11.2025","endDate":"15.11.2025","city":"Кинель","category":"Концерты","isFree":true,"price":"","image":"https:\/\/all.culture.ru\/uploads\/c451f543d89cc894ff79245467ebc611.JPG","place":"Дом культуры г. Кинель","address":"обл Самарская,г Кинель,ул Мира,д 42","organizer":"МАУК городского округа Кинель Самарской области «Городской дом культуры»"},{"id":6340008,"title":"Отчетный концерт Zumba kids","description":"  В Центре культурного развития состоится отчетный концерт объединения Zumba kids под руководством Марины Фокиной!  Приглашаем всех окунуться в атмосферу зажигательных ритмов, ярких костюмов и невероятной энергии! Наши юные звездочки, под чутким руководством Марины Фокиной, продемонстрируют все, чему научились за год, а это, поверьте, немало! Zumba kids – это не просто танцы, это целый мир, где дети учатся чувствовать музыку, развивать координацию, укреплять здоровье и, конечно же, получать море позитивных эмоций.  ","age":6,"ageCategory":"6+","startDate":"30.11.2025","endDate":"30.11.2025","city":"Касимов","category":"Концерты","isFree":true,"price":"","image":"https:\/\/all.culture.ru\/uploads\/12e6f3026f141e9f1195ae672ec88a10.jpg","place":"Центр культурного развития г. Касимова","address":"обл Рязанская,г Касимов,ул Советская,д 1а","organizer":"МБУК «Центр культурного развития»"},{"id":6340042,"title":"«Быть счастливым»","description":"Приглашаем всех желающих познакомиться с творчеством и авторской музыкой выпускника Детской школы искусств г.Похвистнево Евгения Клыкова. Евгений Клыков является автором музыки и слов более сотни песен. Стиль, в котором Евгений пишет музыку и исполняет относится к бардовской песне. Репертуар концерта состоит из песен в направлениях \"бардовская песня\", \"шансон\"...  Многие песни посвящены прекрасной половине человечества, любви, семье, родному краю. Евгений является выпускником Детской школы искусств по классу баяна (преподаватель Заслуженный работник культуры России Анатолий Иванов), но весь свой репертуар он исполняет на гитаре. ","age":6,"ageCategory":"6+","startDate":"29.11.2025","endDate":"29.11.2025","city":"Похвистнево","category":"Концерты","isFree":true,"price":"","image":"https:\/\/all.culture.ru\/uploads\/a35efb5780c616d9adf451a1a9a3e79c.jpg","place":"Детская школа искусств г. Похвистнево","address":"обл Самарская,г Похвистнево,ул Андрея Васильева,д 2","organizer":"УДО «Детская школа искусств» г. Похвистнево Самарской области"},{"id":6340061,"title":"«Мама - как много в этом слове»","description":"    Мама, мама, мамочка… Сколько тепла таит это слово, которым называют самого дорогого, близкого человека. Она подарила нам жизнь, на протяжении которой согревает лаской, заботой и любовью.  По традиции в последний ноябрьский выходной в России празднуется День матери. Тёплый, добрый и нежный, как мамины руки, праздник, который не оставляет равнодушным никого. Ведь это еще один повод еще раз сказать теплые слова своим близким стоит вне зависимости от даты в календаре. В рамках этого замечательного праздника Слаковский СДК приглашает на праздничный концерт.   Мероприятие завершилось праздничным чаепитием.     ","age":16,"ageCategory":"16+","startDate":"28.11.2025","endDate":"28.11.2025","city":"Альшеевский район","category":"Концерты","isFree":true,"price":"","image":"https:\/\/all.culture.ru\/uploads\/6800a265ecbf11f7870650f8f61f7584.jpeg","place":"Слаковский сельский дом культуры","address":"Респ Башкортостан,р-н Альшеевский,с Слак,ул Центральная,д 1","organizer":"МБУ «Социально-культурный центр» МР Альшеевский район"},{"id":6340157,"title":"Концерт «Пусть летит по свету песня»","description":"В концерте учащихся академического пения и эстрадного вокала «Пусть летит по свету песня» примут участие солисты и творческие коллективы Детской музыкальной школы. В программе прозвучат разнообразные вокальные композиции: классические произведения русских и зарубежных композиторов, детская песенная классика и произведения современных композиторов. Для учащихся концерт станет хорошей возможностью продемонстрировать свои успехи, а взрослые в этот день смогут немного отвлечься от повседневной суеты и окунуться в чарующий мир музыки. Приглашаем родителей и гостей разделить этот радостный момент с нашими юными вокалистами!","age":6,"ageCategory":"6+","startDate":"18.11.2025","endDate":"18.11.2025","city":"Дзержинский","category":"Концерты","isFree":true,"price":"","image":"https:\/\/all.culture.ru\/uploads\/aa42660dfe676b8b26c4b8da6eeaa14a.JPG","place":"Детская музыкальная школа города Дзержинского","address":"обл Московская,г Дзержинский,ул Ленина,д 10","organizer":"МБУДО «Детская музыкальная школа» города Дзержинский"},{"id":6340225,"title":"«Памяти Георгия Свиридова»","description":"  Георгий Васильевич Свиридов — выдающееся явление музыкальной культуры страны. Его творчество сочетает в себе новизну, самобытность музыкального языка, отточенность, изысканную простоту, глубокую духовность и выразительность.   Главная черта стиля Свиридова — русское национальное начало его музыки, песенность, характерная для русского фольклора. В основе большинства произведений лежит диатонизм, обилие унисонов и параллелизмов, широкое использование подголосочной полифонии и хоровых педалей.    В МБУ ДО «Детская школа искусств» состоится концерт, посвященный памяти советского композитора Георгия Свиридова. В концерте прозвучат известные произведения композитора в исполнении учащихся и преподавателей детской школы искусств.    ","age":12,"ageCategory":"12+","startDate":"09.12.2025","endDate":"09.12.2025","city":"Миякинский район","category":"Концерты","isFree":true,"price":"","image":"https:\/\/all.culture.ru\/uploads\/fd573288dca34b85f021875d9f5c5622.jpeg","place":"Детская школа искусств с. Киргиз-Мияки","address":"Респ Башкортостан,р-н Миякинский,с Киргиз-Мияки,ул Ленина,д 28","organizer":"МБУ ДО «Детская школа искусств муниципального района Миякинский район Республики Башкортостан»"},{"id":6340298,"title":"«Собака на сене»","description":"  Ансамбль солистов «Мадригал» Московской филармонииМарина Александрова художественное словоГела Месхи (художественное слово)В программе:Лопе де Вега. «Собака на сене» Х. дель Энсина, Векки, Банкьери, Кирхер, Гарсиа де Сеспедес, Кабанильес, Вивальди  Музыка из кинофильма «Собака на сене» Геннадия Гладкова  МАРИНА АЛЕКСАНДРОВАМарина Александрова родилась в 1982 году в Кишкунмайше (Венгрия). Первоначальное образование получила в Санкт-Петербурге (обучалась в школе с математическим уклоном и в музыкальной школе по классу арфы). Затем окончила московское Театральное училище имени Бориса Щукина (курс Валентины Николаенко). С 2000 года начала сниматься в кино, в 2001 году снялась в главной роли в фильме «Северное сияние». Затем снималась в фильмах и телесериалах «Империя под ударом», «Азазель», «Бедная Настя», «Звезда эпохи», «Счастье ты мое», «Утесов. Песня длиною в жизнь», «Котовский», «Все включено», «Высоцкий. Спасибо, что живой», «Мосгаз», «Екатерина»,  ","age":12,"ageCategory":"12+","startDate":"05.12.2025","endDate":"12.12.2025","city":"Калачинский район","category":"Концерты","isFree":true,"price":"","image":"https:\/\/all.culture.ru\/uploads\/9d01e8fe469731725892f8a82a06af68.jpg","place":"Калачинский муниципальный театр кукол «Сказка»","address":"обл Омская,р-н Калачинский,г Калачинск,ул Калнина,д 3","organizer":"Калачинский муниципальный театр кукол «Сказка»"},{"id":6340317,"title":"Фортепианное трио Subito","description":"Трио «Subito» является лауреатом множества всероссийских и международных конкурсов. Коллектив выступает на концертных площадках Москвы, Казани, Екатеринбурга, Саранска и других городов России, принимает активное участие в проектах Московской консерватории и Московской государственной академической филармонии.Слушатели отмечают удивительное взаимопонимание музыкантов, стилистическую точность, глубокое проникновение в смысл исполняемых произведений, искренность и яркую эмоциональность.  В ПРОГРАММЕ:  Гайдн Трио для фортепиано, скрипки и                 виолончели № 44 ми мажор, Hob. XV\/28  Чайковский Трио для фортепиано, скрипки                 и виолончели ля минор «Памяти великого художника», соч. 50  Рахманинов Элегическое трио № 1 для                 фортепиано, скрипки и виолончели соль минор","age":12,"ageCategory":"12+","startDate":"15.11.2025","endDate":"15.11.2025","city":"Жиздринский район","category":"Концерты","isFree":true,"price":"","image":"https:\/\/all.culture.ru\/uploads\/19c8b8edecd8dbd96683a6c94378fb3f.jpg","place":"Жиздринская районная библиотека им. А. С. Пушкина","address":"обл Калужская,р-н Жиздринский,г Жиздра,пл Коммуны,д 4","organizer":"Муниципальное межпоселенческое казенное учреждение культуры «Жиздринская районная централизованная библиотечная система»"},{"id":6340326,"title":"Праздничная программа, посвященная Дню матери «За жизнь тебя благодарю»","description":"  На День матери коллектив Подгоренского сельского дома культуры  организует праздничную программу. Мероприятие рассчитано на полтора часа.Праздник пройдет легко на одном дыхании и все присутствующие получат массу неповторимых эмоций от участия. Зрителей ждет множество интересных тематических номеров и сюрпризов. На сцене выступят вокальные коллективы, детский танцевальный коллектив ,прозвучат трогательные стихи в исполнении детей. Вокальные коллективы порадуют своими выступлениями зрителей. Концерт пройдет очень плодотворно.  ","age":6,"ageCategory":"6+","startDate":"22.11.2025","endDate":"22.11.2025","city":"Россошанский район","category":"Концерты","isFree":true,"price":"","image":"https:\/\/all.culture.ru\/uploads\/5bc134bd2ad97733c0ae737b95e53fb8.jpg","place":"Подгоренский сельский дом культуры","address":"обл Воронежская,р-н Россошанский,с Подгорное,ул Мира,зд 25","organizer":"МБУ «Молодежный центр»"},{"id":6340340,"title":"Концерт «За все тебя благодарю»","description":"         День матери – прекрасный повод поддержать семейные традиции, показать огромную роль мамы в жизни каждого человека, возможность выразить ей тёплые слова благодарности за доброе, прощающее сердце, заботливые, ласковые руки. В программе концерта прозвучат сольные и ансамблевые произведения русских, башкирских и зарубежных композиторов. Звучание фортепиано, скрипки, домры, баяна, окунут в мир прекрасной музыки от классики до современности в профессиональном исполнении учащихся и преподавателей Детской школы искусств имени А. Искужина ГО г. Уфа.            Праздничный концерт ко дню матери – это замечательная возможность провести время с семьей и друзьями, насладиться красивой музыкой и поздравить своих близких с праздником. На протяжении всего праздника в зале будет царить необыкновенная атмосфера домашнего уюта и теплоты.     ","age":6,"ageCategory":"6+","startDate":"27.11.2025","endDate":"27.11.2025","city":"Уфа","category":"Концерты","isFree":true,"price":"","image":"https:\/\/all.culture.ru\/uploads\/b4869ee69a4570320815ee4e2c4d8b93.jpg","place":"Детская школа искусств им. А. Искужина г. Уфы","address":"Респ Башкортостан,г Уфа,ул Чкалова,д 131","organizer":"МБУ ДО ДШИ А. Искужина городского округа г. Уфа РБ"}],"total":30,"page":2,"limit":12,"pages":3}