{"events":[{"id":6339581,"title":"Показ фильма «Яга на нашу голову»","description":"Когда у десятилетнего Пети появляется новая воспитательница – странная и ворчливая, но невероятно обаятельная, – он быстро понимает, что она не такая, как все. Она – «няня под прикрытием», а на самом деле – Яга, легендарная волшебница, потерявшая свою ступу и спрятавшаяся среди людей. Теперь только Петя сможет помочь ей вернуть магические силы, а Яга – научить мальчика летать. И не только на ступе, но и по жизни. Режиссером картины является Александр Войтинский («По щучьему велению»). Главные роли исполнили Светлана Ходченкова и Юрий Колокольников.","age":6,"ageCategory":"6+","startDate":"12.11.2025","endDate":"16.11.2025","city":"Славгород","category":"Кино","isFree":false,"price":250,"image":"https:\/\/all.culture.ru\/uploads\/99848765da4fa48e734751e09e7377df.jpg","place":"Дом культуры г. Славгорода","address":"край Алтайский,г Славгород,ул К.Маркса,д 167","organizer":"МБУК «Городской Дом культуры города Славгорода»"},{"id":6339605,"title":"Показ фильма «Наш папа – Дед Мороз!»","description":" Федор – несостоявшийся актер, он пытается помочь своему младшему брату Никите снова научиться ходить. В костюме Деда Мороза Федор выезжает на заказы, надеясь собрать за праздники деньги на операцию. Он – самый грустный Дед Мороз на свете, потому что ко всем прочим неприятностям как раз перед Новым годом его бросила любимая девушка. И вот 31 декабря он звонит в очередную дверь очередной квартиры, чтобы подарить подарки от родителей очередной паре детишек. И тут начинается самое настоящее новогоднее волшебство. ","age":12,"ageCategory":"12+","startDate":"09.11.2025","endDate":"12.11.2025","city":"Екатеринбург","category":"Кино","isFree":false,"price":250,"image":"https:\/\/all.culture.ru\/uploads\/0c44e92d22772bba159be00ac537e401.png","place":"Кинотеатр «Премьер Зал Гранат»","address":"обл Свердловская,г Екатеринбург,ул Амундсена,стр 63","organizer":"ООО «ВЕКТОР-К»"},{"id":6339633,"title":"Показ фильма «Яга на нашу голову»","description":"Когда у десятилетнего Пети появляется новая воспитательница – странная и ворчливая, но невероятно обаятельная, – он быстро понимает, что она не такая, как все. Она – «няня под прикрытием», а на самом деле – Яга, легендарная волшебница, потерявшая свою ступу и спрятавшаяся среди людей. Теперь только Петя сможет помочь ей вернуть магические силы, а Яга – научить мальчика летать. И не только на ступе, но и по жизни. Режиссером картины является Александр Войтинский («По щучьему велению»). Главные роли исполнили Светлана Ходченкова и Юрий Колокольников.","age":6,"ageCategory":"6+","startDate":"12.11.2025","endDate":"03.12.2025","city":"Турочакский район","category":"Кино","isFree":false,"price":200,"image":"https:\/\/all.culture.ru\/uploads\/99848765da4fa48e734751e09e7377df.jpg","place":"Дом творчества и досуга с. Турочак","address":"Респ Алтай,р-н Турочакский,с Турочак,ул Советская,д 75","organizer":"МУК «Дом Творчества и Досуга» муниципального образования «Турочакский район» Республики Алтай"},{"id":6339650,"title":"Показ фильма «Наш папа – Дед Мороз!»","description":" Федор – несостоявшийся актер, он пытается помочь своему младшему брату Никите снова научиться ходить. В костюме Деда Мороза Федор выезжает на заказы, надеясь собрать за праздники деньги на операцию. Он – самый грустный Дед Мороз на свете, потому что ко всем прочим неприятностям как раз перед Новым годом его бросила любимая девушка. И вот 31 декабря он звонит в очередную дверь очередной квартиры, чтобы подарить подарки от родителей очередной паре детишек. И тут начинается самое настоящее новогоднее волшебство. ","age":12,"ageCategory":"12+","startDate":"09.11.2025","endDate":"12.11.2025","city":"Екатеринбург","category":"Кино","isFree":false,"price":250,"image":"https:\/\/all.culture.ru\/uploads\/0c44e92d22772bba159be00ac537e401.png","place":"Кинокультурный центр «Премьер Зал Омега»","address":"обл Свердловская,г Екатеринбург,пр-кт Космонавтов,стр 41","organizer":"ООО «КИНОМИР»"},{"id":6339656,"title":"Показ фильма «Яга на нашу голову»","description":"Когда у десятилетнего Пети появляется новая воспитательница – странная и ворчливая, но невероятно обаятельная, – он быстро понимает, что она не такая, как все. Она – «няня под прикрытием», а на самом деле – Яга, легендарная волшебница, потерявшая свою ступу и спрятавшаяся среди людей. Теперь только Петя сможет помочь ей вернуть магические силы, а Яга – научить мальчика летать. И не только на ступе, но и по жизни. Режиссером картины является Александр Войтинский («По щучьему велению»). Главные роли исполнили Светлана Ходченкова и Юрий Колокольников.","age":6,"ageCategory":"6+","startDate":"12.11.2025","endDate":"04.12.2025","city":"Ульяновский район","category":"Кино","isFree":false,"price":200,"image":"https:\/\/all.culture.ru\/uploads\/99848765da4fa48e734751e09e7377df.jpg","place":"Центр культуры и досуга п. Ишеевка","address":"обл Ульяновская,р-н Ульяновский,рп Ишеевка,ул Дачная,зд 5","organizer":"МУК «ЦКиД»"},{"id":6339672,"title":"Показ фильма «Наш папа – Дед Мороз!»","description":" Федор – несостоявшийся актер, он пытается помочь своему младшему брату Никите снова научиться ходить. В костюме Деда Мороза Федор выезжает на заказы, надеясь собрать за праздники деньги на операцию. Он – самый грустный Дед Мороз на свете, потому что ко всем прочим неприятностям как раз перед Новым годом его бросила любимая девушка. И вот 31 декабря он звонит в очередную дверь очередной квартиры, чтобы подарить подарки от родителей очередной паре детишек. И тут начинается самое настоящее новогоднее волшебство. ","age":12,"ageCategory":"12+","startDate":"09.11.2025","endDate":"12.11.2025","city":"Екатеринбург","category":"Кино","isFree":false,"price":250,"image":"https:\/\/all.culture.ru\/uploads\/0c44e92d22772bba159be00ac537e401.png","place":"Кинотеатр «Премьер Зал Парк Хаус»","address":"обл Свердловская,г Екатеринбург,ул Сулимова,стр 50","organizer":"АО Руссофильм"},{"id":6339681,"title":"Показ фильма «Яга на нашу голову»","description":"Когда у десятилетнего Пети появляется новая воспитательница – странная и ворчливая, но невероятно обаятельная, – он быстро понимает, что она не такая, как все. Она – «няня под прикрытием», а на самом деле – Яга, легендарная волшебница, потерявшая свою ступу и спрятавшаяся среди людей. Теперь только Петя сможет помочь ей вернуть магические силы, а Яга – научить мальчика летать. И не только на ступе, но и по жизни. Режиссером картины является Александр Войтинский («По щучьему велению»). Главные роли исполнили Светлана Ходченкова и Юрий Колокольников.","age":6,"ageCategory":"6+","startDate":"12.11.2025","endDate":"03.12.2025","city":"Белореченский район","category":"Кино","isFree":false,"price":200,"image":"https:\/\/all.culture.ru\/uploads\/99848765da4fa48e734751e09e7377df.jpg","place":"Сельский дом культуры «Октябрь»","address":"край Краснодарский,р-н Белореченский,с Великовечное,ул Ленина,д 50","organizer":"МБУ «Централизованный культурно-развлекательный центр»"},{"id":6339686,"title":"Показ фильма «Яга на нашу голову»","description":"Когда у десятилетнего Пети появляется новая воспитательница – странная и ворчливая, но невероятно обаятельная, – он быстро понимает, что она не такая, как все. Она – «няня под прикрытием», а на самом деле – Яга, легендарная волшебница, потерявшая свою ступу и спрятавшаяся среди людей. Теперь только Петя сможет помочь ей вернуть магические силы, а Яга – научить мальчика летать. И не только на ступе, но и по жизни. Режиссером картины является Александр Войтинский («По щучьему велению»). Главные роли исполнили Светлана Ходченкова и Юрий Колокольников.","age":6,"ageCategory":"6+","startDate":"12.11.2025","endDate":"26.11.2025","city":"Пестравский район","category":"Кино","isFree":false,"price":100,"image":"https:\/\/all.culture.ru\/uploads\/99848765da4fa48e734751e09e7377df.jpg","place":"Пестравский районный дом культуры","address":"обл Самарская,р-н Пестравский,с Пестравка,ул Крайнюковская,двлд 63","organizer":"МБУ «ЦРК»"},{"id":6339698,"title":"Показ мультфильма «Кролецып и Сурок Времени»","description":"Осознав, что непохожесть на других делает его уникальным, Кролецып — наполовину кролик, наполовину цыпленок — отправляется в новое путешествие. Вместе с друзьями — скунсом Мэг и саркастичной черепахой Эйбом — он ищет таинственного сурка, умеющего обращать время вспять. Их приключения принимают опасный оборот, когда выясняется, что Кролецып, Мэг и Эйб не единственные, кто ищет сурка.СценарийКрис Грайн, Дэйв КоллардПродюсерМатье Гондине, Матье Зеллер, Венсан ФильберВ главных ролях:Лайла БерзиньшДжо ОхманДжордан ТартаковКристофер Басс","age":6,"ageCategory":"6+","startDate":"09.11.2025","endDate":"19.11.2025","city":"Магадан","category":"Кино","isFree":false,"price":200,"image":"https:\/\/all.culture.ru\/uploads\/23dc4cc8a3208380c77b87f598b07d7b.jpg","place":"Кинотеатр «Горняк» г. Магадана","address":"обл Магаданская,г Магадан,пр-кт Ленина,д 19","organizer":"МАУК «Кинотеатр «Горняк»"},{"id":6339762,"title":"Показ фильма «Попутчики»","description":"Молодой программист Кирилл мечтает презентовать свой стартап влиятельному бизнесмену Олегу Потапову. Но вместо деловой встречи он оказывается втянут в опасную и комичную погоню. Потапов вместе с Катей убегают от преследователей и внезапно он принимает Кирилла за своего старого друга Сизого. Под градом пуль Потапов буквально сам втаскивает Кирилла в машину, и они вместе уезжают от преследователей.В процессе погони выясняется, что Потапов после травмы головы стал обладателем редкой формы амнезии: самого себя и мир вокруг он воспринимает так, как будто сейчас расцвет девяностых. Заместитель Потапова, Жаринов, нанял профессора Ельданцева и организатора ивентов Свидунова. Вместе они проводят для бизнесмена лечебный квест по методике Ельданцева, в рамках которого они полностью восстанавливают для Потапова события его приключений 90-х годов, когда у Потапова и его подельника Сизого хотели отжать бизнес бандиты. Теперь им предстоит окунуться в череду приключений.В главных роляхВиталий ХаевАлександра БортичФилипп ЕршовЯн ЦапникСергей РубекоДанила ЯкушевЕвгений МихеевЮрий Кузнецов","age":12,"ageCategory":"12+","startDate":"09.11.2025","endDate":"19.11.2025","city":"Магадан","category":"Кино","isFree":false,"price":200,"image":"https:\/\/all.culture.ru\/uploads\/b6a980dbfafe5a0cbeb227a28bebb5f9.jpg","place":"Кинотеатр «Горняк» г. Магадана","address":"обл Магаданская,г Магадан,пр-кт Ленина,д 19","organizer":"МАУК «Кинотеатр «Горняк»"},{"id":6339774,"title":"Показ фильма «Яга на нашу голову»","description":"Когда у десятилетнего Пети появляется новая воспитательница – странная и ворчливая, но невероятно обаятельная, – он быстро понимает, что она не такая, как все. Она – «няня под прикрытием», а на самом деле – Яга, легендарная волшебница, потерявшая свою ступу и спрятавшаяся среди людей. Теперь только Петя сможет помочь ей вернуть магические силы, а Яга – научить мальчика летать. И не только на ступе, но и по жизни. Режиссером картины является Александр Войтинский («По щучьему велению»). Главные роли исполнили Светлана Ходченкова и Юрий Колокольников.","age":6,"ageCategory":"6+","startDate":"12.11.2025","endDate":"03.12.2025","city":"Тутаевский район","category":"Кино","isFree":false,"price":220,"image":"https:\/\/all.culture.ru\/uploads\/99848765da4fa48e734751e09e7377df.jpg","place":"Кинотеатр «Экран»","address":"обл Ярославская,р-н Тутаевский,г Тутаев,ул Ушакова,д 64А","organizer":"Районный центр культуры и досуга"},{"id":6339791,"title":"Показ фильма «Яга на нашу голову»","description":"Когда у десятилетнего Пети появляется новая воспитательница – странная и ворчливая, но невероятно обаятельная, – он быстро понимает, что она не такая, как все. Она – «няня под прикрытием», а на самом деле – Яга, легендарная волшебница, потерявшая свою ступу и спрятавшаяся среди людей. Теперь только Петя сможет помочь ей вернуть магические силы, а Яга – научить мальчика летать. И не только на ступе, но и по жизни. Режиссером картины является Александр Войтинский («По щучьему велению»). Главные роли исполнили Светлана Ходченкова и Юрий Колокольников.","age":6,"ageCategory":"6+","startDate":"12.11.2025","endDate":"19.11.2025","city":"Майнский район","category":"Кино","isFree":false,"price":200,"image":"https:\/\/all.culture.ru\/uploads\/99848765da4fa48e734751e09e7377df.jpg","place":"Майнский центр культуры","address":"обл Ульяновская,р-н Майнский,рп Майна,ул Советская,д 2","organizer":"МУК «Майнский межпоселенческий Центр культуры»"}],"total":98,"page":11,"limit":12,"pages":9}