{"events":[{"id":6339791,"title":"Показ фильма «Яга на нашу голову»","description":"Когда у десятилетнего Пети появляется новая воспитательница – странная и ворчливая, но невероятно обаятельная, – он быстро понимает, что она не такая, как все. Она – «няня под прикрытием», а на самом деле – Яга, легендарная волшебница, потерявшая свою ступу и спрятавшаяся среди людей. Теперь только Петя сможет помочь ей вернуть магические силы, а Яга – научить мальчика летать. И не только на ступе, но и по жизни. Режиссером картины является Александр Войтинский («По щучьему велению»). Главные роли исполнили Светлана Ходченкова и Юрий Колокольников.","age":6,"ageCategory":"6+","startDate":"12.11.2025","endDate":"19.11.2025","city":"Майнский район","category":"Кино","isFree":false,"price":200,"image":"https:\/\/all.culture.ru\/uploads\/99848765da4fa48e734751e09e7377df.jpg","place":"Майнский центр культуры","address":"обл Ульяновская,р-н Майнский,рп Майна,ул Советская,д 2","organizer":"МУК «Майнский межпоселенческий Центр культуры»"},{"id":6339796,"title":"Показ фильма «Яга на нашу голову»","description":"Когда у десятилетнего Пети появляется новая воспитательница – странная и ворчливая, но невероятно обаятельная, – он быстро понимает, что она не такая, как все. Она – «няня под прикрытием», а на самом деле – Яга, легендарная волшебница, потерявшая свою ступу и спрятавшаяся среди людей. Теперь только Петя сможет помочь ей вернуть магические силы, а Яга – научить мальчика летать. И не только на ступе, но и по жизни. Режиссером картины является Александр Войтинский («По щучьему велению»). Главные роли исполнили Светлана Ходченкова и Юрий Колокольников.","age":6,"ageCategory":"6+","startDate":"12.11.2025","endDate":"10.12.2025","city":"Калачинский район","category":"Кино","isFree":false,"price":200,"image":"https:\/\/all.culture.ru\/uploads\/99848765da4fa48e734751e09e7377df.jpg","place":"Центр культурного развития им. Ф. А. Мазуренко","address":"обл Омская,р-н Калачинский,г Калачинск,ул Михаила Зябкина,д 2","organizer":"МБУК «Межпоселенческий культурно-досуговый центр»"},{"id":6339813,"title":"Показ фильма «Яга на нашу голову»","description":"Когда у десятилетнего Пети появляется новая воспитательница – странная и ворчливая, но невероятно обаятельная, – он быстро понимает, что она не такая, как все. Она – «няня под прикрытием», а на самом деле – Яга, легендарная волшебница, потерявшая свою ступу и спрятавшаяся среди людей. Теперь только Петя сможет помочь ей вернуть магические силы, а Яга – научить мальчика летать. И не только на ступе, но и по жизни. Режиссером картины является Александр Войтинский («По щучьему велению»). Главные роли исполнили Светлана Ходченкова и Юрий Колокольников.","age":6,"ageCategory":"6+","startDate":"12.11.2025","endDate":"03.12.2025","city":"Пышминский","category":"Кино","isFree":false,"price":250,"image":"https:\/\/all.culture.ru\/uploads\/99848765da4fa48e734751e09e7377df.jpg","place":"Ощепковский дом культуры","address":"обл Свердловская,р-н Пышминский,пгт Пышма,ул Красных Путиловцев,д 19","organizer":"МБУ Пышминского городского округа «Центр культуры и досуга»"},{"id":6339821,"title":"Показ фильма «Яга на нашу голову»","description":"Когда у десятилетнего Пети появляется новая воспитательница – странная и ворчливая, но невероятно обаятельная, – он быстро понимает, что она не такая, как все. Она – «няня под прикрытием», а на самом деле – Яга, легендарная волшебница, потерявшая свою ступу и спрятавшаяся среди людей. Теперь только Петя сможет помочь ей вернуть магические силы, а Яга – научить мальчика летать. И не только на ступе, но и по жизни. Режиссером картины является Александр Войтинский («По щучьему велению»). Главные роли исполнили Светлана Ходченкова и Юрий Колокольников.","age":6,"ageCategory":"6+","startDate":"12.11.2025","endDate":"23.11.2025","city":"Сладковский район","category":"Кино","isFree":false,"price":200,"image":"https:\/\/all.culture.ru\/uploads\/99848765da4fa48e734751e09e7377df.jpg","place":"Сладковский районный дом культуры","address":"обл Тюменская,р-н Сладковский,с Сладково,ул Ленина,д 86","organizer":"МАУК «Овация» Сладковского района"},{"id":6339839,"title":"Показ фильма «Мой друг, кот и Пушкин»","description":" 12-летняя московская школьница Милана пишет стихи, но страх публичных выступлений не позволяет ей читать свои произведения, и даже мама скептически относится к поэтическому таланту дочери. Милана хочет выиграть всероссийский конкурс рэп-дуэлей по роману «Евгений Онегин», чтобы мама поверила в нее и отказалась от работы в Китае. Для победы Милане придется не только преодолеть страх сцены, но и справиться с коварной соперницей. Помогать Милане будет черный кот, в котором живет душа хулигана Саши Пушкина. ","age":6,"ageCategory":"6+","startDate":"09.11.2025","endDate":"30.11.2025","city":"Ульяновск","category":"Кино","isFree":false,"price":150,"image":"https:\/\/all.culture.ru\/uploads\/e014a42cbcaa0da4826567a15668e10c.jpg","place":"Киномобиль","address":"обл Ульяновская,г Ульяновск,ул Радищева,д 148","organizer":"ОГАУК «УльяновскКинофонд»"},{"id":6339845,"title":"Показ фильма «Яга на нашу голову»","description":"Когда у десятилетнего Пети появляется новая воспитательница – странная и ворчливая, но невероятно обаятельная, – он быстро понимает, что она не такая, как все. Она – «няня под прикрытием», а на самом деле – Яга, легендарная волшебница, потерявшая свою ступу и спрятавшаяся среди людей. Теперь только Петя сможет помочь ей вернуть магические силы, а Яга – научить мальчика летать. И не только на ступе, но и по жизни. Режиссером картины является Александр Войтинский («По щучьему велению»). Главные роли исполнили Светлана Ходченкова и Юрий Колокольников.","age":6,"ageCategory":"6+","startDate":"12.11.2025","endDate":"03.12.2025","city":"Тяжинский район","category":"Кино","isFree":false,"price":300,"image":"https:\/\/all.culture.ru\/uploads\/99848765da4fa48e734751e09e7377df.jpg","place":"Дом культуры «Юбилейный» пгт Тяжинского","address":"обл Кемеровская,р-н Тяжинский,пгт Тяжинский,ул Ленина,д 21Е","organizer":"МБУК ДК «Юбилейный»"},{"id":6339853,"title":"Показ фильма «Яга на нашу голову»","description":"Когда у десятилетнего Пети появляется новая воспитательница – странная и ворчливая, но невероятно обаятельная, – он быстро понимает, что она не такая, как все. Она – «няня под прикрытием», а на самом деле – Яга, легендарная волшебница, потерявшая свою ступу и спрятавшаяся среди людей. Теперь только Петя сможет помочь ей вернуть магические силы, а Яга – научить мальчика летать. И не только на ступе, но и по жизни. Режиссером картины является Александр Войтинский («По щучьему велению»). Главные роли исполнили Светлана Ходченкова и Юрий Колокольников.","age":6,"ageCategory":"6+","startDate":"12.11.2025","endDate":"10.12.2025","city":"Тюмень","category":"Кино","isFree":false,"price":120,"image":"https:\/\/all.culture.ru\/uploads\/99848765da4fa48e734751e09e7377df.jpg","place":"Кинотеатр «Премьер»","address":"обл Тюменская,г Тюмень,ул 50 лет ВЛКСМ,д 63","organizer":"ООО «Интеркино-Тюмень»"},{"id":6339879,"title":"Показ фильма «Яга на нашу голову»","description":"Когда у десятилетнего Пети появляется новая воспитательница – странная и ворчливая, но невероятно обаятельная, – он быстро понимает, что она не такая, как все. Она – «няня под прикрытием», а на самом деле – Яга, легендарная волшебница, потерявшая свою ступу и спрятавшаяся среди людей. Теперь только Петя сможет помочь ей вернуть магические силы, а Яга – научить мальчика летать. И не только на ступе, но и по жизни. Режиссером картины является Александр Войтинский («По щучьему велению»). Главные роли исполнили Светлана Ходченкова и Юрий Колокольников.","age":6,"ageCategory":"6+","startDate":"12.11.2025","endDate":"27.11.2025","city":"Челябинск","category":"Кино","isFree":false,"price":150,"image":"https:\/\/all.culture.ru\/uploads\/99848765da4fa48e734751e09e7377df.jpg","place":"Киноцентр «Импульс»","address":"обл Челябинская,г Челябинск,ул 50-летия ВЛКСМ,д 16","organizer":"МБУК Киноцентр «Импульс»"},{"id":6339892,"title":"Показ фильма «Яга на нашу голову»","description":"Когда у десятилетнего Пети появляется новая воспитательница – странная и ворчливая, но невероятно обаятельная, – он быстро понимает, что она не такая, как все. Она – «няня под прикрытием», а на самом деле – Яга, легендарная волшебница, потерявшая свою ступу и спрятавшаяся среди людей. Теперь только Петя сможет помочь ей вернуть магические силы, а Яга – научить мальчика летать. И не только на ступе, но и по жизни. Режиссером картины является Александр Войтинский («По щучьему велению»). Главные роли исполнили Светлана Ходченкова и Юрий Колокольников.","age":6,"ageCategory":"6+","startDate":"12.11.2025","endDate":"16.11.2025","city":"Лукояновский район","category":"Кино","isFree":false,"price":200,"image":"https:\/\/all.culture.ru\/uploads\/99848765da4fa48e734751e09e7377df.jpg","place":"Центр культурного развития г. Лукоянова","address":"обл Нижегородская,р-н Лукояновский,г Лукоянов,пл Мира,д 9","organizer":"МАУ «ЦКР»"},{"id":6339899,"title":"Показ фильма «Яга на нашу голову»","description":"Когда у десятилетнего Пети появляется новая воспитательница – странная и ворчливая, но невероятно обаятельная, – он быстро понимает, что она не такая, как все. Она – «няня под прикрытием», а на самом деле – Яга, легендарная волшебница, потерявшая свою ступу и спрятавшаяся среди людей. Теперь только Петя сможет помочь ей вернуть магические силы, а Яга – научить мальчика летать. И не только на ступе, но и по жизни. Режиссером картины является Александр Войтинский («По щучьему велению»). Главные роли исполнили Светлана Ходченкова и Юрий Колокольников.","age":6,"ageCategory":"6+","startDate":"12.11.2025","endDate":"23.11.2025","city":"Некрасовский район","category":"Кино","isFree":false,"price":200,"image":"https:\/\/all.culture.ru\/uploads\/99848765da4fa48e734751e09e7377df.jpg","place":"Некрасовский районный дом культуры","address":"обл Ярославская,р-н Некрасовский,рп Некрасовское,ул Пролетарская,д 2","organizer":"МБУ «Районный Дом культуры Некрасовского муниципального района»"},{"id":6339931,"title":"Показ фильма «Яга на нашу голову»","description":"Когда у десятилетнего Пети появляется новая воспитательница – странная и ворчливая, но невероятно обаятельная, – он быстро понимает, что она не такая, как все. Она – «няня под прикрытием», а на самом деле – Яга, легендарная волшебница, потерявшая свою ступу и спрятавшаяся среди людей. Теперь только Петя сможет помочь ей вернуть магические силы, а Яга – научить мальчика летать. И не только на ступе, но и по жизни. Режиссером картины является Александр Войтинский («По щучьему велению»). Главные роли исполнили Светлана Ходченкова и Юрий Колокольников.","age":6,"ageCategory":"6+","startDate":"12.11.2025","endDate":"26.11.2025","city":"Реж","category":"Кино","isFree":false,"price":300,"image":"https:\/\/all.culture.ru\/uploads\/99848765da4fa48e734751e09e7377df.jpg","place":"Дворец культуры «Металлург» им. А. А. Ферштатера","address":"обл Свердловская,р-н Режевской,г Реж,ул Костоусова,д 82","organizer":"МБУК Дворец культуры «Металлург» имени Ферштатера Асира Абрамовича"},{"id":6339937,"title":"Показ фильма «Наш папа – Дед Мороз!»","description":" Федор – несостоявшийся актер, он пытается помочь своему младшему брату Никите снова научиться ходить. В костюме Деда Мороза Федор выезжает на заказы, надеясь собрать за праздники деньги на операцию. Он – самый грустный Дед Мороз на свете, потому что ко всем прочим неприятностям как раз перед Новым годом его бросила любимая девушка. И вот 31 декабря он звонит в очередную дверь очередной квартиры, чтобы подарить подарки от родителей очередной паре детишек. И тут начинается самое настоящее новогоднее волшебство. ","age":12,"ageCategory":"12+","startDate":"09.11.2025","endDate":"12.11.2025","city":"Челябинск","category":"Кино","isFree":false,"price":180,"image":"https:\/\/all.culture.ru\/uploads\/0c44e92d22772bba159be00ac537e401.png","place":"Кинотеатр «Киномакс-Урал»","address":"обл Челябинская,г Челябинск,ул Воровского,д 6","organizer":"ООО «УМ «Школьник»"}],"total":99,"page":19,"limit":12,"pages":9}