{"events":[{"id":6339940,"title":"Просмотр документального фильма к дню неизвестного солдата","description":"3 декабря в Октябрьском Доме культуры пройдет показ документального фильма \"Неизвестный солдат\".  3 декабря в России отмечают День неизвестного солдата. Этот памятный день призван увековечить память, воинскую доблесть и бессмертный подвиг советских и российских воинов, которые погибли в боевых действиях и чьи имена остались неизвестными. Ежегодно, во всех уголках нашей большой страны, чтят память павших защитников Родины, возлагают цветы к братским могилам, памятникам и мемориалам. Курский кинофонд предлагает нашим зрителям не оставаться равнодушными и присоединиться к празднованию этой памятной даты.В отечественном кинематографе особое место занимают фильмы о войне. Современные режиссеры продолжают снимать киноленты о героических подвигах, мужестве миллионов солдат, отдавших свои жизни за светлое будущее нашей Родины, благодаря этим картинам мы сохраняем память о них и понимаем, что их жертвы были не напрасны.   ","age":6,"ageCategory":"6+","startDate":"03.12.2025","endDate":"03.12.2025","city":"Чунский район","category":"Кино","isFree":true,"price":"","image":"https:\/\/all.culture.ru\/uploads\/ee8b7d4fad64c254807e2f610ba23b94.jpeg","place":"Культурно-спортивный центр п. Октябрьского","address":"обл Иркутская,р-н Чунский,рп Октябрьский,ул Декабристов,д 7","organizer":"МБУ «Культурно-спортивный центр»"},{"id":6339946,"title":"Показ фильма «Яга на нашу голову»","description":"Когда у десятилетнего Пети появляется новая воспитательница – странная и ворчливая, но невероятно обаятельная, – он быстро понимает, что она не такая, как все. Она – «няня под прикрытием», а на самом деле – Яга, легендарная волшебница, потерявшая свою ступу и спрятавшаяся среди людей. Теперь только Петя сможет помочь ей вернуть магические силы, а Яга – научить мальчика летать. И не только на ступе, но и по жизни. Режиссером картины является Александр Войтинский («По щучьему велению»). Главные роли исполнили Светлана Ходченкова и Юрий Колокольников.","age":6,"ageCategory":"6+","startDate":"12.11.2025","endDate":"26.11.2025","city":"Кильмезский район","category":"Кино","isFree":false,"price":150,"image":"https:\/\/all.culture.ru\/uploads\/99848765da4fa48e734751e09e7377df.jpg","place":"Центр культуры и досуга Кильмезского района","address":"обл Кировская,р-н Кильмезский,пгт Кильмезь,ул Советская,д 86","organizer":"МБУ «Районный центр культуры и досуга» Кильмезкого района"},{"id":6339966,"title":"Показ фильма «Яга на нашу голову»","description":"Когда у десятилетнего Пети появляется новая воспитательница – странная и ворчливая, но невероятно обаятельная, – он быстро понимает, что она не такая, как все. Она – «няня под прикрытием», а на самом деле – Яга, легендарная волшебница, потерявшая свою ступу и спрятавшаяся среди людей. Теперь только Петя сможет помочь ей вернуть магические силы, а Яга – научить мальчика летать. И не только на ступе, но и по жизни. Режиссером картины является Александр Войтинский («По щучьему велению»). Главные роли исполнили Светлана Ходченкова и Юрий Колокольников.","age":6,"ageCategory":"6+","startDate":"12.11.2025","endDate":"07.12.2025","city":"Кинель","category":"Кино","isFree":false,"price":300,"image":"https:\/\/all.culture.ru\/uploads\/99848765da4fa48e734751e09e7377df.jpg","place":"Дом культуры г. Кинель","address":"обл Самарская,г Кинель,ул Мира,д 42","organizer":"МАУК городского округа Кинель Самарской области «Городской дом культуры»"},{"id":6339994,"title":"Показ фильма «Яга на нашу голову»","description":"Когда у десятилетнего Пети появляется новая воспитательница – странная и ворчливая, но невероятно обаятельная, – он быстро понимает, что она не такая, как все. Она – «няня под прикрытием», а на самом деле – Яга, легендарная волшебница, потерявшая свою ступу и спрятавшаяся среди людей. Теперь только Петя сможет помочь ей вернуть магические силы, а Яга – научить мальчика летать. И не только на ступе, но и по жизни. Режиссером картины является Александр Войтинский («По щучьему велению»). Главные роли исполнили Светлана Ходченкова и Юрий Колокольников.","age":6,"ageCategory":"6+","startDate":"12.11.2025","endDate":"19.11.2025","city":"Челябинск","category":"Кино","isFree":false,"price":180,"image":"https:\/\/all.culture.ru\/uploads\/99848765da4fa48e734751e09e7377df.jpg","place":"Кинотеатр «Киномакс-Урал»","address":"обл Челябинская,г Челябинск,ул Воровского,д 6","organizer":"ООО «УМ «Школьник»"},{"id":6340009,"title":"Показ фильма «Яга на нашу голову»","description":"Когда у десятилетнего Пети появляется новая воспитательница – странная и ворчливая, но невероятно обаятельная, – он быстро понимает, что она не такая, как все. Она – «няня под прикрытием», а на самом деле – Яга, легендарная волшебница, потерявшая свою ступу и спрятавшаяся среди людей. Теперь только Петя сможет помочь ей вернуть магические силы, а Яга – научить мальчика летать. И не только на ступе, но и по жизни. Режиссером картины является Александр Войтинский («По щучьему велению»). Главные роли исполнили Светлана Ходченкова и Юрий Колокольников.","age":6,"ageCategory":"6+","startDate":"12.11.2025","endDate":"04.12.2025","city":"Курган","category":"Кино","isFree":false,"price":180,"image":"https:\/\/all.culture.ru\/uploads\/99848765da4fa48e734751e09e7377df.jpg","place":"Кинотеатр «Пушка» г. Кургана","address":"обл Курганская,г Курган,ул Пушкина,д 25","organizer":"ООО «Компания «Крым»"},{"id":6340019,"title":"Показ фильма «Яга на нашу голову»","description":"Когда у десятилетнего Пети появляется новая воспитательница – странная и ворчливая, но невероятно обаятельная, – он быстро понимает, что она не такая, как все. Она – «няня под прикрытием», а на самом деле – Яга, легендарная волшебница, потерявшая свою ступу и спрятавшаяся среди людей. Теперь только Петя сможет помочь ей вернуть магические силы, а Яга – научить мальчика летать. И не только на ступе, но и по жизни. Режиссером картины является Александр Войтинский («По щучьему велению»). Главные роли исполнили Светлана Ходченкова и Юрий Колокольников.","age":6,"ageCategory":"6+","startDate":"12.11.2025","endDate":"16.11.2025","city":"Некоузский район","category":"Кино","isFree":false,"price":180,"image":"https:\/\/all.culture.ru\/uploads\/99848765da4fa48e734751e09e7377df.jpg","place":"Некоузский культурно-досуговый центр","address":"обл Ярославская,р-н Некоузский,с Новый Некоуз,ул Советская,д 19","organizer":"МУК Некоузский культурно-досуговый центр"},{"id":6340041,"title":"Показ фильма «Яга на нашу голову»","description":"Когда у десятилетнего Пети появляется новая воспитательница – странная и ворчливая, но невероятно обаятельная, – он быстро понимает, что она не такая, как все. Она – «няня под прикрытием», а на самом деле – Яга, легендарная волшебница, потерявшая свою ступу и спрятавшаяся среди людей. Теперь только Петя сможет помочь ей вернуть магические силы, а Яга – научить мальчика летать. И не только на ступе, но и по жизни. Режиссером картины является Александр Войтинский («По щучьему велению»). Главные роли исполнили Светлана Ходченкова и Юрий Колокольников.","age":6,"ageCategory":"6+","startDate":"09.11.2025","endDate":"26.02.2026","city":"Свердловская область","category":"Кино","isFree":false,"price":300,"image":"https:\/\/all.culture.ru\/uploads\/99848765da4fa48e734751e09e7377df.jpg","place":"Центр культуры и кино «Родина»","address":"обл Свердловская,р-н Артемовский,п Буланаш,пл Театральная,стр 1А","organizer":"МБУК Артемовского городского округа Центр культуры и кино «Родина»"},{"id":6340048,"title":"Кинопоказ семейной комедии «Моё собачье дело»","description":"  Михаил — бывший конструктор самолетов, а ныне просто дедушка. Однажды 31 декабря они с внуком Сережей подбирают пса, который прятался от новогодних салютов, и называют Стёпкой. Внука забирают родители, и вскоре Михаилу становится плохо. Теперь у Стёпки есть совсем немного времени, чтобы позвать на помощь и спасти жизнь хозяину. Но сделать это очень трудно, ведь никто из людей не знает собачьего языка. Единственный выход — найти Сережу, который, как кажется Степке, понимает его. И тогда четырехлапый герой отправляется на другой конец города навстречу невероятным приключениям.  ","age":6,"ageCategory":"6+","startDate":"22.11.2025","endDate":"22.11.2025","city":"Златоуст","category":"Кино","isFree":false,"price":100,"image":"https:\/\/all.culture.ru\/uploads\/2b6ca413230bc46609e4db8d0d12c735.jpg","place":"Дворец культуры «Железнодорожник» г. Златоуста","address":"обл Челябинская,г Златоуст,ул им. П.П.Аносова,д 261","organizer":"МАУК «Дворец культуры «Железнодорожник» Златоустовского городского округа"},{"id":6340057,"title":"Субботний кинопоказ «Мультпарк»","description":"13 декабря в Октябрьском Доме культуры пройдет показ мультфильма.Для детей попкорн и сладкая  вата.  Ганзель и Гретель — лучшие агенты Отдела магической безопасности, которым поручают необычное дело: расколдовать принцессу без поцелуя прекрасного принца. Король и королева не верят в сказки и требуют немедленного решения. Чтобы снять проклятие, брат и сестра должны отыскать злую ведьму и заставить её раскрыть секрет чар. Но чем глубже они погружаются в расследование, тем отчетливее понимают, что справиться с заданием будет очень и очень непросто.  ","age":6,"ageCategory":"6+","startDate":"13.12.2025","endDate":"13.12.2025","city":"Чунский район","category":"Кино","isFree":true,"price":"","image":"https:\/\/all.culture.ru\/uploads\/b57f231ad0973098c55736e52d6ded69.jpg","place":"Культурно-спортивный центр п. Октябрьского","address":"обл Иркутская,р-н Чунский,рп Октябрьский,ул Декабристов,д 7","organizer":"МБУ «Культурно-спортивный центр»"},{"id":6340069,"title":"Показ фильма «Яга на нашу голову»","description":"Когда у десятилетнего Пети появляется новая воспитательница – странная и ворчливая, но невероятно обаятельная, – он быстро понимает, что она не такая, как все. Она – «няня под прикрытием», а на самом деле – Яга, легендарная волшебница, потерявшая свою ступу и спрятавшаяся среди людей. Теперь только Петя сможет помочь ей вернуть магические силы, а Яга – научить мальчика летать. И не только на ступе, но и по жизни. Режиссером картины является Александр Войтинский («По щучьему велению»). Главные роли исполнили Светлана Ходченкова и Юрий Колокольников.","age":6,"ageCategory":"6+","startDate":"12.11.2025","endDate":"03.12.2025","city":"Динской район","category":"Кино","isFree":false,"price":200,"image":"https:\/\/all.culture.ru\/uploads\/99848765da4fa48e734751e09e7377df.jpg","place":"Кинотеатр «40 лет Победы»","address":"край Краснодарский,р-н Динской,ст-ца Динская,ул Красная,д 75","organizer":"БУК МО «Районный киноцентр»"},{"id":6340093,"title":"Показ фильма «Яга на нашу голову»","description":"Когда у десятилетнего Пети появляется новая воспитательница – странная и ворчливая, но невероятно обаятельная, – он быстро понимает, что она не такая, как все. Она – «няня под прикрытием», а на самом деле – Яга, легендарная волшебница, потерявшая свою ступу и спрятавшаяся среди людей. Теперь только Петя сможет помочь ей вернуть магические силы, а Яга – научить мальчика летать. И не только на ступе, но и по жизни. Режиссером картины является Александр Войтинский («По щучьему велению»). Главные роли исполнили Светлана Ходченкова и Юрий Колокольников.","age":6,"ageCategory":"6+","startDate":"12.11.2025","endDate":"10.12.2025","city":"Саргатский район","category":"Кино","isFree":false,"price":130,"image":"https:\/\/all.culture.ru\/uploads\/99848765da4fa48e734751e09e7377df.jpg","place":"Саргатский районный дом культуры","address":"обл Омская,р-н Саргатский,рп Саргатское,ул Октябрьская,д 12","organizer":"МБУК «Саргатская ЦКС»"},{"id":6340097,"title":"Показ фильма «Яга на нашу голову»","description":"Когда у десятилетнего Пети появляется новая воспитательница – странная и ворчливая, но невероятно обаятельная, – он быстро понимает, что она не такая, как все. Она – «няня под прикрытием», а на самом деле – Яга, легендарная волшебница, потерявшая свою ступу и спрятавшаяся среди людей. Теперь только Петя сможет помочь ей вернуть магические силы, а Яга – научить мальчика летать. И не только на ступе, но и по жизни. Режиссером картины является Александр Войтинский («По щучьему велению»). Главные роли исполнили Светлана Ходченкова и Юрий Колокольников.","age":6,"ageCategory":"6+","startDate":"12.11.2025","endDate":"19.11.2025","city":"Ряжский район","category":"Кино","isFree":false,"price":300,"image":"https:\/\/all.culture.ru\/uploads\/99848765da4fa48e734751e09e7377df.jpg","place":"Ряжский дом культуры","address":"обл Рязанская,р-н Ряжский,г Ряжск,ул Карла Маркса,д 34","organizer":"МБУК «Ряжский РДК»"}],"total":100,"page":20,"limit":12,"pages":9}