{"events":[{"id":6340668,"title":"День рождения Волшебника","description":"  Дед Мороз — главный зимний волшебник России. В Новый год он приносит детям подарки, исполняет желания и создает атмосферу праздника. Но мало кто знает, что у любимого волшебника есть день рождения. Рассказываем, какого числа его поздравлять, где он живет и как этот день отмечают в России.   День рождения Деда Мороза в России отмечают 18 ноября. В 2025 году праздник выпадает на вторник. В это время в большинстве регионов России наступает настоящая зима: холодает, ложится первый снег, и воздух наполняется волшебством. День считается началом зимнего сезона. так давайте и мы поздравим его с днем его рождения,вспомним все песни посвященные Деду Морозу.","age":0,"ageCategory":"0+","startDate":"18.11.2025","endDate":"18.11.2025","city":"Буинский район","category":"Встречи","isFree":true,"price":"","image":"https:\/\/all.culture.ru\/uploads\/687122d8374abadb1b6bc83664c714bb.jpeg","place":"Сельский дом культуры с. Мокрая Савалеевка","address":"Респ Татарстан,р-н Буинский,с Мокрая Савалеевка,ул Молодежная,д 49","organizer":"МБУ «Районный Дом культуры» Буинского МР"},{"id":6340669,"title":"Час толерантности «Дай сердца твоего коснуться сердцем»","description":"  В МКУК\"Новокучерлинский ЦКиД\" ТМО СК пройдёт час толерантности посвященный международному дню толерантности.  Ребята сформируют представление о толерантности как важной социальной ценности,  будут развивать эмпатию и навыки уважительного взаимодействия с людьми, отличающимися по мировоззрению, культуре, внешности или жизненному опыту.  Познакомятся и с понятиями: толерантность, толерантное отношение, сочувствие, сострадание, милосердие, доброта. Обсудят то, что люди все разные, у каждого есть свои особенности, не говоря уже о внутреннем мире каждого человека. Поразмышляют над тем, что такое дружба, уважение, терпимость и какие добрые дела и поступки могут они совершить.  ","age":12,"ageCategory":"12+","startDate":"16.11.2025","endDate":"16.11.2025","city":"Туркменский район","category":"Встречи","isFree":true,"price":"","image":"https:\/\/all.culture.ru\/uploads\/53955421fc0b7c626bd481933f5137ea.jpeg","place":"Новокучерлинский центр культуры и досуга","address":"край Ставропольский,р-н Туркменский,п Ясный,ул Школьная,д 4","organizer":"МКУК «Новокучерлинский ЦКиД»"},{"id":6340670,"title":"Встреча «Осторожно, экстремизм»","description":"Работники Чащинского     сельского Дома культуры подготовили программу, информирующую об опасности представления экстремистской и террористической деятельности в сети Интернет.     Мероприятие подготовлено для того, чтобы проинформировать подростков об     ответственности за участие в этих деятельностях, показать опасность и сформировать отрицательное отношение к экстремизму и терроризму, показать важность     уважительного отношения к людям независимо от их этнической, культурной или     религиозной принадлежности.","age":6,"ageCategory":"6+","startDate":"16.11.2025","endDate":"16.11.2025","city":"Нолинский район","category":"Встречи","isFree":true,"price":"","image":"https:\/\/all.culture.ru\/uploads\/c1eb8c28e2a446a00cc6b86d39b9922a.jpg","place":"Чащинский сельский дом культуры","address":"обл Кировская,р-н Нолинский,д Чащино,ул Первомайская,д 16","organizer":"МКУК «Централизованная клубная система» Нолинского района"},{"id":6340671,"title":"День Акварели.","description":"День Акварели 23 ноября. Акварель переводится с французского языка как«водянистая». Действительно акварельные краски такие легкие и полупрозрачные, потому что растворителем для них служит вода. Во время мероприятия будет предложено ребятам нарисовать акварелью разноцветный зимний пейзаж. Научатся изображать акварельными красками переливающийся разными оттенками снег, передать с помощью акварели его красоту и сказочность. Нарисуют деревья разных пород, а с помощью акварели передадут красоту снежной зимы. После проведем различные конкурсы, загадывать загадки.","age":6,"ageCategory":"6+","startDate":"23.11.2025","endDate":"23.11.2025","city":"Мечетлинский район","category":"Прочие","isFree":true,"price":"","image":"https:\/\/all.culture.ru\/uploads\/389bd42cbbd8cbb041ac78349f210bc0.jpeg","place":"Степной сельский клуб","address":"Респ Башкортостан,р-н Мечетлинский,д Степной,ул Советская,д 27","organizer":"МАУ «Районный дом культуры» МР Мечетлинский район РБ"},{"id":6340672,"title":"Тематическая беседа","description":"В Старокаширском сельском доме культуры пройдет тематическая беседа ко Дню доброты посвящённые одному из самых добрых праздников, Всемирному дню доброты! Этот день стал еще одним поводом напомнить детям о важности и необходимости доброты. Всемирный день доброты и вежливости – это особый день, когда люди по всему миру призываются быть добрее и вежливее друг к другу.Пусть все окружающие люди излучают добро, и пусть будут в радость добрые дела. Пусть вокруг звучат только добрые слова, а в сердце ярким цветком распускается доброта!!!  ","age":16,"ageCategory":"16+","startDate":"18.11.2025","endDate":"18.11.2025","city":"Сармановский район","category":"Прочие","isFree":true,"price":"","image":"https:\/\/all.culture.ru\/uploads\/656c58bbdf3b1b406218eeb4e8bd8de4.jpg","place":"Старокаширский сельский дом культуры","address":"Респ Татарстан,р-н Сармановский,с Старый Кашир,ул Комсомола,д 4А","organizer":"МБУ Сармановского муниципального района «Централизованная клубная система» (Районный дом культуры)"},{"id":6340673,"title":"Музыкальный вечер","description":"Адаевском СК пройдет музыкальный вечер. Прозвучат различные жанры песен и исполнители. Во время музыкальной программы гостям предложат поучаствовать в разных викторинах и конкурсах. Угадать эстрадного певца по исполняющим его песням, назвать песню по звучавшей мелодии, угадать мелодию по тексту, отгадать загадки связанные с музыкальными инструментами. Литературно- музыкальный вечер «А музыка звучит» пройдет в теплой, веселой и музыкальной атмосфере. Вечер завершится чаепитием и приятной беседой.","age":12,"ageCategory":"12+","startDate":"22.11.2025","endDate":"22.11.2025","city":"Кукморский район","category":"Прочие","isFree":true,"price":"","image":"https:\/\/all.culture.ru\/uploads\/3ce43fb418e2bd5a817c07247f454cb2.jpg","place":"Адаевский сельский клуб","address":"Респ Татарстан,р-н Кукморский,с Адаево,ул Центральная,влд 4","organizer":"МБУ «Районный дом культуры» Кукморского муниципального района"},{"id":6340674,"title":"Выставка «Король приключений Роберт Льюис Стивенсон»","description":"Читатели смогут познакомиться с историко-приключенческими, фантастическо-психологическими произведениями Льюиса Стивенсона на языке оригинала, а также в переводе на немецкий и русский язык. Представлены первые творческие работы, очерки о его путешествиях по Франции, первые успешные работы на английском языке и в переводах. Книги биографического характера раскрывают тайны жизни писателя, особенности характера и сложности судьбы. Отдельное внимание уделено дневнику его жены Фанни «Четыре года на Самоа», который считается особенно трогательным. Юных читателей может заинтересовать сборник стихотворений «Свистульки», написанный Стивенсоном под впечатлением от детских воспоминаний. В России он был издан в 1920 году в сокращенном варианте под названием «Детский цветник стихов» и стал классикой английской поэзии для детей. ","age":12,"ageCategory":"12+","startDate":"15.11.2025","endDate":"25.11.2025","city":"Владимир","category":"Выставки","isFree":true,"price":"","image":"https:\/\/all.culture.ru\/uploads\/2f07f262d6f457e31fd8a3cc727a3855.jpg","place":"Владимирская областная научная библиотека","address":"обл Владимирская,г Владимир,ул Дзержинского,д 3","organizer":"ГБУК «Владимирская областная научная библиотека»"},{"id":6340675,"title":"«Тепло маминых рук»","description":"  Мастер-класс заключается в обучении участников основам изготовления традиционных русских тряпичных кукол вручную. Желающие смогут создать собственную уникальную куклу, вложив в нее тепло рук и добрую энергию. Подарок станет прекрасным символом заботы и любви, которую дети хотят выразить своим мамам.   Участники познакомятся с историей возникновения народных кукол, узнают об их символическом значении и культурном наследии. Это поможет лучше понять смысл работы над изделием и сделает процесс творческим и осознанным    ","age":6,"ageCategory":"6+","startDate":"27.11.2025","endDate":"27.11.2025","city":"Куйтунский район","category":"Встречи","isFree":true,"price":"","image":"https:\/\/all.culture.ru\/uploads\/765a27f507be8608f107fa283347facc.jpg","place":"Районный дом культуры р. п. Куйтун","address":"обл Иркутская,р-н Куйтунский,рп Куйтун,ул Карла Маркса,д 4","organizer":"МКУК «Социально-культурное объединение» р. п. Куйтун"},{"id":6340676,"title":"«Клавирное творчество П.И. Чайковского в педагогическом репертуаре»","description":"19 ноября 2025 года в 16. 00 в МБУДО «Детская музыкальная школа №5 имени В.Ф. Бобылева» на фортепианном отделе состоится творческая встреча, приуроченная к 185-летию П.И. Чайковского. С докладом о клавирном творчестве классика выступит Ермакова Анна Александровна.Будут рассмотрены аспекты формирования и развития художественного вкуса учащихся, на которые оказывает прямое влияние выбор репертуара. Также будут рассмотрены малоизвестные опусы П.И.Чайковского и возможность их применения в педагогической практике.","age":6,"ageCategory":"6+","startDate":"19.11.2025","endDate":"19.11.2025","city":"Рязань","category":"Встречи","isFree":true,"price":"","image":"https:\/\/all.culture.ru\/uploads\/5af77acc0b5e2350d85d71c10d078406.jpg","place":"Детская музыкальная школа № 5 им. В. Ф. Бобылева","address":"обл Рязанская,г Рязань,ул Гоголя,д 5","organizer":"МБУДО «ДМШ №5 имени В.Ф. Бобылёва»"},{"id":6340678,"title":"«Подарок для мамы»","description":"Концертная программа посвящается     Международному Дню матери. В концерте примут участие творческие коллективы студентов     и преподавателей Тамбовского колледжа искусств и учащиеся инструментальных     отделений Сосновской детской музыкальной школы. Живое академическое и эстрадное     пение подарит вокальная группа студентов и преподавателей. В репертуаре     ансамбля лучшие произведения классиков и современных композиторов. Игра на     домре  выпускницы школы Смагиной Ирины     погрузит слушателей в мир народной музыки. Произведения  известных композиторов 19 -20 веков ,     исполненные на рояле, гитаре, аккордеоне, балалайке создадут для слушателей     атмосферу праздника и хорошего настроения.","age":12,"ageCategory":"12+","startDate":"02.12.2025","endDate":"02.12.2025","city":"Сосновский район","category":"Концерты","isFree":true,"price":"","image":"https:\/\/all.culture.ru\/uploads\/a1166d8c613dcc1304e06a4679f7f108.jpg","place":"Детская музыкальная школа р. п. Сосновка","address":"обл Тамбовская,р-н Сосновский,рп Сосновка,ул Интернациональная,д 217","organizer":"МБУДО «Сосновская детская музыкальная школа»"},{"id":6340679,"title":"Кружок «Книжное творчество и фантазия» Познавательный час «Наши пушистые друзья»","description":"Мероприятие начнется с беседы о домашних животных.     Ребята смогут поделиться с историями о своих питомцах: их привычках, забавных проделках и любимых лакомствах.  Затем внимание детей обратят на книжную выставку «В мире животных»,         которую специально подготовят к этому дню. Ребята познакомятся с красочными         энциклопедиями о породах кошек и собак, практическими руководствами по уходу за         питомцами и, конечно же, художественными книгами, где главными героями являются         животные. Это произведения Веры Чаплиной, Гавриила Троепольского, Джеймса         Хэрриота и других авторов.  Центральной частью программы станет интерактивная викторина         «Усатый-полосатый». Дети будут отгадывать загадки о животных, угадывать         литературных питомцев по описанию и отвечать на каверзные вопросы о повадках и         особенностях разных зверей.  Творческим     завершением познавательного часа станет мастер-класс по созданию портрета     своего пушистого друга.","age":16,"ageCategory":"16+","startDate":"27.11.2025","endDate":"27.11.2025","city":"Йошкар-Ола","category":"Встречи","isFree":true,"price":"","image":"https:\/\/all.culture.ru\/uploads\/7f675da183f09f0886e6fc5f01c1c008.jpg","place":"Центральная библиотека им. Р. С. Иванченко","address":"Респ Марий Эл,г Йошкар-Ола,ул Прохорова,д 30","organizer":"МБУК «Централизованная библиотечная система г. Йошкар-Олы»"},{"id":6340680,"title":"Выставка-рассказ«И звучат гармони над селом»","description":"  В преддверии Дня гармониста, который ежегодно отмечается в России 25 ноября, в Хмелинецком центре культуры и досуга будет работать  выставка-рассказ, посвященная культуре и богатой истории этого народного инструмента.А именно гармонистам,которые радовали жителей поселения своим талантом. Материалы выставки познакомят с историей появления гармони: от первых прототипов до современных моделей, расскажут об эволюции инструмента, о выдающихся мастерах и знаменитых фабриках музыкальных инструментов.Выставка будет дополнена фотографиями  на которых будет представлена гармонь, как неотъемлемая часть русской культуры, фольклора и искусства.  ","age":6,"ageCategory":"6+","startDate":"25.11.2025","endDate":"29.11.2025","city":"Задонский район","category":"Выставки","isFree":true,"price":"","image":"https:\/\/all.culture.ru\/uploads\/8ed75c48509e046b8c4621d876ae8e2d.JPG","place":"Дом культуры с. Хмелинец","address":"обл Липецкая,р-н Задонский,с Хмелинец,ул Степанищева,д 70","organizer":"МБУК «Хмелинецкий центр культуры и досуга»"}],"total":973,"page":84,"limit":12,"pages":82}