{"events":[{"id":6340725,"title":"Выставка - юбилей «Человек. Война. Судьба»","description":"В библиотеке будет организована выставка, приуроченная к 110-летию со дня рождения Константина Симонова – выдающегося русского советского писателя, поэта, драматурга, киносценариста, общественного деятеля и военного корреспондента. На этой выставке будут представлены все основные произведения Симонова, включая стихи, поэмы, очерки, рассказы, повести, романы и пьесы. Особое внимание будет уделено его военной прозе, которая является свидетельством ключевых событий Великой Отечественной войны. Отдельный раздел выставки посвящен стихотворениям и поэмам Симонова: «Жди меня, и я вернусь…», «Тот самый длинный день в году…», «Ты помнишь, Алеша, дороги Смоленщины…», «Ты говорила мне люблю» «Слава», «Далеко на Востоке», «Ледовое побоище». ","age":6,"ageCategory":"6+","startDate":"11.11.2025","endDate":"29.11.2025","city":"Новоусманский район","category":"Выставки","isFree":true,"price":"","image":"https:\/\/all.culture.ru\/uploads\/f038faa16c65c7e9d28c1a28a79fb0e3.jpg","place":"Рогачевская сельская библиотека","address":"обл Воронежская,р-н Новоусманский,с Рогачевка,ул Мира,д 1А","organizer":"МКУК «Межпоселенческая библиотека Новоусманского района»"},{"id":6340726,"title":"Час поэзии «Материнское сердце согрето любовью»","description":"Час поэзии, посвященный Дню матери, состоится в Унгорской сельской библиотеке.   Ведущая часа, библиотекарь Кудрявцева О.И., скажет самые добрые, нежные слова о мамах. Внимание участников будет обращено на литературу, представленную на выставке. Вместе с гостями  будут  прочитаны стихи знаменитых русских и советских писателей, посвящённые матерям, ведь образ Матери в русской литературе – это воплощение и любви, и счастья, и вдохновения. Мероприятие состоится по адресу:Рязанская обл.  Путятинский р-н   с. Унгор, ул.Молодежная, д.8","age":6,"ageCategory":"6+","startDate":"28.11.2025","endDate":"28.11.2025","city":"Путятинский район","category":"Прочие","isFree":true,"price":"","image":"https:\/\/all.culture.ru\/uploads\/bdbc32a926088e8f085d26c4987d305e.jpg","place":"Путятинская центральная библиотека","address":"обл Рязанская,р-н Путятинский,с Путятино,ул Ворошилова,д 4А","organizer":"МУК «Путятинская центральная библиотека» муниципального образования - Путятинский МР Рязанской области"},{"id":6340727,"title":"Мастер–класс по живописи «Осенние цветы»","description":"  У каждого участника мероприятия появится уникальная возможность создать собственную живописную работу. Опытные педагоги научат рисовать букет осенних цветов, передавая сочность красок и нежность лепестков с помощью акварели и гуаши. Во время занятий присутствующие познакомятся с тонкостями передачи света и теней, узнают, как правильно подбирать цветовую гамму и гармонично компоновать элементы на листе. Процесс выполнения рисунков позволит проявить творческий потенциал и ощутить радость создания художественных произведений собственными руками. Все необходимые материалы будут предоставлены организаторами.  ","age":6,"ageCategory":"6+","startDate":"03.12.2025","endDate":"03.12.2025","city":"Краснояружский район","category":"Обучение","isFree":false,"price":150,"image":"https:\/\/all.culture.ru\/uploads\/3b6729e0de87ff39146a9967ee58de3f.jpg","place":"Краснояружская детская школа искусств","address":"обл Белгородская,р-н Краснояружский,п Красная Яруга,ул Мира,д 31","organizer":"МБУ ДО «ДШИ» п. Красная Яруга Краснояружского района"},{"id":6340728,"title":"Ярослав Сумишевский","description":"  Мы открываем продажи на грандиозный концерт Ярослава Сумишевского — настоящего артиста из народа, покорившего сердца миллионов слушателей по всей стране.Ярослав Сумишевский — один из самых гастролирующих и успешных исполнителей нашей страны, добившийся популярности самостоятельно.Народная любовь и признание пришли к певцу не сразу; он прошел долгий путь к славе.Простота, открытость и искренность — именно за эти качества артист любим миллионами зрителей.Широкую известность артист приобрел благодаря своим песням и участию в таких популярных телешоу, как «Маска», «Аватар» и «Три аккорда», а также стал номинантом престижных премий «Виктория» и «Шансон года». Секрет его успеха заключается в уникальном голосе, несомненном таланте, невероятном профессионализме и искренней любви к своим фанатам.СПЕШИТЕ ЗА БИЛЕТАМИ!  ","age":6,"ageCategory":"6+","startDate":"29.01.2026","endDate":"29.01.2026","city":"Одинцовский район","category":"Концерты","isFree":false,"price":3000,"image":"https:\/\/all.culture.ru\/uploads\/be9351aed58b23e7cf5fadc4e2b500e0.jpeg","place":"Культурно-досуговый центр с. Ершово","address":"обл Московская,р-н Одинцовский,с Ершово,д 3А","organizer":"МБУ «КСДЦ «Ершовское»"},{"id":6340730,"title":"Показ фильма «Яга на нашу голову»","description":"Когда у десятилетнего Пети появляется новая воспитательница – странная и ворчливая, но невероятно обаятельная, – он быстро понимает, что она не такая, как все. Она – «няня под прикрытием», а на самом деле – Яга, легендарная волшебница, потерявшая свою ступу и спрятавшаяся среди людей. Теперь только Петя сможет помочь ей вернуть магические силы, а Яга – научить мальчика летать. И не только на ступе, но и по жизни. Режиссером картины является Александр Войтинский («По щучьему велению»). Главные роли исполнили Светлана Ходченкова и Юрий Колокольников.","age":6,"ageCategory":"6+","startDate":"12.11.2025","endDate":"03.12.2025","city":"Краснодар","category":"Кино","isFree":false,"price":200,"image":"https:\/\/all.culture.ru\/uploads\/99848765da4fa48e734751e09e7377df.jpg","place":"Киноконцертный зал «Болгария»","address":"край Краснодарский,г Краснодар,ул Ставропольская,д 236А","organizer":"МБУК «ЦК города Краснодара»"},{"id":6340731,"title":"Обзор новинок «Книжный листопад»","description":"Поступление новой литературы в библиотеку всегда является знаменательным и интересным событием и для читателей и для библиотекаря. Популярные авторы, разнообразные жанры, различные по темам новинки предоставлены на выставке – обзоре. Новые книги в библиотеке всегда радость для читателя и библиотекаря. Они популярны и востребованы. Каждому книголюбу знакомо ощущение, которое получаешь от встречи с новой книгой. Это предвкушение погружения в еще неизведанный мир книги, запах типографской краски, хруст крепких страниц… ","age":0,"ageCategory":"0+","startDate":"21.11.2025","endDate":"21.11.2025","city":"Бутурлиновский район","category":"Выставки","isFree":true,"price":"","image":"https:\/\/all.culture.ru\/uploads\/f47acb6e34f56935f730e96201efd9a0.jpg","place":"Васильевская сельская библиотека","address":"обл Воронежская,р-н Бутурлиновский,с Васильевка,ул Ленина,д 46","organizer":"МКУК «Бутурлиновская межпоселенческая центральная районная библиотека им. Ю. Д. Гончарова» Бутурлиновского района"},{"id":6340732,"title":"Показ фильма «Горыныч»","description":" Лихой моряк Алексей Алехин узнает, что жизнь как в сказке – это настоящее приключение. Как только Леха вынырнул со дна морского в неопознанном княжестве и едва успел спасти малыша-дракончика, оставшегося одного, начались проблемы: срочно излечить неизлечимую хандру князя Филимона, победить непобедимого силача Бамбулу, защитить княжество от коварных врагов и жадных предателей. И впервые в жизни встретить принцессу. Столько дел, что голова кругом идет! В опасных приключениях моряку помогает верный друг – маленький дракон Горыныч, который считает Леху родной мамой. Но друзей ждет огромный сюрприз… ","age":6,"ageCategory":"6+","startDate":"12.11.2025","endDate":"19.11.2025","city":"Гремячинский район","category":"Кино","isFree":false,"price":220,"image":"https:\/\/all.culture.ru\/uploads\/93e3987597195fc91ae8c9dd5b4a0140.jpg","place":"Дворец культуры г. Гремячинска","address":"край Пермский,г Гремячинск,ул Ленина,д 193","organizer":"МБУ «Дворец культуры»"},{"id":6340733,"title":"Встреча «Зиновий-синичник»","description":"Синичкины именины, а в православном календаре день памяти мучеников Зиновия и Зиновии, отмечался в русских селениях в середине ноября.Праздник этот, богатый на приметы и обряды, на трогательное обращение к природе, был одним из самых радостных и веселых в календаре поздней осени.Вот и встреча «Зиновий-синичник» приглашает гостей не только узнать о том, как же отмечает именины птица-синица и в каком она родстве с печкой-матушкой, но и поиграть в народные игры, примерить старинный наряд шебекинской красавицы, погадать о будущем и закликать верных друзей человека – синичек да воробушков – переселиться поближе к человечьему жилью, чтобы вместе пережить наступающую зимнюю стужу.Необходима предварительная заявка в условиях сложной оперативной обстановки.","age":0,"ageCategory":"0+","startDate":"13.11.2025","endDate":"13.11.2025","city":"Шебекино","category":"Встречи","isFree":true,"price":"","image":"https:\/\/all.culture.ru\/uploads\/35a59b5f8aee094bfac01a7ec08a4ef0.jpg","place":"Шебекинский историко-художественный музей","address":"обл Белгородская,г Шебекино,ул Ленина,д 93","organizer":"МБУК «Шебекинский историко-художественный музей»"},{"id":6340734,"title":"Викторина «Опасности на дороге»","description":"  Важной проблемой наших дней является безопасность детей на дорогах. Особенно во время наступления холодов и появления на дорогах гололёда много совершается дорожно—транспортных происшествий, в результате которых страдают именно дети.В рамках программы юные участники вспомнят правила дорожного движения в формате викторины.Ребятам будет предложено принять участие в занимательной игре «Вопрос–ответ», отгадать дорожные загадки, вспомнить сказочных персонажей и их средства передвижения, выполнить задания на составление пар.  ","age":6,"ageCategory":"6+","startDate":"17.11.2025","endDate":"17.11.2025","city":"Панинский район","category":"Обучение","isFree":true,"price":"","image":"https:\/\/all.culture.ru\/uploads\/dfcfa5dd745df5b3aa97a7417e6fac3c.jpg","place":"Петровский сельский дом культуры","address":"обл Воронежская,р-н Панинский,рп Перелешинский,ул Брянская,д 17","organizer":"МКУК «Петровский СДК»"},{"id":6340735,"title":"Беседа «Бал в Петербургском дворянском собрании»","description":"  23 февраля 1913 года в Санкт-Петербургском дворянском собрании на Михайловской улице был дан грандиозный бал, на котором присутствовало свыше 3200 гостей. Он был приурочен к торжествам в честь 300-летия дома Романовых. Это был последний масштабный праздник в дореволюционной России. Бал открылся полонезом из оперы Михаила Глинки «Жизнь за царя» в исполнении бального оркестра Лейб-гвардии Преображенского полка. Николай II танцевал в первой паре с супругой Санкт-Петербургского уездного предводителя дворянства, императрица Александра Федоровна — с Санкт-Петербургским уездным предводителем дворянства.Картина, на которой художник Дмитрий Кардовский запечатлел сцену юбилейного бала, стала одной из немногих крупноформатных работ этого автора. Это полотно нельзя отнести к числу собственно исторических произведений, однако Кардовский написал его по образцу академических многофигурных композиций, при этом запечатлел каждого персонажа с фотографической точностью и психологической достоверностью. Беседа проводится по предварительной записи по телефону +7 (950) 775-45-45","age":12,"ageCategory":"12+","startDate":"14.11.2025","endDate":"14.11.2025","city":"Рамонский район","category":"Прочие","isFree":false,"price":100,"image":"https:\/\/all.culture.ru\/uploads\/52eec99cde23c53063c3cec72d983d0f.png","place":"Историко-культурный центр «Дворцовый комплекс Ольденбургских»","address":"обл Воронежская,р-н Рамонский,рп Рамонь,ул Мосина,д 23 б","organizer":"АУК ВО «Историко-культурный центр «Дворцовый комплекс Ольденбургских»"},{"id":6340736,"title":"«Командир»","description":"  Ключевое событие — захват террористами автобуса с заложниками (32 ребёнка, их учительница и водитель) в Орджоникидзе (ныне Владикавказ) 1 декабря 1988 года. Под руководством Зайцева разворачивается сложнейшая операция, в ходе которой все заложники были освобождены, а самолёту с террористами разрешили вылететь в Израиль, где все они были захвачены властями, возвращены в СССР и осуждены на крупные сроки. Никто в ходе операции не пострадал. Некоторые особенности сюжета:Зайцев не отдал приказа штурмовать самолёт с преступниками, потому что проявил человечность: на борту осталась жена главаря банды, которая добровольно принесла себя в жертву, чтобы спасти детей.Родителей детей, взятых в заложники, сыграли те самые люди, которые в прошлом были захвачены в плен террористами, а позже освобождены отрядом «Альфа».  ","age":6,"ageCategory":"6+","startDate":"15.11.2025","endDate":"15.11.2025","city":"Буинск","category":"Кино","isFree":true,"price":"","image":"https:\/\/all.culture.ru\/uploads\/285c73f052a196aeebd49d5d8b769baa.jpg","place":"Досуговый центр Буинского района","address":"Респ Татарстан,р-н Буинский,г Буинск,ул Р.Люксембург,д 65","organizer":"МБУ «Досуговый центр» Буинского муниципального района РТ"},{"id":6340738,"title":"«Букет для мамы»","description":"Не упустите шанс создать самый трогательный подарок для вашей мамы! Увлекательный мастер-класс «Букет для мамы», где каждый сможет создать неповторимый цветочный шедевр, который принесет радость и тепло в сердце вашей мамы. Под руководством мастера участники научатся создавать красивые и оригинальные цветы из цветной бумаги. Участники мастер-класса соберут свои цветы в изящный и оригинальный букет, созданный с любовью и заботой. Мастер-класс пройдет в дружелюбной и творческой атмосфере, где каждый участник сможете отдохнуть от повседневной суеты, насладиться процессом создания красоты и провести время с пользой.","age":6,"ageCategory":"6+","startDate":"25.11.2025","endDate":"25.11.2025","city":"Чунский район","category":"Прочие","isFree":true,"price":"","image":"https:\/\/all.culture.ru\/uploads\/2343509051a3aac53c0d803109ca6d08.jpg","place":"Пионерский дом культуры","address":"обл Иркутская,р-н Чунский,п Пионерский,ул Сосновая,д 45","organizer":"МКУ «ЦКИС Новочунского МО»"}],"total":972,"page":90,"limit":12,"pages":81}