{"events":[{"id":6339238,"title":"Программа «Круг дружбы»","description":"Выбор темы мероприятия созвучен Международному Дню толерантности, который в России будет отмечаться двадцатый раз.  Посетители, используя изображения (фигурки) людей разного происхождения, культур и возрастов, соберут коллаж «Идея толерантности». Кругу друзей предстоит пройти по «тропинкам Уважения», «ухабам Стереотипов», «холмам Непонимания», чтобы построить «дорогу Толерантности», на которой станет возможным услышать друг друга и понять, что «дорога Терпимости» – именно самая правильная дорога в страну, имя которой – Культура!  В ходе программы – музыка, виртуальная реальность (VR), диалоговое общение, сюжетно-ролевые игры, проблемные вопросы и пр.","age":12,"ageCategory":"12+","startDate":"16.11.2025","endDate":"16.11.2025","city":"Муромский район","category":"Встречи","isFree":false,"price":100,"image":"https:\/\/all.culture.ru\/uploads\/9471df994fa190606b038787cae8c432.jpg","place":"Пестенькинский дом культуры","address":"обл Владимирская,р-н Муромский,д Пестенькино,ул Центральная,д 50","organizer":"МБУК «Объединение сельских домов культуры»"},{"id":6339239,"title":"Спектакль «Арифметика мужских измен»","description":"В центре сюжета – история примерного семьянина Вениамина Стрельцова, который, оставшись один на время отпуска жены, сталкивается с неожиданными искушениями и открытиями. Комедия исследует вечную тему супружеской верности через призму современного взгляда. Уникальность постановки заключается в том, что всего четыре актера создают на сцене целый мир персонажей: от секретарши до соседки, от психиатра до юной фотомодели. Один актер исполняет сразу несколько ролей, что добавляет спектаклю особую динамику и интригу.Зрителей ждет увлекательное путешествие по лабиринтам мужской психологии, приправленное искрометным юмором и неожиданными поворотами сюжета. Главный герой выясняет, что каждые семь лет в семейной жизни происходят удивительные метаморфозы – и это не просто народная мудрость, а настоящая психологическая закономерность! Спектакль станет настоящим подарком для всех, кто любит умные комедии с глубоким подтекстом. Легкая подача серьезных тем, блестящая игра актеров и непредсказуемый финал – все это ждет зрителей на спектакле.","age":16,"ageCategory":"16+","startDate":"12.12.2025","endDate":"12.12.2025","city":" Артем","category":"Спектакли","isFree":false,"price":1800,"image":"https:\/\/all.culture.ru\/uploads\/154ff31dc5c470f1fac2d174afc73760.jpeg","place":"Дворец культуры угольщиков г. Артема","address":"край Приморский,г Артем,пл Ленина,д 15","organizer":"МКУК ЦСКДУ"},{"id":6339242,"title":"Показ фильма «Яга на нашу голову»","description":"Когда у десятилетнего Пети появляется новая воспитательница – странная и ворчливая, но невероятно обаятельная, – он быстро понимает, что она не такая, как все. Она – «няня под прикрытием», а на самом деле – Яга, легендарная волшебница, потерявшая свою ступу и спрятавшаяся среди людей. Теперь только Петя сможет помочь ей вернуть магические силы, а Яга – научить мальчика летать. И не только на ступе, но и по жизни. Режиссером картины является Александр Войтинский («По щучьему велению»). Главные роли исполнили Светлана Ходченкова и Юрий Колокольников.","age":6,"ageCategory":"6+","startDate":"12.11.2025","endDate":"19.11.2025","city":"Рассказово","category":"Кино","isFree":false,"price":300,"image":"https:\/\/all.culture.ru\/uploads\/99848765da4fa48e734751e09e7377df.jpg","place":"Киноконцертный зал «Смена» г. Рассказово","address":"обл Тамбовская,г Рассказово,ул Куйбышева,д 12","organizer":"МБУ «Культурно-досуговое объединение»"},{"id":6339251,"title":"Мастер-класс по росписи ёлочной игрушки «Лошадка»","description":"  Мечтаете расписывать елочные игрушки? Начинайте учиться уже сейчас! Роспись новогодних игрушек – это не просто хобби, а целое искусство. И наверняка вам кажется, что без художественных навыков и таланта рисования даже не стоит приступать к такой сложной работе. Однако роспись заготовки не требуется большого художественного таланта, главное, взяться за работу и не отвлекаться, роспись получилась аккуратной. Результатом станет профессионально выполненная работа и, конечно же, полученные положительные эмоции!  ","age":12,"ageCategory":"12+","startDate":"06.12.2025","endDate":"06.12.2025","city":"Углегорск","category":"Обучение","isFree":false,"price":500,"image":"https:\/\/all.culture.ru\/uploads\/c06615646583738742bcb3bf73ed9427.jpg","place":"Детская школа искусств «Гармония»","address":"обл Сахалинская,р-н Углегорский,г Углегорск,ул Заводская,д 8","organizer":"МБУ ДО ДШИ «Гармония»"},{"id":6339276,"title":"Квиз «Как-то раз под Новый год»","description":"Квиз – развлекательно-познавательная битва интеллектуалов, в рамках которой гости музея смогут продемонстрировать свои знания на тему истории празднования Нового года в России и узнать интересные факты о главном празднике зимы. Игра включает в себя 5 увлекательных туров. Викторина станет для участников настоящим праздничным приключением, наполнит знаниями и приятными воспоминаниями. Победителям будут вручены памятные призы и подарки. Принимаются заявки от организованных групп в количестве не менее 10 человек по телефонам: +7 (4242) 49-57-17, +7 (4242) 49-57-28, +7 (4242) 49-57-04. ","age":12,"ageCategory":"12+","startDate":"09.12.2025","endDate":"26.12.2025","city":"Южно-Сахалинск","category":"Встречи","isFree":false,"price":800,"image":"https:\/\/all.culture.ru\/uploads\/3fdfe7b31d29e96839754f14a7cb5b6d.jpg","place":"Исторический парк «Россия – моя история» г. Южно-Сахалинска","address":"обл Сахалинская,г Южно-Сахалинск,ул Священномученика Илариона Троицкого,д 4","organizer":"ГБУК СО «Музейно-мемориальный комплекс «Победа»"},{"id":6339278,"title":"Показ фильма «Наш папа – Дед Мороз!»","description":" Федор – несостоявшийся актер, он пытается помочь своему младшему брату Никите снова научиться ходить. В костюме Деда Мороза Федор выезжает на заказы, надеясь собрать за праздники деньги на операцию. Он – самый грустный Дед Мороз на свете, потому что ко всем прочим неприятностям как раз перед Новым годом его бросила любимая девушка. И вот 31 декабря он звонит в очередную дверь очередной квартиры, чтобы подарить подарки от родителей очередной паре детишек. И тут начинается самое настоящее новогоднее волшебство. ","age":12,"ageCategory":"12+","startDate":"09.11.2025","endDate":"12.11.2025","city":"Владивосток","category":"Кино","isFree":false,"price":100,"image":"https:\/\/all.culture.ru\/uploads\/0c44e92d22772bba159be00ac537e401.png","place":"Кинотеатр «Черемушки»","address":"край Приморский,г Владивосток,ул Черемуховая,д 15","organizer":"ООО «Центр-Уссури»"},{"id":6339279,"title":"Музейная программа «Императорская Россия»","description":"Посетив мультимедийную экспозицию «Романовы», участники узнают, как встречали и праздновали Новый год в эпоху правления династии русских царей и императоров, что дарили друг другу члены императорской фамилии, чем традиционно украшали ель.  В завершении программы школьники выполнят творческий мастер-класс в виде елочной игрушки, которая послужит украшением для дома или подарком для родных и друзей. Принимаются заявки от организованных групп в количестве не менее 10 человек по телефонам: +7 (4242) 49-57-17, +7 (4242) 49-57-28, +7 (4242) 49-57-04. ","age":12,"ageCategory":"12+","startDate":"16.12.2025","endDate":"16.12.2025","city":"Южно-Сахалинск","category":"Обучение","isFree":false,"price":300,"image":"https:\/\/all.culture.ru\/uploads\/f9d3f9c3dc14ed3239c2b53e083bf414.jpg","place":"Исторический парк «Россия – моя история» г. Южно-Сахалинска","address":"обл Сахалинская,г Южно-Сахалинск,ул Священномученика Илариона Троицкого,д 4","organizer":"ГБУК СО «Музейно-мемориальный комплекс «Победа»"},{"id":6339281,"title":"Показ фильма «Яга на нашу голову»","description":"Когда у десятилетнего Пети появляется новая воспитательница – странная и ворчливая, но невероятно обаятельная, – он быстро понимает, что она не такая, как все. Она – «няня под прикрытием», а на самом деле – Яга, легендарная волшебница, потерявшая свою ступу и спрятавшаяся среди людей. Теперь только Петя сможет помочь ей вернуть магические силы, а Яга – научить мальчика летать. И не только на ступе, но и по жизни. Режиссером картины является Александр Войтинский («По щучьему велению»). Главные роли исполнили Светлана Ходченкова и Юрий Колокольников.","age":6,"ageCategory":"6+","startDate":"12.11.2025","endDate":"03.12.2025","city":"Хабаровск","category":"Кино","isFree":false,"price":250,"image":"https:\/\/all.culture.ru\/uploads\/99848765da4fa48e734751e09e7377df.jpg","place":"Кинотеатр «Фабрика грез»","address":"край Хабаровский,г Хабаровск,ул Ким Ю Чена,д 44","organizer":"ООО «Фабрика Грёз ДВ»"},{"id":6339283,"title":"Мастер-класс «Очарование зимы: история новогодних традиций и декора в России»","description":"Участники культурного мероприятия узнают, как в России появилась традиция украшать новогоднюю ель, какими были первые елочные игрушки и как новогодние украшения менялись в зависимости от эпохи.  Творческой частью мероприятия станет изготовление из полимерной глины подвески в виде конфеты – сладкого украшения, которое традиционно использовалось для декорирования новогодней ели. Принимаются заявки от организованных групп в количестве не менее 10 человек по телефонам: +7 (4242) 49-57-17, +7 (4242) 49-57-28, +7 (4242) 49-57-04. ","age":12,"ageCategory":"12+","startDate":"18.12.2025","endDate":"23.12.2025","city":"Южно-Сахалинск","category":"Обучение","isFree":false,"price":800,"image":"https:\/\/all.culture.ru\/uploads\/a80878ac424dc4592e8a9c01d5ff0c2f.jpg","place":"Исторический парк «Россия – моя история» г. Южно-Сахалинска","address":"обл Сахалинская,г Южно-Сахалинск,ул Священномученика Илариона Троицкого,д 4","organizer":"ГБУК СО «Музейно-мемориальный комплекс «Победа»"},{"id":6339288,"title":"Бал маскарад «Встречаем Новый год!»","description":"За окном зима — время самых коротких дней и самых длинных ночей. Ведь именно зимой приходит Новый год и вместе с ним и «хвойное» радостное настроение счастья, перемен, надежд, которое несет с собой этот всеми любимый праздник.На праздник будут приглашены хозяева этого бала –Дед Мороз, Снегурочка и Новый год. Прозвучат поздравления, песни, а так же различные развлекательные игры, танцы и конкурсы вокруг новогодней елки. В конце мероприятия разыграем новогодние лотерейные билеты. В конце вечера будет зажигательная дискотека....","age":0,"ageCategory":"0+","startDate":"27.12.2025","endDate":"27.12.2025","city":"Буинский район","category":"Праздники","isFree":false,"price":50,"image":"https:\/\/all.culture.ru\/uploads\/e839c39d58a5db6e8a44eec533517daf.jpg","place":"Клуб с. Таковары","address":"Респ Татарстан,р-н Буинский,с Таковары,ул Школьная,12","organizer":"МБУ «Районный Дом культуры» Буинского МР"},{"id":6339294,"title":"Показ фильма «Яга на нашу голову»","description":"Когда у десятилетнего Пети появляется новая воспитательница – странная и ворчливая, но невероятно обаятельная, – он быстро понимает, что она не такая, как все. Она – «няня под прикрытием», а на самом деле – Яга, легендарная волшебница, потерявшая свою ступу и спрятавшаяся среди людей. Теперь только Петя сможет помочь ей вернуть магические силы, а Яга – научить мальчика летать. И не только на ступе, но и по жизни. Режиссером картины является Александр Войтинский («По щучьему велению»). Главные роли исполнили Светлана Ходченкова и Юрий Колокольников.","age":6,"ageCategory":"6+","startDate":"12.11.2025","endDate":"23.11.2025","city":"Невельск","category":"Кино","isFree":false,"price":250,"image":"https:\/\/all.culture.ru\/uploads\/99848765da4fa48e734751e09e7377df.jpg","place":"Районный дом культуры им. Г. И. Невельского","address":"обл Сахалинская,р-н Невельский,г Невельск,ул Ленина,д 54А","organizer":"МБУК «РДК им. Г. И. Невельского»"},{"id":6339297,"title":"Показ фильма «Яга на нашу голову»","description":"Когда у десятилетнего Пети появляется новая воспитательница – странная и ворчливая, но невероятно обаятельная, – он быстро понимает, что она не такая, как все. Она – «няня под прикрытием», а на самом деле – Яга, легендарная волшебница, потерявшая свою ступу и спрятавшаяся среди людей. Теперь только Петя сможет помочь ей вернуть магические силы, а Яга – научить мальчика летать. И не только на ступе, но и по жизни. Режиссером картины является Александр Войтинский («По щучьему велению»). Главные роли исполнили Светлана Ходченкова и Юрий Колокольников.","age":6,"ageCategory":"6+","startDate":"12.11.2025","endDate":"26.11.2025","city":"Анадырь","category":"Кино","isFree":false,"price":350,"image":"https:\/\/all.culture.ru\/uploads\/99848765da4fa48e734751e09e7377df.jpg","place":"Кинотеатр «Полярный»","address":"АО Чукотский,г Анадырь,ул Отке,зд 15","organizer":"АУ Чукотского автономного округа по киновидеопрокату и кинообслуживанию населения «Окркиновидеопрокат»"}],"total":169,"page":1,"limit":12,"pages":15}