{"events":[{"id":6339234,"title":"Концертная программа «За всё тебя благодарю».","description":"  День матери – особенный праздник, который напоминает всем о важности ценить и беречь своих мам. Это день, когда  можем выразить благодарность за бессонные ночи, за заботу и переживания, за бесконечную любовь, которую матери дарят своим детям.К этому празднику работники культуры подготовят праздничный концерт. На сцене будут взрослые и дети. В программе поздравления, стихи, песни, танцы, сценки. Также красиво украсим фойе и сцену, оформим выставку рисунков. Мамы примут участие в викторине и все вместе исполнять знакомые песни.","age":6,"ageCategory":"6+","startDate":"29.11.2025","endDate":"29.11.2025","city":"Острогожский район","category":"Концерты","isFree":true,"price":"","image":"https:\/\/all.culture.ru\/uploads\/8f7c0609cc2747c57c3162ffb781c51a.JPG","place":"Криниченский сельский дом культуры","address":"обл Воронежская,р-н Острогожский,с Криница,пер Рабочий,д 1А","organizer":"МКУК «Криниченский сельский культурно-досуговый центр» Острогожского МР"},{"id":6339273,"title":"Программа «О войне стихами говорим»","description":"Мероприятие, посвященное 80-летию Победы в Великой Отечественной войне, проводится для жителей села Небылое. В программу войдут поэтические и музыкальные номера в исполнении участников художественной самодеятельности народного коллектива «Дубравушка» – Николая и Светланы Зайцевых: «Мой милый, если б не было войны», «Горит свечи огарочек», «Шумит под ветром Ладога», «Казаки», «На безымянной высоте», «Шел солдат», «Волховская застольная», «У деревни Крюкова», «Жди солдата», «Вдовы России», «К маме».","age":12,"ageCategory":"12+","startDate":"15.11.2025","endDate":"15.11.2025","city":"Юрьев-Польский район","category":"Концерты","isFree":true,"price":"","image":"https:\/\/all.culture.ru\/uploads\/744f018b637c90f57a1989d3324cb151.JPG","place":"Небыловский сельский дом культуры","address":"обл Владимирская,р-н Юрьев-Польский,с Небылое,ул Первомайская,д 21","organizer":"МБУК «Шихобаловский СДК»"},{"id":6339339,"title":"Праздничный концерт ко Дню матери","description":"Ко Дню матери пройдет праздничный концерт.  Особенное мероприятие будет подготовлено специально для тех, кто дарит заботу, поддержку и вдохновение ежедневно - любимых мам. Гостей ждет приятная атмосфера семейного праздника, теплый прием и море положительных эмоций. Тем самым хотим выразить свою благодарность самым дорогим людям - мамам, ведь именно благодаря их терпению, мудрости и доброте жизнь становится ярче и счастливее. В программе концерта стихи и песни о маме на родном языке, танцы в исполнении детей, выставка детских рисунков. ","age":6,"ageCategory":"6+","startDate":"22.11.2025","endDate":"22.11.2025","city":"Закаменский район","category":"Концерты","isFree":true,"price":"","image":"https:\/\/all.culture.ru\/uploads\/73e8d078bd43e9e20f8d78af67ae9701.jpg","place":"Cанагинский дворец культуры","address":"Респ Бурятия,р-н Закаменский,у Санага,ул Советская,зд 13","organizer":"АУ «Санагинский Дворец культуры»"},{"id":6339350,"title":"Концерт «Мы подарим маме»","description":"В программе мероприятия – музыкальные и вокальные номера, подготовленные талантливыми детьми различных возрастов. Зрителей ожидает теплая атмосфера, наполненная искренними эмоциями и творческим вдохновением. Каждый номер станет настоящим даром, способным тронуть сердце и выразить безмерную благодарность мамам за их любовь и заботу.Во время концерта прозвучат как классические произведения, так и современные композиции, что придаст событию разнообразие и динамику. Посещение мероприятия позволит окунуться в мир детского творчества, увидеть результаты упорного труда юных музыкантов и проникнуться атмосферой.Это событие станет превосходным поводом провести время вместе, насладиться живым искусством и подарить мамам незабываемые эмоции.","age":6,"ageCategory":"6+","startDate":"27.11.2025","endDate":"27.11.2025","city":"Кавалеровский район","category":"Концерты","isFree":true,"price":"","image":"https:\/\/all.culture.ru\/uploads\/2f0b8c64dd3ebe7979421601a78e894c.jpg","place":"Детская школа искусств п. Кавалерово","address":"край Приморский,р-н Кавалеровский,пгт Кавалерово,ул Подгорная,д 19","organizer":"МБУДО «Детская школа искусств» Кавалеровского муниципального округа"},{"id":6339387,"title":"«Поговори со мною, мама…»","description":"  21 ноября в реабилитационном зале КГБУК \"Хабаровской Краевой специализированной библиотеки для слепых\" состоится душевный и трогательный концерт, посвященный Дню матери.    Вас ждет теплая атмосфера и выступления членов Местной организации Всероссийского общества слепых. Талантливые участники подарят зрителям прекрасные вокальные номера и проникновенную декламацию поэзии. Не пропустите возможность провести этот день в кругу друзей и близких, наслаждаясь искусством и выражая свою любовь и благодарность самым дорогим людям – мамам!  ","age":6,"ageCategory":"6+","startDate":"21.11.2025","endDate":"21.11.2025","city":"Хабаровск","category":"Концерты","isFree":true,"price":"","image":"https:\/\/all.culture.ru\/uploads\/23dec382dab8dd8b519d3bdf8bda38c2.JPG","place":"Хабаровская краевая библиотека для слепых","address":"край Хабаровский,г Хабаровск,ул Ленина,д 11","organizer":"КГБУК «Хабаровская краевая специализированная библиотека для слепых»"},{"id":6339406,"title":"Концерт «Юный концертмейстер»","description":"220-летию Александра Львовича Гурилева – замечательного русского композитора, автора многочисленных романсов и песен, посвящен этот концерт. Среди самых известных его произведений романсы: «Домик-крошечка», «Однозвучно гремит колокольчик», «Матушка-голубушка», «И скучно, и грустно», «Как смотрю на него» и песни, которые давно считаются народными: «У ворот девка стоит», «Скоро ли ты, солнышко красное, взойдешь». Романсы и песни исполнит преподаватель вокала Марина Васильевна Лентина.В роли концертмейстеров выступят ученицы старших классов музыкального отделения школы. В программе: Ануфриева Арина, 8 кл. – романс «Домик-крошечка», Кучеренко Ксения, 8 кл. – песня «У ворот девка стоит», Желудкова Василиса, 8 кл. – песня «Скоро ли ты, солнышко красное, взойдешь», Ербягина Евгения, 7 кл. – романс «Как смотрю на него». В концерте выступят и другие юные концертмейстеры. Проведет концерт Белик Елена Михайловна.","age":6,"ageCategory":"6+","startDate":"24.11.2025","endDate":"24.11.2025","city":"Владивосток","category":"Концерты","isFree":true,"price":"","image":"https:\/\/all.culture.ru\/uploads\/8687239652f0975a4cb6ddfd35c6ba06.jpg","place":"Концертный зал детской школы искусств № 4 г. Владивостока","address":"край Приморский,г Владивосток,ул Адмирала Юмашева,д 20А","organizer":"МБУ ДО «Детская школа искусств № 4 г. Владивостока»"},{"id":6339528,"title":"Станислав Корчагин, Леонид Железный, Василий Степанов, Энджел Вонг","description":"Приглашаем вас на просмотр записи Всероссийского         виртуального концертного зала, который состоится в субботу, 15 ноября 2025 года         в 14:00.  Концерт в исполнении         Государственного академического симфонического оркестра России имени Е. Ф.         Светланова под управлением Антона Торбеева обещает стать знаковым событием для         почитателей академической сцены. Программа вечера объединяет сразу несколько ярких         исполнителей и знаковых сочинений, создавая мощное эмоциональное и         стилистическое полотно.   Станислав Корчагин,         Энджел Вонг, Леонид Железный и Василий Степанов — музыканты, чья техническая         безупречность сочетается с глубокой музыкальностью. В сопровождении оркестра         прозвучит фантастическая «Скиталец»-фантазия Ференца Листа по мотивам         произведения Шуберта — произведение редкой симфонической яркости и виртуозной         динамики, в котором фортепиано словно ведёт рассказ о странствиях души.   Далее слушателей ждёт редкое         исполнение скрипичного концерта Роберта Шумана, написанного в последние годы         его жизни. Это произведение нечасто звучит в концертных залах, однако в руках         Леонида Железного оно раскрывается по-новому — эмоционально, насыщенно, с         оттенком трагического романтизма.   Особое внимание в         программе уделено Камилю Сен-Сансу, 190-летие которого отмечается в этом году.         Прозвучат сразу два концерта — для фортепиано и для виолончели, в исполнении         Энджел Вонг и Василия Степанова соответственно. Эти произведения подчеркнут как         мощь сольного начала, так и филигранную работу оркестра с солистом.                В ПРОГРАММЕ:  Станислав                 Корчагин — фортепиано  Леонид                 Железный — скрипка  Василий                 Степанов — виолончель  Энджел                 Вонг — фортепиано  Антон                 Торбеев — дирижер     1 час 56 минут  При посещении Всероссийского виртуального концертного зала предусмотрен бесплатный         просмотр действующих выставок:  ·                    выставка «Династия семьи Орловых»;  Дополнительную информацию вы         можете получить по телефону: 8 (39151) 7-54-68. Ждём вас по адресу: г. Ачинск,         микрорайон 8, дом 3, филиал «Ачинский музейно-выставочный центр».","age":12,"ageCategory":"12+","startDate":"15.11.2025","endDate":"15.11.2025","city":"Ачинск","category":"Концерты","isFree":true,"price":"","image":"https:\/\/all.culture.ru\/uploads\/e3e65aae691ffc53aac75294ae5b5564.jpg","place":"Ачинский музейно-выставочный центр","address":"край Красноярский,г Ачинск,8 мкрн,д 3","organizer":"Ачинский краеведческий музей имени Д.С. Каргаполова"},{"id":6339550,"title":"Концерт «Говорите мамам нежные слова»","description":"  Дорогие друзья! Приглашаем вас окунуться в тёплую атмосферу любви и благодарности на музыкальном концерте «Говорите мамам нежные слова».🎶 Что ожидает зрителей: трогательная концертная программа, исполненная профессиональными артистами и талантливыми коллективами района. Музыкальные номера, проникнутые теплотой и уважением к самым близким людям — матерям.    Это отличный повод выразить благодарность своим родным и близким женщинам, вспомнить приятные моменты и насладиться душевной музыкой. Вход свободный!Ждем вас на прекрасном празднике добра и тепла!","age":6,"ageCategory":"6+","startDate":"30.11.2025","endDate":"30.11.2025","city":"Куйтунский район","category":"Концерты","isFree":true,"price":"","image":"https:\/\/all.culture.ru\/uploads\/5c574aa09240309e7eda07d86ad25041.png","place":"Большекашелакский социально-культурный центр","address":"обл Иркутская,р-н Куйтунский,с Большой Кашелак,ул Молодежная,д 2","organizer":"МКУК БСКЦ"},{"id":6339628,"title":"Концерт «Звени, родное Приисетье»","description":"  Школа искусств приглашает детей на концерт, в котором прозвучат лучшие музыкальные произведения, исполненные юными дарованиями на традиционных русских народных инструментах: баяне, гармони и деревянных ложках. Особое внимание заслуживает мастер-класс игры на ложках, организованный специально для юных зрителей перед началом концерта. Каждый ребенок сможет попробовать себя в роли настоящего исполнителя и научиться основам игры на этом музыкальном инструменте. Итоговым номером станет совместное выступление учеников класса народных инструментов вместе с участниками мастер-класса. Ведущий концерта проведет увлекательную экскурсию в историю народных музыкальных инструментов, поделится интересными фактами и расскажет о традициях исполнения произведений, передаваемых из поколения в поколение. Это позволит зрителям глубже погрузиться в атмосферу русского фольклора и почувствовать дух предков.    ","age":6,"ageCategory":"6+","startDate":"18.11.2025","endDate":"18.11.2025","city":"Исетский район","category":"Концерты","isFree":true,"price":"","image":"https:\/\/all.culture.ru\/uploads\/d9150ca68f1070be7b87ae46e6b1598d.JPG","place":"Исетская детская школа искусств","address":"обл Тюменская,р-н Исетский,с Исетское,ул Кирова,зд 39","organizer":"АУ ДО «Исетская детская школа искусств»"},{"id":6339713,"title":"Концерт «Мамины руки, мамино сердце»","description":"Детская школа искусств рада приветствовать дорогих мам и бабушек на музыкальном концерте ко Дню матери «Мамины руки, мамино сердце». Концерт посвящен самому главному человеку в жизни каждого – маме. В программе вас ждут выступления творческих коллективов, вокальные и инструментальные номера, а также трогательные слова благодарности матерям. Праздник призван подчеркнуть значимость материнской заботы и любви, напомнить о важности семейных ценностей и уважении к родителям. Концерт объединит поколения и подарит незабываемые эмоции всем гостям. Приходите, чтобы выразить признательность своим мамам и провести время в теплой атмосфере. Не упустите возможность поддержать отличную инициативу и стать частью большого семейного праздника!","age":6,"ageCategory":"6+","startDate":"29.11.2025","endDate":"29.11.2025","city":"Анивский район","category":"Концерты","isFree":true,"price":"","image":"https:\/\/all.culture.ru\/uploads\/2223d9579856d1ac578274671cde508f.jpg","place":"Школа искусств с. Троицкого","address":"обл Сахалинская,р-н Анивский,с Троицкое,ул Молодежная,д 13","organizer":"Муниципальное бюджетное учреждение дополнительного образования «Школа искусств с. Троицкое»"},{"id":6339749,"title":"Праздничный концерт «С любовью к Матери»","description":"         Концерт, посвящённый Дню матери, станет настоящим праздником любви, тепла и благодарности. Мероприятие соберёт в одном зале представителей разных поколений, чтобы отдать дань уважения самым важным женщинам в жизни каждого. В программе концерта представлены выступления детей и взрослых, которые исполняют песни, читают стихи и делятся своими искренними поздравлениями для самых дорогих женщин. Атмосфера наполнена теплом и любовью, а зрители могут насладиться яркими номерами, которые подчеркивают важность материнской любви и заботы. Концерт становится не только праздником, но и возможностью выразить благодарность и признательность всем мамам за их безусловную поддержку и заботу.     ","age":12,"ageCategory":"12+","startDate":"26.11.2025","endDate":"26.11.2025","city":"Шаранский район","category":"Концерты","isFree":true,"price":"","image":"https:\/\/all.culture.ru\/uploads\/1232c5a5dac3de9da28f5e23239d596c.jpg","place":"Мичуринский сельский дом культуры","address":"Респ Башкортостан,р-н Шаранский,с Мичуринск,ул Миргая Фархутдинова,д 3","organizer":"МБУ «ЦРДК» муниципального района Шаранский район РБ"},{"id":6339819,"title":"Концерт «Родной язык-душа народа»","description":"  14 декабря в Республике Башкортостан отмечается День башкирского языка. Этот праздник был учрежден главой Республики в 2019 году для того, чтобы сохранить и развивать башкирский язык как часть языкового многообразия народов Российской Федерации.День башкирского языка приурочен ко дню рождения выдающегося башкирского поэта и просветителя Акмуллы (настоящее имя – Мифтахетдин Камалетдинович Камалетдинов), который занимает особое место в культуре Башкортостана. Язык часто называют душой народа, ведь он не только хранит в себе исторические связи с древностью, но и обладает уникальными звуковыми и интонационными оттенками, которые отражают мировосприятие народа. Язык несет в себе частичку национального характера и служит носителем исторической памяти, подчеркивая уникальность своих носителей.В честь Дня башкирского языка в районном дворце культуры пройдет концерт. На этом мероприятии прозвучат стихи и песни башкирских поэтов о родном языке, что создаст атмосферу радости и гордости за свою культуру.  ","age":12,"ageCategory":"12+","startDate":"15.12.2025","endDate":"15.12.2025","city":"Балтачевский район","category":"Концерты","isFree":true,"price":"","image":"https:\/\/all.culture.ru\/uploads\/be5682b515b132e8d2dee4ee95b54f36.jpg","place":"Районный дворец культуры с. Старобалтачево","address":"Респ Башкортостан,р-н Балтачевский,с Старобалтачево,ул Советская,зд 29","organizer":"МАУ «Районный дворец культуры» муниципального района Балтачевский район"}],"total":30,"page":1,"limit":12,"pages":3}