{"events":[{"id":6339237,"title":"Час патриотизма «Имя твоё неизвестно, подвиг твой бессмертен»","description":"День Неизвестного солдата – день, когда мы можем вспомнить и почтить память всех солдат, защищавших нашу Родину. 3 декабря в СК Таковары  пройдёт  час патриотизма «Имя твоё неизвестно, подвиг твой бессмертен». Ребята познакомятся с историей дня памяти, воинской доблестью и подвигами, погибших солдат. В знак памяти в клубе прочтем  стихи М. Исаковского, В. Высотского, Б. Сермана, Е. Осминкиной. Также в ходе мероприятия ребята узнают о памятниках, посвящённых подвигу солдат. В клубе ко Дню Неизвестного солдата будет оформлена книжная выставка «Я, конечно, вернусь…». В завершение мероприятия  ребятами зажгем свечи памяти.","age":0,"ageCategory":"0+","startDate":"03.12.2025","endDate":"03.12.2025","city":"Буинский район","category":"Прочие","isFree":true,"price":"","image":"https:\/\/all.culture.ru\/uploads\/d5f719fa905a58278db79731c1591212.jpg","place":"Клуб с. Таковары","address":"Респ Татарстан,р-н Буинский,с Таковары,ул Школьная,12","organizer":"МБУ «Районный Дом культуры» Буинского МР"},{"id":6339337,"title":"Краеведческий час «Исторические вехи Магадана: Люди и События»","description":"Магадан – город с         уникальной и судьбоносной историей, в которой переплелись мужество, трагедия и         триумф. Приглашаем читателей на краеведческий час, где мы пройдём по основным         вехам становления столицы Колымы.     Участников ждёт         глубокий и многогранный рассказ о ключевых событиях и людях, которые создавали         облик города. Вы узнаете о первых исследователях Дальнего Востока, о времени         больших надежд и великих строек, о суровых испытаниях эпохи и о невероятной         силе духа магаданцев.     Через архивные         фотографии, кадры кинохроники и документы оживут истории первооткрывателей,         геологов, архитекторов и простых тружеников, чьими руками возводился город. Мы         вспомним тех, чьи имена вписаны в летопись Магадана, и откроем для себя         малоизвестные страницы его прошлого","age":6,"ageCategory":"6+","startDate":"17.12.2025","endDate":"17.12.2025","city":"Магадан","category":"Прочие","isFree":true,"price":"","image":"https:\/\/all.culture.ru\/uploads\/7cc7fd75f9a7edbf8a2c1f0fb35bec73.jpg","place":"Детско-юношеский центр чтения г. Магадана","address":"обл Магаданская,г Магадан,ул Гагарина,д 44\/1","organizer":"МБУК города Магадана «Централизованная библиотечная система»"},{"id":6339436,"title":"Наследники победы - кинолекторий","description":"  Кинолекторий — это форма воспитательной и образовательной работы, предполагающая коллективный просмотр и обсуждение фильмов на определённую тематику. В рамках празднования 80‑летия Победы такие мероприятия приобретают особую значимость: они помогают сохранить историческую память, глубже осмыслить события военного времени и их значение. В ходе кинолектория участники не просто смотрят фильм, но и участвуют в дискуссии, делятся впечатлениями, анализируют сюжет и характеры героев, соотносят увиденное с историческими фактами. Это способствует развитию критического мышления, эмпатии и чувства сопричастности к судьбе страны.  ","age":6,"ageCategory":"6+","startDate":"17.11.2025","endDate":"17.11.2025","city":"Черемховский район","category":"Встречи","isFree":true,"price":"","image":"https:\/\/all.culture.ru\/uploads\/bd506522c0a3bd41e9753cdccdd903a2.jpg","place":"Районный дом культуры «Жарки»","address":"обл Иркутская,р-н Черемховский,рп Михайловка,кв-л 2,зд 5","organizer":"МКУК «Межпоселенческий культурный центр администрации Черемховского районного МО»"},{"id":6339465,"title":"«Обо всем и сразу» - интеллектуальный квиз","description":"«Обо         всем и сразу» — это не просто викторина, это увлекательное путешествие по самым         разным областям знаний. Участников ждут интересные вопросы, нестандартные         задания и неожиданные повороты. Тематика квиза охватывает широкий спектр         дисциплин: от истории и культуры до науки и искусства, от кино и музыки до         спорта и современных технологий.  Мероприятие     ориентировано на молодежную аудиторию, но будет интересно всем, кто любит     интеллектуальные игры и стремится к новым знаниям. Квиз — это отличный способ     расширить кругозор, узнать много нового и интересного, а также научиться     работать в команде и находить нестандартные решения.","age":12,"ageCategory":"12+","startDate":"24.12.2025","endDate":"24.12.2025","city":"Мариинский район","category":"Встречи","isFree":false,"price":200,"image":"https:\/\/all.culture.ru\/uploads\/74f686b2b28f25bad1b11fcabb8376c9.jpg","place":"Мариинский районный дом культуры","address":"обл Кемеровская область - Кузбасс,р-н Мариинский,д Пристань 2-я,ул Весенняя,д 13","organizer":"МБУК «Районный Дом культуры»"},{"id":6339521,"title":"Литературный час «Сквозь огонь и стужу мы прошли...»","description":"В рамках 110-летия со дня рождения К. М. Симонова библиотекари приглашают любителей истории и литературы к знакомству с судьбой и творчеством выдающегося писателя, поэта и военного корреспондента. Насколько важно знать историю своей страны и как дорога память о великом прошлом России, библиотекари постараются раскрыть через творчество одного из самых честных ее летописцев. Участники мероприятия смогут прочитать любимые строки удивительного писателя. Демонстрация видеофрагментов из кинофильмов по произведениям Константина Михайловича, таких как «Живые и мертвые», поможет ощутить грозную атмосферу военных лет и понять, «какой нелегкой была победа нашей страны». Особую атмосферу для гостей создадут книги и биографические очерки, копии фотографий и документов, представленные на выставке, которая познакомит с наследием писателя. ","age":6,"ageCategory":"6+","startDate":"25.11.2025","endDate":"25.11.2025","city":"Киселевск","category":"Встречи","isFree":true,"price":"","image":"https:\/\/all.culture.ru\/uploads\/b92447c4174cc089a14661985acb3a44.jpg","place":"Детская библиотека-филиал № 6 г. Киселевска","address":"обл Кемеровская область - Кузбасс,г Киселевск,ул Садовая,д 5","organizer":"МБУК «ЦБС»"},{"id":6339524,"title":"Кинопрограмма «Дела семейные… Жизнь и творчество советской писательницы М. Л. Халфиной»","description":"  Музейный сотрудник расскажет о творческой жизни писательницы, гости узнают о фильмах, снятых по произведениям Марии Халфиной.Мария Леонтьевна Халфина (1908-1988) — советская писательница. Автор знаменитой повести «Мачеха», по которой в 1973 году был поставлен одноименный фильм. В фильме сыграла одну из своих наиболее известных ролей в кино Татьяна Доронина. По итогам опроса зрителей журнала «Советский экран» фильм был признан лучшим фильмом 1973 года, а Доронина — лучшей актрисой года. Фильм входит в двадцатку лидеров советского кинопроката из числа отечественных фильмов.  ","age":16,"ageCategory":"16+","startDate":"30.11.2025","endDate":"30.11.2025","city":"Барнаул","category":"Экскурсии","isFree":false,"price":60,"image":"https:\/\/all.culture.ru\/uploads\/ae7f1eb0555c58020b5cc2a143f899db.jpg","place":"Государственный музей истории литературы, искусства и культуры Алтая","address":"край Алтайский,г Барнаул,ул Льва Толстого,д 2","organizer":"КГБУК «Государственный музей истории литературы, искусства и культуры Алтая»"},{"id":6339577,"title":"«Музыка моей земли»","description":"В уютном зале сельского клуба пройдет час досуга, посвященный мордовским народным песням. В исполнении самодеятельных творческих коллективов: мордовского народного ансамбля «Карголей», Вокального ансамбля «Селяночка», фольклорного ансамбля «Боярава»  прозвучат мордовские народные и авторские песни. Ведущие познакомят гостей программы с замечательной мордовской сказительницей, писателем и исполнительницей мордовских песен Серафимой Люлякиной. В зале будет царить приятная атмосфера добра и хорошего настроения. ","age":6,"ageCategory":"6+","startDate":"19.11.2025","endDate":"19.11.2025","city":"Сергиевский район","category":"Прочие","isFree":true,"price":"","image":"https:\/\/all.culture.ru\/uploads\/37820f1a354ec4c5deb71a56815e2ce7.jpg","place":"Захаркинский сельский клуб","address":"обл Самарская,р-н Сергиевский,с Захаркино,ул Пролетарская,зд 5","organizer":"МАУК «МКДЦ» Муниципального района Сергиевский"},{"id":6339578,"title":"Вечер скрипичной и фортепианной музыки","description":"В музыке разных эпох, стилей, вы услышите близкие воспоминания юности, глубокие чувства и переживания произведений прошлого и настоящего. От Бетховена до Яна Тирсена в исполнении лауреатов международных конкурсов Эюбовой Камиллы и Ковалева Михаила.От Бетховена к Яну Тирсену. Вы услышите музыку эпохи классицизма, романтизма, а также современную музыку из кинофильмов и песен, великих композиторов.Программа:Бетховен Соната для скрипки и фортепиано №5 \"Весенняя\"Бизе-Ваксман Фантазия из оперы \"Кармен\" для скрипки и фортепианоФрэнк Синатра \"May way\"Мишель Легран музыка из кинофильма \"Шербургские зонтики\"Ян Тирсен музыка из кинофильма \"Амели\"Исполняют лауреаты международных конкурсов Эюбова Камилла и Ковалев МихаилКамилла Эюбова, лауреат международных конкурсов, закончила Московскую консерваторию у Майи Самойловны ГЛЕЗАРОВОЙ (1924-2017).       Выступала в залах Московской консерватории,         Бетховенском зале и на исторической сцене Большого театра, в доме Ученых, в         доме Ермоловой, в Малом и Большом зале музея Скрябина, музее Рахманинова,         киноконцертном зале Эльдар, музее Цветаевой, а также заграницей в туре по всей         Европе, включая Испанию, Австрию, Латвию, Германию и Францию, соло с оркестром.  В репертуар         входят концерты для скрипки:  Бетховена,         Брамса, Дворжака, Сибелиуса, Чайковского, Хачатуряна, Прокофьева 1й и 2й         концерты и Шостаковича 1й концерт, а также лучшие произведения, написанные для         скрипки и фортепиано, от И.Баха до Б.Бартока.  Также имеются рекомендации видных профессоров: Павла         Бермана (Швейцария), В.М. Иванова (Россия), М.С. Глезаровой, Слуцкой, А.А.         Шанина.  Имеются интервью на сайтах Яндекс-дзен, Музыкальный         клондайк www.muzklondike.ru\/afisha\/7181, на Культура РФ,         www.culture.ru\/events\/2075596\/vecher-skripichnoi-muzyki .  Работала в         Большом театре с 2021-2022 год.  В 2000 г.         Выиграла международный конкурс в Афинах, Греция.  В 2018 получила         диплом на международном конкурсе Musical strings.  В 2021         выиграла 3 приз на международном конкурсе World vision.  В 2021 году         выпустила диск на Американской студии звукозаписи. Аудитория в интернете         насчитывает 3000 человек.  Михаил Ковалев – пианист, композитор, лауреат         международных конкурсов, заместитель председателя Московского отделения         Российского творческого Союза работников культуры, Член Международного союза         музыкальных деятелей, Российского музыкального союза, Российского общества         Знание, Союза композиторов Евразии, Международного союза композиторов XXI век,         Международного общества музыкального образования при ЮНЕСКО и многих других         профессиональных организаций, один из последних учеников выдающегося пианиста XX-го века,         Народного артиста СССР, профессора Виктора Карповича МЕРЖАНОВА (1919 –         2012).   Игру Михаила Ковалева отличает благородство,         красивый, насыщенный звук с богатой тембральной окраской. Он легко преодолевает         технические трудности, которые становятся незаметными для слушателей во время         его выступлений. Исполнение пианиста всегда горячо воспринимаются публикой. В         обширном концертном репертуаре пианиста произведения Баха, Клементи, Моцарта,         Гайдна, Бетховена, Шуберта, Шумана, Шопена, Листа, Рахманинова, Балакирева,         Ляпунова, Прокофьева, Скрябина, Дебюсси, Равеля, Бабаджаняна, Шнитке, Печи и         других композиторов, в том числе современных.  Выступал во многих городах России, а также в Болгарии,         Италии, США, Албании. Постоянный участник концертных, памятных и патриотических         мероприятий Московской Государственной консерватории им. П. И. Чайковского.         Общественный деятель, художественный руководитель Творческого Проекта «ЛИРА»,         посвященного пропаганде и развитию классического искусства, патриотического         воспитания, поддержке молодых музыкантов, композиторов, художников, поэтов,         литераторов и других представителей прекрасных искусств, содействию работе         педагогов.   Михаил             Ковалев продолжает         традиции русской романтической школы. Является автором фортепианных, камерных,         хоровых, вокальных, духовных сочинений. ","age":0,"ageCategory":"0+","startDate":"23.11.2025","endDate":"23.11.2025","city":"Москва","category":"Концерты","isFree":false,"price":1000,"image":"https:\/\/all.culture.ru\/uploads\/2fc6c090ce7e91ac020fbc1775b9dda5.jpg","place":"Дом культуры «Гайдаровец»","address":"г Москва,г Москва,ул Земляной Вал,д 27","organizer":"ИП Ковалев Михаил Викторович"},{"id":6339606,"title":"Праздничный концерт «Свет Рождественской звезды»","description":" Старый Новый год – один из самых любимых семейных праздников россиян. Он словно дает второй шанс сделать то, что не успели воплотить в новогоднюю ночь: загадать желание под бой курантов, прогуляться по новогодним локациям, посмотреть любимое кино или мультфильм с близкими людьми. Этот праздник позволяет вспомнить народные обряды и традиции.Гости концертной программы узнают о традиции отмечать Старый новый год. Ведущие расскажут о святочных гаданиях и колядках. Будут веселые поздравления, интересные игры, конкурсы, предсказания. Не обойдется и без новогодних песен в исполнении фольклорного ансамбля «Непоседы» и преподавателей на музыкальных инструментах Теплая атмосфера мероприятия станет прекрасным завершением новогодних праздников и оставит приятные воспоминания до следующего Нового года.","age":6,"ageCategory":"6+","startDate":"14.01.2026","endDate":"14.01.2026","city":"Мариинский район","category":"Концерты","isFree":false,"price":200,"image":"https:\/\/all.culture.ru\/uploads\/ddafdbea3ccea21f3dfb981091c6705a.jpg","place":"Детская музыкальная школа № 80 с. Суслово","address":"обл Кемеровская область - Кузбасс,р-н Мариинский,с Суслово,ул Стройка,зд 12","organizer":"МБУ ДО «ДМШ № 80»"},{"id":6339620,"title":"Час незабвения «Спасибо тебе, безымянный солдат!»","description":"3 декабря в России ежегодно отмечается День неизвестного солдата. Этот памятный день был установлен в 2014 году и посвящен памяти советских и российских военнослужащих, погибших в боевых действиях, чьи имена так и остались неизвестными.В этот день библиотекарь проведет мероприятие, на котором расскажет об истории возникновения этой даты и о создании мемориального комплекса «Могила Неизвестного солдата». Рассказ будет сопровождаться презентацией «Нет безымянных героев…», кадрами военной кинохроники и чтением стихов, посвященные подвигу неизвестных солдат В рамках мероприятия участники смогут ознакомиться с книгами о войне на выставке «Солдат моей Родины». Завершится мероприятие минутой молчания, которая станет выражением глубокой признательности и уважения к павшим героям, чьи подвиги навсегда останутся символом стойкости и мужества русского народа.  ","age":12,"ageCategory":"12+","startDate":"03.12.2025","endDate":"03.12.2025","city":"Дюртюлинский район","category":"Встречи","isFree":true,"price":"","image":"https:\/\/all.culture.ru\/uploads\/6c996c0f01c1884b78da6ccbaaf152b3.jpg","place":"Маядыковская сельская библиотека – филиал № 17","address":"Респ Башкортостан,р-н Дюртюлинский,с Маядык,ул Горшкова,д 14","organizer":"МБУК «Межпоселенческая централизованная библиотечная система» МР Дюртюлинский район"},{"id":6339751,"title":"«Серафима Марковна люлякина–поэт, сказительница»","description":"В уютном зале сельского клуба пройдет час досуга, посвященный Серафиме Марковне Люлякиной, эрзянской сказительницы, писателя. Имя Серафимы Марковны в духовной жизни мордовского народа всегда связывалось с большим рукописным и печатным наследием — сказками, балладами, стихами, баснями, пьесами, песнями, частушками, загадками, поговорками, составляющими прекрасную жемчужину эрзянского фольклора. Она обогатила песенное искусство Мордовии исполнительским мастерством и внесла большой вклад в развитие мордовской культуры.  Ведущие мероприятия познакомят пользователей с удивительной биографией и творчеством народной сказительницы  и узнают, как красив и мелодичен мордовский язык, богата народная культура мордвы.  ","age":6,"ageCategory":"6+","startDate":"21.11.2025","endDate":"21.11.2025","city":"Сергиевский район","category":"Прочие","isFree":true,"price":"","image":"https:\/\/all.culture.ru\/uploads\/15c3c11221d66ce22610d8b4a9131694.jpg","place":"Захаркинский сельский клуб","address":"обл Самарская,р-н Сергиевский,с Захаркино,ул Пролетарская,зд 5","organizer":"МАУК «МКДЦ» Муниципального района Сергиевский"},{"id":6339759,"title":"«Акыллыга сүз әйттем»","description":"Дети познакомятся с жизнью и творчеством детского             писателя Музагита Ахметзянова, автора 13 книг и многих сборников             стихов, среди которых наибольшей популярностью пользуются книги. «Я учусь             считать», «Давайте будем красивыми», «Полетела, полетела…». Писатель играет             на многих музыкальных инструментах, руководит детским творческим             литературным кружком, фотограф, кинорежиссер, оператор. Ребята с огромным             интересом слушают поучительные, веселые и добрые стихи о природе,             домашних любимцах, соревнуются в умении рифмовать, в чтении             скороговорок. После мероприятия учащиеся могли познакомиться с книгами             замечательного татарского детского поэта, прочитают несколько произведений.","age":0,"ageCategory":"0+","startDate":"15.12.2025","endDate":"15.12.2025","city":"Азнакаевский район","category":"Прочие","isFree":true,"price":"","image":"https:\/\/all.culture.ru\/uploads\/bc495b6fe903c9fbdbe6c5eb38bd2e3f.jpg","place":"Сарлинская сельская библиотека","address":"Респ Татарстан,р-н Азнакаевский,с Сарлы,ул Центральная,зд 68А","organizer":"МБУ «Централизованная библиотечная система Азнакаевского муниципального района»"}],"total":30,"page":1,"limit":12,"pages":3}