{"events":[{"id":6340048,"title":"Кинопоказ семейной комедии «Моё собачье дело»","description":"  Михаил — бывший конструктор самолетов, а ныне просто дедушка. Однажды 31 декабря они с внуком Сережей подбирают пса, который прятался от новогодних салютов, и называют Стёпкой. Внука забирают родители, и вскоре Михаилу становится плохо. Теперь у Стёпки есть совсем немного времени, чтобы позвать на помощь и спасти жизнь хозяину. Но сделать это очень трудно, ведь никто из людей не знает собачьего языка. Единственный выход — найти Сережу, который, как кажется Степке, понимает его. И тогда четырехлапый герой отправляется на другой конец города навстречу невероятным приключениям.  ","age":6,"ageCategory":"6+","startDate":"22.11.2025","endDate":"22.11.2025","city":"Златоуст","category":"Кино","isFree":false,"price":100,"image":"https:\/\/all.culture.ru\/uploads\/2b6ca413230bc46609e4db8d0d12c735.jpg","place":"Дворец культуры «Железнодорожник» г. Златоуста","address":"обл Челябинская,г Златоуст,ул им. П.П.Аносова,д 261","organizer":"МАУК «Дворец культуры «Железнодорожник» Златоустовского городского округа"},{"id":6340057,"title":"Субботний кинопоказ «Мультпарк»","description":"13 декабря в Октябрьском Доме культуры пройдет показ мультфильма.Для детей попкорн и сладкая  вата.  Ганзель и Гретель — лучшие агенты Отдела магической безопасности, которым поручают необычное дело: расколдовать принцессу без поцелуя прекрасного принца. Король и королева не верят в сказки и требуют немедленного решения. Чтобы снять проклятие, брат и сестра должны отыскать злую ведьму и заставить её раскрыть секрет чар. Но чем глубже они погружаются в расследование, тем отчетливее понимают, что справиться с заданием будет очень и очень непросто.  ","age":6,"ageCategory":"6+","startDate":"13.12.2025","endDate":"13.12.2025","city":"Чунский район","category":"Кино","isFree":true,"price":"","image":"https:\/\/all.culture.ru\/uploads\/b57f231ad0973098c55736e52d6ded69.jpg","place":"Культурно-спортивный центр п. Октябрьского","address":"обл Иркутская,р-н Чунский,рп Октябрьский,ул Декабристов,д 7","organizer":"МБУ «Культурно-спортивный центр»"},{"id":6340069,"title":"Показ фильма «Яга на нашу голову»","description":"Когда у десятилетнего Пети появляется новая воспитательница – странная и ворчливая, но невероятно обаятельная, – он быстро понимает, что она не такая, как все. Она – «няня под прикрытием», а на самом деле – Яга, легендарная волшебница, потерявшая свою ступу и спрятавшаяся среди людей. Теперь только Петя сможет помочь ей вернуть магические силы, а Яга – научить мальчика летать. И не только на ступе, но и по жизни. Режиссером картины является Александр Войтинский («По щучьему велению»). Главные роли исполнили Светлана Ходченкова и Юрий Колокольников.","age":6,"ageCategory":"6+","startDate":"12.11.2025","endDate":"03.12.2025","city":"Динской район","category":"Кино","isFree":false,"price":200,"image":"https:\/\/all.culture.ru\/uploads\/99848765da4fa48e734751e09e7377df.jpg","place":"Кинотеатр «40 лет Победы»","address":"край Краснодарский,р-н Динской,ст-ца Динская,ул Красная,д 75","organizer":"БУК МО «Районный киноцентр»"},{"id":6340093,"title":"Показ фильма «Яга на нашу голову»","description":"Когда у десятилетнего Пети появляется новая воспитательница – странная и ворчливая, но невероятно обаятельная, – он быстро понимает, что она не такая, как все. Она – «няня под прикрытием», а на самом деле – Яга, легендарная волшебница, потерявшая свою ступу и спрятавшаяся среди людей. Теперь только Петя сможет помочь ей вернуть магические силы, а Яга – научить мальчика летать. И не только на ступе, но и по жизни. Режиссером картины является Александр Войтинский («По щучьему велению»). Главные роли исполнили Светлана Ходченкова и Юрий Колокольников.","age":6,"ageCategory":"6+","startDate":"12.11.2025","endDate":"10.12.2025","city":"Саргатский район","category":"Кино","isFree":false,"price":130,"image":"https:\/\/all.culture.ru\/uploads\/99848765da4fa48e734751e09e7377df.jpg","place":"Саргатский районный дом культуры","address":"обл Омская,р-н Саргатский,рп Саргатское,ул Октябрьская,д 12","organizer":"МБУК «Саргатская ЦКС»"},{"id":6340097,"title":"Показ фильма «Яга на нашу голову»","description":"Когда у десятилетнего Пети появляется новая воспитательница – странная и ворчливая, но невероятно обаятельная, – он быстро понимает, что она не такая, как все. Она – «няня под прикрытием», а на самом деле – Яга, легендарная волшебница, потерявшая свою ступу и спрятавшаяся среди людей. Теперь только Петя сможет помочь ей вернуть магические силы, а Яга – научить мальчика летать. И не только на ступе, но и по жизни. Режиссером картины является Александр Войтинский («По щучьему велению»). Главные роли исполнили Светлана Ходченкова и Юрий Колокольников.","age":6,"ageCategory":"6+","startDate":"12.11.2025","endDate":"19.11.2025","city":"Ряжский район","category":"Кино","isFree":false,"price":300,"image":"https:\/\/all.culture.ru\/uploads\/99848765da4fa48e734751e09e7377df.jpg","place":"Ряжский дом культуры","address":"обл Рязанская,р-н Ряжский,г Ряжск,ул Карла Маркса,д 34","organizer":"МБУК «Ряжский РДК»"},{"id":6340099,"title":"Показ фильма «Яга на нашу голову»","description":"Когда у десятилетнего Пети появляется новая воспитательница – странная и ворчливая, но невероятно обаятельная, – он быстро понимает, что она не такая, как все. Она – «няня под прикрытием», а на самом деле – Яга, легендарная волшебница, потерявшая свою ступу и спрятавшаяся среди людей. Теперь только Петя сможет помочь ей вернуть магические силы, а Яга – научить мальчика летать. И не только на ступе, но и по жизни. Режиссером картины является Александр Войтинский («По щучьему велению»). Главные роли исполнили Светлана Ходченкова и Юрий Колокольников.","age":6,"ageCategory":"6+","startDate":"12.11.2025","endDate":"03.12.2025","city":"Пестовский район","category":"Кино","isFree":false,"price":250,"image":"https:\/\/all.culture.ru\/uploads\/99848765da4fa48e734751e09e7377df.jpg","place":"Кинотеатр «Россия» г. Пестово","address":"обл Новгородская,р-н Пестовский,г Пестово,ул Советская,д 12","organizer":"МБУК «Межпоселенческий культурно-досуговый центр»"},{"id":6340103,"title":"Показ фильма «Яга на нашу голову»","description":"Когда у десятилетнего Пети появляется новая воспитательница – странная и ворчливая, но невероятно обаятельная, – он быстро понимает, что она не такая, как все. Она – «няня под прикрытием», а на самом деле – Яга, легендарная волшебница, потерявшая свою ступу и спрятавшаяся среди людей. Теперь только Петя сможет помочь ей вернуть магические силы, а Яга – научить мальчика летать. И не только на ступе, но и по жизни. Режиссером картины является Александр Войтинский («По щучьему велению»). Главные роли исполнили Светлана Ходченкова и Юрий Колокольников.","age":6,"ageCategory":"6+","startDate":"12.11.2025","endDate":"16.11.2025","city":"Иловлинский район","category":"Кино","isFree":false,"price":150,"image":"https:\/\/all.culture.ru\/uploads\/99848765da4fa48e734751e09e7377df.jpg","place":"Районный дом культуры киноконцертный зал ДОН п. Иловля","address":"обл Волгоградская,р-н Иловлинский,рп Иловля,пл Ленина,д 2а","organizer":"МАУК «РДК»"},{"id":6340170,"title":"Показ фильма «Яга на нашу голову»","description":"Когда у десятилетнего Пети появляется новая воспитательница – странная и ворчливая, но невероятно обаятельная, – он быстро понимает, что она не такая, как все. Она – «няня под прикрытием», а на самом деле – Яга, легендарная волшебница, потерявшая свою ступу и спрятавшаяся среди людей. Теперь только Петя сможет помочь ей вернуть магические силы, а Яга – научить мальчика летать. И не только на ступе, но и по жизни. Режиссером картины является Александр Войтинский («По щучьему велению»). Главные роли исполнили Светлана Ходченкова и Юрий Колокольников.","age":6,"ageCategory":"6+","startDate":"12.11.2025","endDate":"03.12.2025","city":"Челябинск","category":"Кино","isFree":false,"price":100,"image":"https:\/\/all.culture.ru\/uploads\/99848765da4fa48e734751e09e7377df.jpg","place":"Кинотеатр «Знамя»","address":"обл Челябинская,г Челябинск,ул Кирова,д 112","organizer":"МБУК Кинотеатр «Знамя»"},{"id":6340191,"title":"Показ фильма «Яга на нашу голову»","description":"Когда у десятилетнего Пети появляется новая воспитательница – странная и ворчливая, но невероятно обаятельная, – он быстро понимает, что она не такая, как все. Она – «няня под прикрытием», а на самом деле – Яга, легендарная волшебница, потерявшая свою ступу и спрятавшаяся среди людей. Теперь только Петя сможет помочь ей вернуть магические силы, а Яга – научить мальчика летать. И не только на ступе, но и по жизни. Режиссером картины является Александр Войтинский («По щучьему велению»). Главные роли исполнили Светлана Ходченкова и Юрий Колокольников.","age":6,"ageCategory":"6+","startDate":"09.11.2025","endDate":"23.11.2025","city":"Мучкапский район","category":"Кино","isFree":false,"price":200,"image":"https:\/\/all.culture.ru\/uploads\/99848765da4fa48e734751e09e7377df.jpg","place":"Дом культуры Мучкапского района","address":"обл Тамбовская,р-н Мучкапский,рп Мучкапский,ул Советская,д 7","organizer":"МБУК Мучкапского района «Районный Дом культуры»"},{"id":6340197,"title":"Показ фильма «Яга на нашу голову»","description":"Когда у десятилетнего Пети появляется новая воспитательница – странная и ворчливая, но невероятно обаятельная, – он быстро понимает, что она не такая, как все. Она – «няня под прикрытием», а на самом деле – Яга, легендарная волшебница, потерявшая свою ступу и спрятавшаяся среди людей. Теперь только Петя сможет помочь ей вернуть магические силы, а Яга – научить мальчика летать. И не только на ступе, но и по жизни. Режиссером картины является Александр Войтинский («По щучьему велению»). Главные роли исполнили Светлана Ходченкова и Юрий Колокольников.","age":6,"ageCategory":"6+","startDate":"12.11.2025","endDate":"26.11.2025","city":"Сухиничский район","category":"Кино","isFree":false,"price":250,"image":"https:\/\/all.culture.ru\/uploads\/99848765da4fa48e734751e09e7377df.jpg","place":"Дом культуры ст. Сухиничи-Главные","address":"обл Калужская,р-н Сухиничский,г Сухиничи,ул Чкалова,д 55","organizer":"МКУ «Межпоселенческий социально-культурный комплекс»"},{"id":6340222,"title":"Показ фильма «Яга на нашу голову»","description":"Когда у десятилетнего Пети появляется новая воспитательница – странная и ворчливая, но невероятно обаятельная, – он быстро понимает, что она не такая, как все. Она – «няня под прикрытием», а на самом деле – Яга, легендарная волшебница, потерявшая свою ступу и спрятавшаяся среди людей. Теперь только Петя сможет помочь ей вернуть магические силы, а Яга – научить мальчика летать. И не только на ступе, но и по жизни. Режиссером картины является Александр Войтинский («По щучьему велению»). Главные роли исполнили Светлана Ходченкова и Юрий Колокольников.","age":6,"ageCategory":"6+","startDate":"12.11.2025","endDate":"19.11.2025","city":"Нягань","category":"Кино","isFree":false,"price":100,"image":"https:\/\/all.culture.ru\/uploads\/99848765da4fa48e734751e09e7377df.jpg","place":"Кинотеатр «Планета»","address":"АО Ханты-Мансийский Автономный округ - Югра,г Нягань,мкр 1-й,д 29Г\/4","organizer":"Муниципальное автономное учреждение культуры города Нягани «Городской культурный центр «Планета»"},{"id":6340229,"title":"Показ фильма «Яга на нашу голову»","description":"Когда у десятилетнего Пети появляется новая воспитательница – странная и ворчливая, но невероятно обаятельная, – он быстро понимает, что она не такая, как все. Она – «няня под прикрытием», а на самом деле – Яга, легендарная волшебница, потерявшая свою ступу и спрятавшаяся среди людей. Теперь только Петя сможет помочь ей вернуть магические силы, а Яга – научить мальчика летать. И не только на ступе, но и по жизни. Режиссером картины является Александр Войтинский («По щучьему велению»). Главные роли исполнили Светлана Ходченкова и Юрий Колокольников.","age":6,"ageCategory":"6+","startDate":"12.11.2025","endDate":"13.12.2025","city":"Иркутский район","category":"Кино","isFree":false,"price":300,"image":"https:\/\/all.culture.ru\/uploads\/99848765da4fa48e734751e09e7377df.jpg","place":"Дом культуры с. Хомутово","address":"обл Иркутская,р-н Иркутский,с Хомутово,ул Кирова,зд 10Б","organizer":"МУК «Культурно спортивный комплекс» Хомутовского муниципального образования"}],"total":96,"page":13,"limit":12,"pages":8}