{"events":[{"id":6340636,"title":"Конкурс рисунков «Мамы разные важны, мамы разные нужны»","description":"Библиотекарь организует и проведет в сельской библиотеке конкурс рисунков ко Дню матери. Она расскажет о происхождении праздника, вспомнит стихи Ш. Галиева «Жирдә миңа ни кирәк?», Р. Миңнуллина «Әнкәйне сайлап алмыйлар» и З. Туфайловой «Әни сүзе». Затем познакомит детей с условиями конкурса.В ходе мероприятия ребята будут рисовать своих любимых мам, используя карандаши, краски и фантазию. В конце конкурса жюри выберет самые содержательные и аккуратные работы, вручит сертификаты и поощрительные призы участникам.","age":6,"ageCategory":"6+","startDate":"28.11.2025","endDate":"28.11.2025","city":"Аксубаевский район","category":"Встречи","isFree":true,"price":"","image":"https:\/\/all.culture.ru\/uploads\/10a07bdf6c8d9e69bfd2cb8f38f61c47.JPG","place":"Новодемкинская сельская библиотека, филиал № 6","address":"Респ Татарстан,р-н Аксубаевский,с Новое Демкино,ул Калинина,зд 13А","organizer":"РМБУК «Аксубаевская межпоселенческая центральная библиотека»"},{"id":6340638,"title":"Конкурс рисунков «Коррупция глазами детей»","description":"    6декабря в Мочалеевской сельской библиотеке  пройдет      конкурс рисунков «Коррупция глазами детей». Конкурс детских рисунков приурочен к             Всемирному дню борьбы с коррупцией, который отмечается 9 декабря             – в соответствии с Конвенцией ООН против коррупции, принятой Генеральной             ассамблеей ООН 1 ноября 2003 года. Конкурс организован в целях правового             воспитания молодежи в духе нетерпимости к проявлениям коррупции в любом             виде.Цель конкурса формирования анти коррупционного общественного мнения,     повышения правовой культуры, развития творческой инициативы и мышления,      формирования у  подрастающего поколения активной жизненной позиции.     Коррупция является одной из наиболее серьезных проблем в современном     обществе ","age":12,"ageCategory":"12+","startDate":"06.12.2025","endDate":"06.12.2025","city":"Дрожжановский район","category":"Прочие","isFree":true,"price":"","image":"https:\/\/all.culture.ru\/uploads\/5a005dc556d4aa2abeb43c2d9a25738a.jpg","place":"Мочалеевская сельская библиотека","address":"Респ Татарстан,р-н Дрожжановский,с Мочалей,ул Замалетдинова,д 10","organizer":"МБУ «Межпоселенческая библиотека Дрожжановского муниципального района Республики Татарстан»"},{"id":6340640,"title":"Беседа «Теннисная ракетка»","description":"  Ракетка для игры в теннис. В витрине 4 зала Свитского корпуса представлена ракетка для большого тенниса. Каркас изделия изготовлен из трех пород дерева, различающихся по цвету. На лицевой поверхности вилки вдавленная надпись золотистого цвета: «Clab». На торцевой поверхности полустертая тисненая надпись золотой краской: на верхней строке – «WHEN NOT IN USE», на нижней «…LASE KEEP IN PRESS». По центру в золотом овале: «Standart of Perfection &amp; Workimshion». Ракетка была изготовлена в США в начале XX века.Беседа проводится по предварительной записи по телефону +7 (950) 775-45-45  ","age":12,"ageCategory":"12+","startDate":"14.11.2025","endDate":"14.11.2025","city":"Рамонский район","category":"Прочие","isFree":false,"price":100,"image":"https:\/\/all.culture.ru\/uploads\/c0ac60058aa4429cd29b818009fb4f6d.jpg","place":"Историко-культурный центр «Дворцовый комплекс Ольденбургских»","address":"обл Воронежская,р-н Рамонский,рп Рамонь,ул Мосина,д 23 б","organizer":"АУК ВО «Историко-культурный центр «Дворцовый комплекс Ольденбургских»"},{"id":6340641,"title":"Всероссийский фестиваль «НАУКА 0+»","description":"21−22         ноября в библиотеке им. А. М. Горького пройдет Всероссийский фестиваль «НАУКА         0+» − крупнейшее научно-популярное событие в России, которое в доступной форме         рассказывает обществу, чем занимаются ученые, как научный поиск улучшает         качество жизни и какие возможности открываются для современного человека.      21 ноября        ●  «Научное     шоу профессора Николя» для юных зрителей, с захватывающими научными     экспериментами;  ●     познавательно-развлекательный     квиз «Окружающий мир и все, что вокруг него»;  ● награждение     победителя конкурса «Изобрети, чтобы улучшить планету!» от Центра науки;  ● научпоп     лекция «Жизнь малой молекулы: собираем атомы в лекарство» от драг дизайнера и     вычислительного химика Алисы Горислав;  ● открытая     площадка «Мир ИИ: интеллект в книгах и на экране», подобранная специалистами     отдела естественной и технической литературы библиотеки Горького;  ●  интерактивная     лекция «Охота за Северной Авророй» от ведущего программы «Просто Космос» на     телеканале «Ветта» Сергея Полищука.22 ноября        Субботние мероприятия будут особенно     интересны иностранным студентам и студентам, изучающим межкультурную     коммуникацию. С лекцией «Преодолевая культурные барьеры: учимся понимать,     несмотря на различия» библиотеку Горького посетит от ПГГПУ старший     преподаватель кафедры английского языка, филологии и перевода Дмитрий     Константинович Чулаков.      После лекции будет проведена     интерактивно-познавательная игра «Культурные головоломки», где гости смогут     прокачать навыки эмпатии и гибкого мышления, получить не только знания, но и     уникальный опыт живого взаимодействия.    Все события будут проходить в Интерактивном зале (2 этаж, правое крыло).  Для группового посещения требуется запись     на мероприятия через сообщения в наше сообщество в ВК: Фестиваль науки             NAUKA 0+ | Пермский край.   ","age":0,"ageCategory":"0+","startDate":"21.11.2025","endDate":"22.11.2025","city":"Пермь","category":"Встречи","isFree":true,"price":"","image":"https:\/\/all.culture.ru\/uploads\/4e898e105b66f173c7a63b7817c642c4.jpg","place":"Пермская краевая универсальная библиотека им. А. М. Горького","address":"край Пермский,г Пермь,ул Ленина,д 70","organizer":"ГКБУК «Пермская государственная краевая универсальная библиотека им А. М. Горького»"},{"id":6340642,"title":"Фотовыставка «Домашние питомцы»","description":"В рамках         Всемирного дня домашних животных в сельском доме культуры пройдет         фотовыставка. Это мероприятие представит собой уникальную возможность         продемонстрировать любовь к  меньшим братьям в объективе фотокамеры.  Участники фотовыставки представят фотографии         своих любимых питомцев, благодаря этому они смогут продемонстрировать свои         таланты и увлечения, а все Мурки и Шарики на время выставки         станут настоящими супермоделями, а также подарят всем посетителям яркие,         запоминающиеся впечатления и просто хорошее настроение.","age":0,"ageCategory":"0+","startDate":"21.11.2025","endDate":"21.11.2025","city":"Острогожский район","category":"Выставки","isFree":true,"price":"","image":"https:\/\/all.culture.ru\/uploads\/fb8caa95aedb7046bcd190dee97a46da.jpg","place":"Шубинский сельский дом культуры","address":"обл Воронежская,р-н Острогожский,с Шубное,ул Мира,д 11","organizer":"МКУК «Шубинский сельский культурно-досуговый центр» Острогожского МР"},{"id":6340643,"title":"Открытая полка «Погаси сигарету–зажги жизнь»","description":"  Ежегодно в третий четверг ноября в большинстве стран мира отмечается Международный день отказа от курения. В 2025 году этот день выпадает на 20 ноября.   Суть международного дня отказа от курения заключается в попытке снизить распространенность этой пагубной привычки, повысить осведомленность граждан о вреде курения, в чем помогут книги: Минко А., Линский И. «Наркология», Карр А. «Легкий способ бросить курить» и другие.    Также на полке будут представлены книги по здоровому образу жизни. Спорт, закалка, физические нагрузки, правильное питание – все это помогает быть человеку бодрым, здоровым, активным!   ","age":12,"ageCategory":"12+","startDate":"18.11.2025","endDate":"29.11.2025","city":"Брянский район","category":"Выставки","isFree":true,"price":"","image":"https:\/\/all.culture.ru\/uploads\/93152bd3cf3529639c69f63bef8fc7c4.jpg","place":"Снежская поселенческая библиотека","address":"обл Брянская,р-н Брянский,п Путевка,ул Центральная,д 14","organizer":"МБУК «Централизованная библиотечная система Брянского района»"},{"id":6340644,"title":"ЛИТО «Нерехтская Лира»","description":"На встрече будут заслушивать и обсуждать новые         произведения: стихи и прозу, также обменяются мнением по разным литературным         проблемам.  В         состав Литературного объединения входит около тридцати человек. Всех их         объединяет увлечение литературным творчеством. Многие «лировцы» выпустили свои,         авторские сборники стихов и прозы, презентации которых состоялись в нашей         библиотеке. Их произведения неоднократно                 публиковались не только в местных газетах «Нерехтская правда» и «Городок», но и                 в журналах «Литературная Кострома», «Губернский дом», альманахе «Кострома».  С 2010 года этот творческий союз возглавляет Ирина             Константиновна Лешкова, педагог, краевед, общественный деятель, Почетный             гражданин г. Нерехта. Благодаря Ирине Константиновне вышли в свет три             коллективных сборника стихов и прозы нерехтских авторов: «В краю черемух и             рябин», «Нерехта - песня моя», «Под мирным небом Нерехты моей».","age":12,"ageCategory":"12+","startDate":"15.11.2025","endDate":"15.11.2025","city":"Нерехтский район","category":"Встречи","isFree":true,"price":"","image":"https:\/\/all.culture.ru\/uploads\/c1c20822bf52e468757185b4fbb29d28.jpg","place":"Межпоселенческая библиотека им. М. Я. Диева","address":"обл Костромская,р-н Нерехтский,г Нерехта,ул Ленина,д 28А","organizer":"МУ «Межпоселенческая библиотека им. М. Я. Диева»"},{"id":6340646,"title":"Программа «Информационные ресурсы библиотеки»","description":"С течением времени воздействие информационных технологий на жизнь человека неуклонно возрастает, и современная библиотека активно адаптируется к этим переменам. Библиотека выступает в роли ключевого информационного узла, хранилища обширных ресурсов на разнообразных носителях, активно внедряя передовые компьютерные разработки.Об основных видах информационных ресурсов библиотеки присутствующие узнают из мультимедийной презентации. Специалист подробно осветит принципы классификации библиотечного фонда, расскажет о сетевых ресурсах, используемых для взаимодействия с читателями, а также о спектре услуг, доступных для удовлетворения их информационных запросов.","age":6,"ageCategory":"6+","startDate":"16.11.2025","endDate":"16.11.2025","city":"Ровеньский район","category":"Встречи","isFree":true,"price":"","image":"https:\/\/all.culture.ru\/uploads\/d7c77cd7ec8b60405a25e7075ceb5527.jpg","place":"Ладомировская модельная библиотека","address":"обл Белгородская,р-н Ровеньский,с Ладомировка,ул Школьная,д 14","organizer":"МБУК «Центральная библиотека Ровеньского района»"},{"id":6340648,"title":"«Возьмемся за руки друзья»","description":"В сельской библиотеке пройдет мероприятие для детей, приуроченное ко дню толерантности. Толерантность – это то, что делает возможным мир во всем мире. Заведующая библиотекой расскажет детям, что такое «Толерантность», о важности этого понятия в жизни человека и всего общества. Такие мероприятия способствуют привлечению внимания детей к проблеме взаимопонимания и уважения, к умению жить в мире и согласии. Также в библиотеке будет оформлена выставка рисунков детей «Толерантность: дорога к миру». Добрые слова и добрые поступки помогут справиться с трудностями жизни. Всегда нужно стараться быть полезным, вежливым и понимающим человеком.","age":6,"ageCategory":"6+","startDate":"17.11.2025","endDate":"17.11.2025","city":"Акушинский район","category":"Встречи","isFree":true,"price":"","image":"https:\/\/all.culture.ru\/uploads\/084ad5cf20e71a35d938ab1af7498e8a.jpg","place":"Библиотека с. Урхучимахи","address":"Респ Дагестан,р-н Акушинский,с Урхучимахи,ул Раджабова,д 10","organizer":"МКУ «Управление культуры и туризма» муниципального образования «Акушинский район»"},{"id":6340649,"title":"Беседа «В единстве наша сила»","description":"Сотрудник сельского клуба подготовит и проведет сессию разговоров, посвященную объединяющей роли поддержки коллектива в преодолении вызовов современной жизни. Формат мероприятия будет включать в себя краткие выступления спикеров, затем открытое обсуждение, направленное на поиск общих смыслов и совместных решений. Участники поделятся опытом сотрудничества, приведут примеры взаимной помощи и расскажут о крепнущей солидарности. В центре внимания – ценности доверия, взаимоуважения и ответственности за общее дело. В завершение мероприятия ребята сделают общую карту действий, вдохновляющую на продолжение сотрудничества в повседневной практике. ","age":12,"ageCategory":"12+","startDate":"13.11.2025","endDate":"13.11.2025","city":"Валуйский район","category":"Встречи","isFree":true,"price":"","image":"https:\/\/all.culture.ru\/uploads\/5cce8a81993e7f66c9e71d7cd7ab662f.jpg","place":"Хохловский сельский клуб","address":"обл Белгородская,р-н Валуйский,с Хохлово,ул Центральная,д 1","organizer":"МУК «Дворец культуры и спорта» Валуйского ГО"},{"id":6340650,"title":"Представление СВЕТОВЫХ КУКОЛ","description":"Абсолютно оригинальное, инновационное, интерактивное представление световых кукол для всей семьи, без языкового барьера. Это второе представление Театра Николая Зыкова, состоящее только из световых кукол, имеющих размеры от 1-го до 8-ми метров и способных удивить самых требовательных зрителей любого возраста. Это яркая и незабываемая программа световых кукол, потрясающая своими новыми креативными идеями. В непредсказуемом калейдоскопе очень разных световых миниатюр каждый найдет что-то свое. Программа представления составлена как продолжение путешествия в мир современного кукольного искусства, где каждая миниатюра – это новый неожиданный поворот, раскрывающий новые возможности этого уникального жанра. В этом представлении куклы рождаются прямо на глазах у изумленной публики, а взрослые снова становятся детьми. Погрузившись на дно океана вместе с гигантским осьминогом, потеряв ощущение пространства и времени, они возвращают себе возможность искреннего удивления и неподдельного восторга. Уникальные представления Театра Николая Зыкова с неизменным успехом собирают полные залы по всему миру. Критика называет эти шоу «пробирающими до мурашек», а Николая Зыкова «одним из самых значимых кукольников мира».Николай (правнучатый племянник Сергея Образцова) – артист мировой сцены, покоривший зрителей более чем в 50 странах Европы, Азии, Африки, Северной и Южной Америки, создавший более 200 уникальных марионеток, перчаточных, тростевых и экспериментальных кукол. Николай является автором, режиссером, художником и исполнителем более 20 кукольных представлений имеющих множество международных наград за инновационную креативность и выдающееся исполнительское мастерство, включая награды Всемирных Конгрессов кукольников УНИМА.Источником вдохновения для создания всех образов этого представления являются самые современные светодиоды и электролюминесцентные провода, и они же являются конструктивной основой самих кукол. Все куклы в представлении и марионетки, и тростевые куклы, и гигантские конструкции, светятся сами и имеют в своем строении новые конструктивные элементы из композитного углепластика. В этом представлении на глазах у зрителей создаются гигантские объемные фигуры из светодиодной росы, а потом с легкостью парят над сценой и зрительным залом. Впервые зрители увидят 3D марионетку, сделанную полностью из электролюминесцентных проводов. Насладиться красотами мира ярких коралловых рифов помогут конструкции новых неоновых флюгерных кукол. Новые необычные ощущения подарит зрителям конструкция из уникальной светодинамической росы.«Его представление никого не оставляет равнодушным. Что бы ни показывал он – все это сродни открытию.» Ольга Семенова. Молодая Гвардия, Россия.«На его представления идут целыми семьями. Каждая постановка Зыкова не просто спектакль, а феерическое шоу, способное удерживать внимание зрителей разных возрастов.» Юлия Быханова, ТВ Доверие, Россия.«Если говорить о кукольном жанре, то и сегодня в нем ведутся эксперименты. Новые технические возможности позволяют делать совершенно неожиданные трюки.» – Телеканал ОРТ, Россия.«... смесь размеров, форм и стилей, каждая из которых уникальна и увлекательна для просмотра. Это замечательная и уникальная концепция.» Праймэри Таймс, Великобритания.«Под прекрасно подобранную музыку многие куклы, к восхищению публики, создавались прямо на сцене, меняли форму, трансформировались, составляя потрясающие воображение гигантские сияющие фигуры.» Агентство новостей Тренд, Азербайджан.«Николай Зыков – самый титулованный кукольник России, мастер высшего международного класса...» Новости. Телеканал Культура, Россия.«Работы Николая, и современные, и классические, прекрасны. Он безусловно является сокровищем нации». Стивен Марк Овертон, США.«Николай Зыков – один из самых значимых кукольников мира, ...настоящий Мастер!» Фестиваль де Бонекос, Канела, Бразилия.Среди многочисленных наград: Приз «Инновация в искусстве» Шанхайского Международного Фестиваля Искусств, Приз «За выдающееся исполнительское мастерство» Международного фестиваля современного кукольного искусства в Бухаресте, Приз «За выдающуюся креативность» и Приз «За исполнительское мастерство» Азиатско-Тихоокеанской комиссии Всемирного Союза Кукольников УНИМА, Приз за «Выдающееся представление» Всемирного Конгресса Кукольников УНИМА, Лавры «Аншлаг-шоу» Эдинбургского Театрального Фестиваля.Представления Театра Николая Зыкова были показаны более 4000 раз более чем в 50 странах мира: в Аргентине, Бразилии, Венесуэле, Мексике, США, Канаде, Исландии, Эстонии, Латвии, России, Белоруссии, Польше, Германии, Бельгии, Великобритании, Франции, Испании, Италии, Швейцарии, Австрии, Чехии, Словакии, Венгрии, Румынии, Молдавии, Приднестровье, Болгарии, Греции, Кипре, Турции, Израиле, Египте, ЮАР, Маврикии, Сейшельских островах, Азербайджане, Иране, Казахстане, Узбекистане, Таджикистане, Афганистане, Пакистане, Индии, Бангладеш, Шри-Ланке, Сингапуре, Тайване, Китае, Южной Корее и Японии.","age":0,"ageCategory":"0+","startDate":"07.12.2025","endDate":"07.12.2025","city":"Одинцовский район","category":"Спектакли","isFree":false,"price":700,"image":"https:\/\/all.culture.ru\/uploads\/bfa6291c34345d3330f28049933b7558.jpg","place":"Культурно-досуговый центр с. Ершово","address":"обл Московская,р-н Одинцовский,с Ершово,д 3А","organizer":"МБУ «КСДЦ «Ершовское»"},{"id":6340651,"title":"«В мире и согласии»","description":"Человек рождается и живёт на земле для того, чтобы делать добро. Люди живут в одном большом доме – в стране. И в этой  стране дружат между собой люди разной национальности. Но порой сложно найти общий язык в коллективе учеников, работников одного предприятия. У каждого свои увлечения, интересы. Люди должны держаться вместе, считаться с мнением друг друга, заботиться друг о друге, дарить улыбки, добрые слова. Дружное проживание предполагает наличие у каждого таких человеческих качеств, как взаимопонимание, взаимоуважение, доброжелательность, сдержанность, уступчивость, терпимость…. Или одним словом — толерантность.  Сотрудниками Сургутского СДК подготовлена тематическая программа для детей, посвящённая дню толерантности.","age":0,"ageCategory":"0+","startDate":"17.11.2025","endDate":"17.11.2025","city":"Сергиевский район","category":"Встречи","isFree":true,"price":"","image":"https:\/\/all.culture.ru\/uploads\/d490d94e6773c49342468819fc02b411.jfif","place":"Сургутский сельский дом культуры","address":"обл Самарская,р-н Сергиевский,п Сургут,ул Кооперативная,зд 3","organizer":"МАУК «МКДЦ» Муниципального района Сергиевский"}],"total":973,"page":83,"limit":12,"pages":82}