{"events":[{"id":6340575,"title":"Познавательная беседа «Проблемы качества услуг и товаров»","description":" Всемирный день качества отмечается ежегодно во второй четверг ноября. В 2025 году он приходится на 13 ноября ноября. Во многих странах мира одной из первостепенных проблем в экономике выступает качество. Оно является ключом к успеху в развитии каждого предприятия. Специалисты Мартыновского клуба приглашают всех желающих на познавательную беседу, в ходе которой участники узнают о том, что первый критерий, которому должны соответствовать товары – это безопасность для людей и окружающей среды, второй – они должны отвечать заявленным нормам, запросам и ожиданиям потребителей. ","age":6,"ageCategory":"6+","startDate":"13.11.2025","endDate":"13.11.2025","city":"Мышкинский район","category":"Встречи","isFree":true,"price":"","image":"https:\/\/all.culture.ru\/uploads\/cf685c602bd1bd6ba262cff548c9c0b8.jpg","place":"Мартыновский дом культуры","address":"обл Ярославская,р-н Мышкинский,д Мартыново,ул Каменка,д 2","organizer":"МУ ММР «Межпоселенческий Дом культуры»"},{"id":6340576,"title":"«22 ноября День словарей и энциклопедий» книжная выставка","description":"Ко Дню словарей и энциклопедий  в Кормужиханской     сельской библиотеке оформлена книжная выставка. На книжной выставке представлены различные словари русского     языка: толковые, энциклопедические, фразеологические, этимологические,     орфографические, поэтические, экономические, а также словари иностранных     слов, синонимов и антонимов. Читатели Кормужиханской сельской библиотеки смогут     познакомиться с биографией русского писателя Владимира Даля, полистать разные     виды словарей – от толкового до фразеологического.","age":6,"ageCategory":"6+","startDate":"10.11.2025","endDate":"20.11.2025","city":"Октябрьский район","category":"Выставки","isFree":true,"price":"","image":"https:\/\/all.culture.ru\/uploads\/266bd909d219ba22f6b44688c1cfa83e.jpg","place":"Кормужиханская сельская библиотека","address":"АО Ханты-Мансийский Автономный округ - Югра,р-н Октябрьский,п Кормужиханка,ул Школьная,зд 20","organizer":"МБУК «Межпоселенческая библиотека Октябрьского района»"},{"id":6340577,"title":"«Летучий корабль»","description":"  Мультфильм «Летучий корабль» (1979) рассказывает о любви простого парня и царской дочери, о волшебстве и справедливости. Основой для сюжета послужила одноимённая русская народная сказка. Любовь, которая преодолевает преграды. Иван, несмотря на свою простоту и отсутствие богатства, добивается цели благодаря искренности и верности чувствам.Мечта и свобода. Летучий корабль — символ свободы и надежды на лучшее будущее.Народная мудрость и юмор в песенной форме. Весь мультфильм состоит из песен, в которых персонажи изливают свои души, а такие персонажи, как Водяной, вводят в мультфильм элементы юмора.  ","age":6,"ageCategory":"6+","startDate":"15.11.2025","endDate":"15.11.2025","city":"Буинск","category":"Кино","isFree":true,"price":"","image":"https:\/\/all.culture.ru\/uploads\/b19249357224e8cec14f108fae2d4d85.jpg","place":"Досуговый центр Буинского района","address":"Респ Татарстан,р-н Буинский,г Буинск,ул Р.Люксембург,д 65","organizer":"МБУ «Досуговый центр» Буинского муниципального района РТ"},{"id":6340578,"title":"Развлекательная программа «Передай добро другому»","description":"Васильевский клуб приглашает жителей и гостей с.Васильевское на развлекательную программу «Передай добро по кругу»  Целью программы является объединение и создание атмосферы тепла и доброжелательности. В ходе программы участники смогут поучаствовать в мастер-классах и научиться делать маленькие подарки своими руками. Также у них будет возможность принять участие в музыкальной викторине и танцевальном флешмобе.  Данная программа призвана напомнить всем, что даже самые маленькие проявления доброты могут совершить настоящие чудеса в нашем общем мире. Ждем вас на празднике, где добро становится реальностью и объединяет сердца!","age":0,"ageCategory":"0+","startDate":"14.11.2025","endDate":"14.11.2025","city":"Великоустюгский район","category":"Прочие","isFree":true,"price":"","image":"https:\/\/all.culture.ru\/uploads\/f0c969dafa6c366869715285002cf9d9.jpg","place":"Центр культурного развития г. Красавино","address":"обл Вологодская,р-н Великоустюгский,г Красавино,пр-кт Советский,д 152","organizer":"МБУК «Центр культурного развития г. Красавино»"},{"id":6340579,"title":"«Давай танцевать»","description":" Ансамбль «Колибри» начался как самодеятельный коллектив. Его основали энтузиасты: руководители, дети и их родители. Сначала он работал при школе для глухих и слабослышащих детей в Твери. Позже коллектив перешел в Тверскую школу-интернат №2.«Колибри» хорошо знают в Твери и Тверской области. Ансамбль часто участвует в важных мероприятиях и концертах, которые организует региональное отделение Всероссийского общества глухих. Вместе с другими творческими коллективами «Колибри» реализует проект «Добрый жест». С этим проектом ансамбль побывал во многих городах Центрального федерального округа России. ","age":0,"ageCategory":"0+","startDate":"15.11.2025","endDate":"15.11.2025","city":"Тверь","category":"Концерты","isFree":true,"price":"","image":"https:\/\/all.culture.ru\/uploads\/1595bca1d11932f8ea5073c4da512faa.jpg","place":"Областной дворец культуры «Пролетарка»","address":"обл Тверская,г Тверь,пр-кт Калинина,д 20","organizer":"ГБУК ТОДК «Пролетарка»"},{"id":6340580,"title":"Показ фильма «Яга на нашу голову»","description":"Когда у десятилетнего Пети появляется новая воспитательница – странная и ворчливая, но невероятно обаятельная, – он быстро понимает, что она не такая, как все. Она – «няня под прикрытием», а на самом деле – Яга, легендарная волшебница, потерявшая свою ступу и спрятавшаяся среди людей. Теперь только Петя сможет помочь ей вернуть магические силы, а Яга – научить мальчика летать. И не только на ступе, но и по жизни. Режиссером картины является Александр Войтинский («По щучьему велению»). Главные роли исполнили Светлана Ходченкова и Юрий Колокольников.","age":6,"ageCategory":"6+","startDate":"13.11.2025","endDate":"16.11.2025","city":"Тихвинский район","category":"Кино","isFree":false,"price":300,"image":"https:\/\/all.culture.ru\/uploads\/99848765da4fa48e734751e09e7377df.jpg","place":"Кинотеатр «КиноТихвин»","address":"обл Ленинградская,р-н Тихвинский,г Тихвин,ул Карла Маркса,д 30","organizer":"ООО «КиноТихвин»"},{"id":6340582,"title":"СПЕКТАКЛЬ «ЛЮБОВЬ И ЗВЕЗДЫ»","description":"Музыкальный спектакль-ревью «Любовь и звезды», в котором ярко переплетаются музыка и танцы, представит зрителям незабываемое путешествие в мир мелодий и ритмов прошлого. В программе будут звучать самые известные хиты таких культовых исполнителей, как Адриано Челентано, Далида, Фрэнк Синатра и многих других.В роли главных исполнителей выступят заслуженный артист России Леонид Серебренников и актриса театра и кино Ксения Кастор. Их таланты, харизма и мастерство подарят зрителям поистине волшебные моменты, наполненные эмоциональными и чувственными интерпретациями любимых мелодий в музыкальном спектакле-ревью «Любовь и звезды».Каждый музыкальны номер спектакля будет сопровождаться красочным танцевальным шоу, создающими атмосферу ретро и дарящими ностальгию. Позвольте себе погрузиться в завораживающий мир музыки, где каждое слово и нота вызывают лучшие воспоминания и настроение.Не пропустите этот уникальный спектакль с участием заслуженного артист России Леонида Серебренникова и актрисы театра и кино Ксении Кастор, который станет не только великолепным шоу, но и настоящим праздником для всех любителей музыкального искусства!","age":12,"ageCategory":"12+","startDate":"23.11.2025","endDate":"23.11.2025","city":"Одинцовский район","category":"Концерты","isFree":false,"price":800,"image":"https:\/\/all.culture.ru\/uploads\/242a3e035c6fedd20e3dc1af80a42afd.jpeg","place":"Культурно-досуговый центр с. Ершово","address":"обл Московская,р-н Одинцовский,с Ершово,д 3А","organizer":"МБУ «КСДЦ «Ершовское»"},{"id":6340583,"title":"Правовой навигатор «Есть права и у детей!»","description":"Дети узнают о своих правах и обязанностях. Особое внимание будет уделено Конвенции о правах ребенка. Ученики познакомятся с нормами поведения в общественных местах, а также изучат документ и историю его создания, чтобы упорядочить свои знания о правонарушениях. В ходе мероприятий ребята примут участие в познавательных играх: «Разрешается–запрещается», «Скажи правильно» и «Кто быстрее». Библиотекари помогут разобраться в случаях нарушения прав человека и ответят на вопросы правовой викторины. Также будет организована выставка-совет «Большие права для маленьких детей».","age":6,"ageCategory":"6+","startDate":"19.11.2025","endDate":"19.11.2025","city":"Александровский район","category":"Прочие","isFree":true,"price":"","image":"https:\/\/all.culture.ru\/uploads\/5371c972fb3eb7aa18443afee5cdc77e.jpg","place":"Центральная детская библиотека с. Александровского","address":"край Ставропольский,р-н Александровский,с Александровское,ул Московская,д 38","organizer":"МУК «Централизованная библиотечная система» Александровского муниципального округа"},{"id":6340584,"title":"Вечер «Свет материнской любви»","description":"День матери – это особый праздник в календаре, наполненный любовью, теплотой и искренностью чувств ко всем женщинам, воспитывающих детей. Для каждого мама – самый родной человек на земле. В преддверии значимой даты состоится литературно-поэтический вечер «Свет материнской любви». Участники познакомятся с историей возникновения семейного праздника, узнают, как и когда его отмечают в разных странах мира, вспомнят образы матерей в живописи, музыке, кинематографе, литературе. Гостей библиотеки ожидают игры, викторины. К празднику будет оформлена книжная выставка «Самая прекрасная из женщин», на которой представлены художественные произведения русских писателей и поэтов, посвятивших свои строки матерям. Особое место на ней займут книги о судьбах простых женщин.","age":6,"ageCategory":"6+","startDate":"29.11.2025","endDate":"29.11.2025","city":"Захаровский район","category":"Прочие","isFree":true,"price":"","image":"https:\/\/all.culture.ru\/uploads\/081c0fd86e36a77a44a9dcf3d473b292.jpg","place":"Победовская сельская библиотека","address":"обл Рязанская,р-н Захаровский,с Захарово,ул Победы,д 42","organizer":"МБУК «ЦБ Захаровского муниципального района»"},{"id":6340585,"title":"Показ фильма «Яга на нашу голову»","description":"Когда у десятилетнего Пети появляется новая воспитательница – странная и ворчливая, но невероятно обаятельная, – он быстро понимает, что она не такая, как все. Она – «няня под прикрытием», а на самом деле – Яга, легендарная волшебница, потерявшая свою ступу и спрятавшаяся среди людей. Теперь только Петя сможет помочь ей вернуть магические силы, а Яга – научить мальчика летать. И не только на ступе, но и по жизни. Режиссером картины является Александр Войтинский («По щучьему велению»). Главные роли исполнили Светлана Ходченкова и Юрий Колокольников.","age":6,"ageCategory":"6+","startDate":"12.11.2025","endDate":"16.11.2025","city":"Шигонский район","category":"Кино","isFree":false,"price":200,"image":"https:\/\/all.culture.ru\/uploads\/99848765da4fa48e734751e09e7377df.jpg","place":"Дом культуры с. Шигоны","address":"обл Самарская,р-н Шигонский,с Шигоны,ул Советская,д 131","organizer":"МУК «Межпоселенческий культурно-досуговый центр» МР Шигонский Самарской области"},{"id":6340586,"title":"«Хорошо быть здоровым» игровая программа","description":"Быть здоровым, значит быть сильным, крепким, выносливым, ловким, стройным, красивым. Здоровье – это главная ценность в жизни человека. Быть здоровым - естественное желание человека. Не зря в народе говорят: «Деньги потерял – ничего не потерял, время потерял – многое потерял, здоровье потерял – все потерял».Мюдовский сельский Дом культуры приглашает на игровую программу «Быть здоровым классно».Программа начнется с разминки, которая состоит из мини- викторины. Затем присутствующие  примут участие в конкурсе «Правильное питание- залог здоровья». В завершении игровой программы ребята сделают вывод, что каждый  из нас должен осознавать, какой это бесценный клад.","age":0,"ageCategory":"0+","startDate":"19.11.2025","endDate":"19.11.2025","city":"Аксубаевский район","category":"Прочие","isFree":true,"price":"","image":"https:\/\/all.culture.ru\/uploads\/c69a2fe5250e837e5e02bcb680af57a8.jpg","place":"Мюдовский сельский дом культуры","address":"Респ Татарстан,р-н Аксубаевский,п Мюд,ул Центральная,д 35","organizer":"МБУК «Централизованная клубная система» (Районный дом культуры) Аксубаевского муниципального района РТ"},{"id":6340588,"title":"Патриотический час «Он гением блистал в бою»","description":"В ходе мероприятия будет показана мультимедийная презентация «Непобедимый Суворов», а также представлен отрывок из историко-биографического фильма «Суворов» (1940). Кроме того, участников ждет игра «Знатоки истории».Гости мероприятия узнают, что Александр Суворов является не только выдающимся военным деятелем в истории России, но и одним из самых знаменитых полководцев в мире. Им также будет предложен список рекомендованной литературы о жизни и подвигах Суворова.В конце мероприятия дети выразят свое мнение о том, что Суворов был великим человеком, образцом мужества и стойкости, а также примером для тех, кто планирует связать свою жизнь с военной службой.","age":0,"ageCategory":"0+","startDate":"22.11.2025","endDate":"22.11.2025","city":"Дрожжановский район","category":"Встречи","isFree":true,"price":"","image":"https:\/\/all.culture.ru\/uploads\/769b2223bac113e28c0ef36406844562.jpg","place":"Татарско-Безднинский сельский клуб – филиал № 35","address":"Респ Татарстан,р-н Дрожжановский,с Татарская Бездна,ул Ленина,д 25","organizer":"Муниципальное бюджетное учреждение «Межпоселенческий дом культуры Дрожжановского муниципального района Республики Татарстан»"}],"total":973,"page":81,"limit":12,"pages":82}